lab03/licznik74193/simulation/qsim/licznik74193.msim.vcd
$comment
	File created using the following command:
		vcd file licznik74193.msim.vcd -direction
$end
$date
	Wed Dec 14 23:29:31 2016
$end
$version
	ModelSim Version 10.1d
$end
$timescale
	1ps
$end
$scope module licznik74193_vlg_vec_tst $end
$var reg 1 ! pin_name1 $end
$var reg 1 " pin_name2 $end
$var reg 1 # pin_name11 $end
$var wire 1 $ pin_name3 $end
$var wire 1 % pin_name4 $end
$var wire 1 & pin_name5 $end
$var wire 1 ' pin_name6 $end
$var wire 1 ( pin_name7 $end
$var wire 1 ) pin_name8 $end
$var wire 1 * pin_name9 $end
$var wire 1 + pin_name10 $end
$var wire 1 , sampler $end
$scope module i1 $end
$var wire 1 - gnd $end
$var wire 1 . vcc $end
$var wire 1 / unknown $end
$var tri1 1 0 devclrn $end
$var tri1 1 1 devpor $end
$var tri1 1 2 devoe $end
$var wire 1 3 inst1|50~0_combout $end
$var wire 1 4 inst1|50~1_combout $end
$var wire 1 5 pin_name2~combout $end
$var wire 1 6 pin_name1~combout $end
$var wire 1 7 inst|94~combout $end
$var wire 1 8 inst|26~0_combout $end
$var wire 1 9 inst|26~regout $end
$var wire 1 : pin_name11~combout $end
$var wire 1 ; inst2~0_combout $end
$var wire 1 < inst3~combout $end
$var wire 1 = inst|93~combout $end
$var wire 1 > inst|25~0_combout $end
$var wire 1 ? inst|25~regout $end
$var wire 1 @ inst|51~0_combout $end
$var wire 1 A inst|50~0_combout $end
$var wire 1 B inst|92~combout $end
$var wire 1 C inst|24~0_combout $end
$var wire 1 D inst|24~regout $end
$var wire 1 E inst|91~combout $end
$var wire 1 F inst|23~0_combout $end
$var wire 1 G inst|23~regout $end
$var wire 1 H inst1|94~combout $end
$var wire 1 I inst1|26~0_combout $end
$var wire 1 J inst1|26~regout $end
$var wire 1 K inst|28~combout $end
$var wire 1 L inst|27~combout $end
$var wire 1 M inst1|93~combout $end
$var wire 1 N inst1|25~0_combout $end
$var wire 1 O inst1|25~regout $end
$var wire 1 P inst1|92~combout $end
$var wire 1 Q inst1|24~0_combout $end
$var wire 1 R inst1|24~regout $end
$var wire 1 S inst1|51~0_combout $end
$var wire 1 T inst1|91~combout $end
$var wire 1 U inst1|23~0_combout $end
$var wire 1 V inst1|23~regout $end
$upscope $end
$upscope $end
$enddefinitions $end
#0
$dumpvars
0!
0"
1#
x$
x%
x&
x'
x(
x)
x*
x+
x,
0-
1.
x/
10
11
12
x3
x4
05
06
x7
18
09
1:
x;
x<
x=
1>
0?
x@
xA
xB
1C
0D
xE
1F
0G
xH
1I
0J
xK
xL
xM
1N
0O
xP
1Q
0R
xS
xT
1U
0V
$end
#476
0S
#495
0L
#609
13
#739
0@
#1692
0<
#1693
07
#1824
1A
#2081
1=
#2258
0B
0E
#2260
1K
#2262
14
0H
#2920
1M
#3121
0P
#3160
0T
#3390
0)
#3391
0'
#3401
0(
#3420
0+
#3421
0&
#3422
0*
#3455
0%
#3729
0$
#5192
0;
#40000
1"
0,
#40840
15
#46032
1;
#80000
0"
1,
#80840
05
#86032
0;
#120000
1"
0,
#120840
15
#126032
1;
#160000
0"
1,
#160840
05
#166032
0;
#200000
1"
0,
#200840
15
#206032
1;
#240000
0"
1,
#240840
05
#246032
0;
#280000
1"
0,
#280840
15
#286032
1;
#320000
0"
1,
#320840
05
#326032
0;
#360000
1"
0,
#360840
15
#366032
1;
#400000
0"
1,
#400840
05
#406032
0;
#440000
1"
0,
#440840
15
#446032
1;
#480000
0"
1,
#480840
05
#486032
0;
#520000
1"
0,
#520840
15
#526032
1;
#560000
0"
1,
#560840
05
#566032
0;
#600000
1"
0,
#600840
15
#606032
1;
#640000
0"
1,
#640840
05
#646032
0;
#680000
1"
0,
#680840
15
#686032
1;
#720000
0"
1,
#720840
05
#726032
0;
#760000
1"
0,
#760840
15
#766032
1;
#800000
0"
1,
#800840
05
#806032
0;
#840000
1"
0,
#840840
15
#846032
1;
#880000
0"
1,
#880840
05
#886032
0;
#920000
1"
0,
#920840
15
#926032
1;
#960000
0"
1,
#960840
05
#966032
0;
#1000000
1"
0,
#1000840
15
#1006032
1;
#1040000
0"
1,
#1040840
05
#1046032
0;
#1080000
1"
0,
#1080840
15
#1086032
1;
#1120000
0"
1,
#1120840
05
#1126032
0;
#1160000
1"
0,
#1160840
15
#1166032
1;
#1200000
0"
1,
#1200840
05
#1206032
0;
#1240000
1"
0,
#1240840
15
#1246032
1;
#1280000
0"
1,
#1280840
05
#1286032
0;
#1320000
1"
0,
#1320840
15
#1326032
1;
#1360000
0"
1,
#1360840
05
#1366032
0;
#1400000
1"
0,
#1400840
15
#1406032
1;
#1440000
0"
1,
#1440840
05
#1446032
0;
#1480000
1"
0,
#1480840
15
#1486032
1;
#1520000
0"
1,
#1520840
05
#1526032
0;
#1560000
1"
0,
#1560840
15
#1566032
1;
#1600000
0"
1,
#1600840
05
#1606032
0;
#1640000
1"
0,
#1640840
15
#1646032
1;
#1680000
0"
1,
#1680840
05
#1686032
0;
#1720000
1"
0,
#1720840
15
#1726032
1;
#1760000
0"
1,
#1760840
05
#1766032
0;
#1800000
1"
0,
#1800840
15
#1806032
1;
#1840000
0"
1,
#1840840
05
#1846032
0;
#1880000
1"
0,
#1880840
15
#1886032
1;
#1920000
0"
1,
#1920840
05
#1926032
0;
#1960000
1"
0,
#1960840
15
#1966032
1;
#2000000
0"
1,
#2000840
05
#2006032
0;
#2040000
1"
0,
#2040840
15
#2046032
1;
#2080000
0"
1,
#2080840
05
#2086032
0;
#2120000
1"
0,
#2120840
15
#2126032
1;
#2160000
0"
1,
#2160840
05
#2166032
0;
#2200000
1"
0,
#2200840
15
#2206032
1;
#2240000
0"
1,
#2240840
05
#2246032
0;
#2280000
1"
0,
#2280840
15
#2286032
1;
#2320000
0"
1,
#2320840
05
#2326032
0;
#2360000
1"
0,
#2360840
15
#2366032
1;
#2400000
0"
1,
#2400840
05
#2406032
0;
#2440000
1"
0,
#2440840
15
#2446032
1;
#2480000
0"
1,
#2480840
05
#2486032
0;
#2520000
1"
0,
#2520840
15
#2526032
1;
#2560000
0"
1,
#2560840
05
#2566032
0;
#2600000
1"
0,
#2600840
15
#2606032
1;
#2640000
0"
1,
#2640840
05
#2646032
0;
#2680000
1"
0,
#2680840
15
#2686032
1;
#2720000
0"
1,
#2720840
05
#2726032
0;
#2760000
1"
0,
#2760840
15
#2766032
1;
#2800000
0"
1,
#2800840
05
#2806032
0;
#2840000
1"
0,
#2840840
15
#2846032
1;
#2880000
0"
1,
#2880840
05
#2886032
0;
#2920000
1"
0,
#2920840
15
#2926032
1;
#2960000
0"
1,
#2960840
05
#2966032
0;
#3000000
1"
0,
#3000840
15
#3006032
1;
#3040000
0"
1,
#3040840
05
#3046032
0;
#3080000
1"
0,
#3080840
15
#3086032
1;
#3120000
0"
1,
#3120840
05
#3126032
0;
#3160000
1"
0,
#3160840
15
#3166032
1;
#3200000
0"
1,
#3200840
05
#3206032
0;
#3240000
1"
0,
#3240840
15
#3246032
1;
#3280000
0"
1,
#3280840
05
#3286032
0;
#3320000
1"
0,
#3320840
15
#3326032
1;
#3360000
0"
1,
#3360840
05
#3366032
0;
#3400000
1"
0,
#3400840
15
#3406032
1;
#3440000
0"
1,
#3440840
05
#3446032
0;
#3480000
1"
0,
#3480840
15
#3486032
1;
#3520000
0"
1,
#3520840
05
#3526032
0;
#3560000
1"
0,
#3560840
15
#3566032
1;
#3600000
0"
1,
#3600840
05
#3606032
0;
#3640000
1"
0,
#3640840
15
#3646032
1;
#3680000
0"
1,
#3680840
05
#3686032
0;
#3720000
1"
0,
#3720840
15
#3726032
1;
#3760000
0"
1,
#3760840
05
#3766032
0;
#3800000
1"
0,
#3800840
15
#3806032
1;
#3840000
0"
1,
#3840840
05
#3846032
0;
#3880000
1"
0,
#3880840
15
#3886032
1;
#3920000
0"
1,
#3920840
05
#3926032
0;
#3960000
1"
0,
#3960840
15
#3966032
1;
#4000000
0"
1,
#4000840
05
#4006032
0;
#4040000
1"
0,
#4040840
15
#4046032
1;
#4080000
0"
1,
#4080840
05
#4086032
0;
#4120000
1"
0,
#4120840
15
#4126032
1;
#4160000
0"
1,
#4160840
05
#4166032
0;
#4200000
1"
0,
#4200840
15
#4206032
1;
#4240000
0"
1,
#4240840
05
#4246032
0;
#4280000
1"
0,
#4280840
15
#4286032
1;
#4320000
0"
1,
#4320840
05
#4326032
0;
#4360000
1"
0,
#4360840
15
#4366032
1;
#4400000
0"
1,
#4400840
05
#4406032
0;
#4440000
1"
0,
#4440840
15
#4446032
1;
#4480000
0"
1,
#4480840
05
#4486032
0;
#4520000
1"
0,
#4520840
15
#4526032
1;
#4560000
0"
1,
#4560840
05
#4566032
0;
#4600000
1"
0,
#4600840
15
#4606032
1;
#4640000
0"
1,
#4640840
05
#4646032
0;
#4680000
1"
0,
#4680840
15
#4686032
1;
#4720000
0"
1,
#4720840
05
#4726032
0;
#4760000
1"
0,
#4760840
15
#4766032
1;
#4800000
0"
1,
#4800840
05
#4806032
0;
#4840000
1"
0,
#4840840
15
#4846032
1;
#4880000
0"
1,
#4880840
05
#4886032
0;
#4920000
1"
0,
#4920840
15
#4926032
1;
#4960000
0"
1,
#4960840
05
#4966032
0;
#5000000
1"
0,
#5000840
15
#5006032
1;
#5040000
0"
1,
#5040840
05
#5046032
0;
#5080000
1"
0,
#5080840
15
#5086032
1;
#5120000
0"
1,
#5120840
05
#5126032
0;
#5160000
1"
0,
#5160840
15
#5166032
1;
#5200000
0"
1,
#5200840
05
#5206032
0;
#5240000
1"
0,
#5240840
15
#5246032
1;
#5280000
0"
1,
#5280840
05
#5286032
0;
#5320000
1"
0,
#5320840
15
#5326032
1;
#5360000
0"
1,
#5360840
05
#5366032
0;
#5400000
1"
0,
#5400840
15
#5406032
1;
#5440000
0"
1,
#5440840
05
#5446032
0;
#5480000
1"
0,
#5480840
15
#5486032
1;
#5520000
0"
1,
#5520840
05
#5526032
0;
#5560000
1"
0,
#5560840
15
#5566032
1;
#5600000
0"
1,
#5600840
05
#5606032
0;
#5640000
1"
0,
#5640840
15
#5646032
1;
#5680000
0"
1,
#5680840
05
#5686032
0;
#5720000
1"
0,
#5720840
15
#5726032
1;
#5760000
0"
1,
#5760840
05
#5766032
0;
#5800000
1"
0,
#5800840
15
#5806032
1;
#5840000
0"
1,
#5840840
05
#5846032
0;
#5880000
1"
0,
#5880840
15
#5886032
1;
#5920000
0"
1,
#5920840
05
#5926032
0;
#5960000
1"
0,
#5960840
15
#5966032
1;
#6000000
0"
1,
#6000840
05
#6006032
0;
#6040000
1"
0,
#6040840
15
#6046032
1;
#6080000
0"
1,
#6080840
05
#6086032
0;
#6120000
1"
0,
#6120840
15
#6126032
1;
#6160000
0"
1,
#6160840
05
#6166032
0;
#6200000
1"
0,
#6200840
15
#6206032
1;
#6240000
0"
1,
#6240840
05
#6246032
0;
#6280000
1"
0,
#6280840
15
#6286032
1;
#6320000
0"
1,
#6320840
05
#6326032
0;
#6360000
1"
0,
#6360840
15
#6366032
1;
#6400000
0"
1,
#6400840
05
#6406032
0;
#6440000
1"
0,
#6440840
15
#6446032
1;
#6480000
0"
1,
#6480840
05
#6486032
0;
#6520000
1"
0,
#6520840
15
#6526032
1;
#6560000
0"
1,
#6560840
05
#6566032
0;
#6600000
1"
0,
#6600840
15
#6606032
1;
#6640000
0"
1,
#6640840
05
#6646032
0;
#6680000
1"
0,
#6680840
15
#6686032
1;
#6720000
0"
1,
#6720840
05
#6726032
0;
#6760000
1"
0,
#6760840
15
#6766032
1;
#6800000
0"
1,
#6800840
05
#6806032
0;
#6840000
1"
0,
#6840840
15
#6846032
1;
#6880000
0"
1,
#6880840
05
#6886032
0;
#6920000
1"
0,
#6920840
15
#6926032
1;
#6960000
0"
1,
#6960840
05
#6966032
0;
#7000000
1"
0,
#7000840
15
#7006032
1;
#7040000
0"
1,
#7040840
05
#7046032
0;
#7080000
1"
0,
#7080840
15
#7086032
1;
#7120000
0"
1,
#7120840
05
#7126032
0;
#7160000
1"
0,
#7160840
15
#7166032
1;
#7200000
0"
1,
#7200840
05
#7206032
0;
#7240000
1"
0,
#7240840
15
#7246032
1;
#7280000
0"
1,
#7280840
05
#7286032
0;
#7320000
1"
0,
#7320840
15
#7326032
1;
#7360000
0"
1,
#7360840
05
#7366032
0;
#7400000
1"
0,
#7400840
15
#7406032
1;
#7440000
0"
1,
#7440840
05
#7446032
0;
#7480000
1"
0,
#7480840
15
#7486032
1;
#7520000
0"
1,
#7520840
05
#7526032
0;
#7560000
1"
0,
#7560840
15
#7566032
1;
#7600000
0"
1,
#7600840
05
#7606032
0;
#7640000
1"
0,
#7640840
15
#7646032
1;
#7680000
0"
1,
#7680840
05
#7686032
0;
#7720000
1"
0,
#7720840
15
#7726032
1;
#7760000
0"
1,
#7760840
05
#7766032
0;
#7800000
1"
0,
#7800840
15
#7806032
1;
#7840000
0"
1,
#7840840
05
#7846032
0;
#7880000
1"
0,
#7880840
15
#7886032
1;
#7920000
0"
1,
#7920840
05
#7926032
0;
#7960000
1"
0,
#7960840
15
#7966032
1;
#8000000
0"
1,
#8000840
05
#8006032
0;
#8040000
1"
0,
#8040840
15
#8046032
1;
#8080000
0"
1,
#8080840
05
#8086032
0;
#8120000
1"
0,
#8120840
15
#8126032
1;
#8160000
0"
1,
#8160840
05
#8166032
0;
#8200000
1"
0,
#8200840
15
#8206032
1;
#8240000
0"
1,
#8240840
05
#8246032
0;
#8280000
1"
0,
#8280840
15
#8286032
1;
#8320000
0"
1,
#8320840
05
#8326032
0;
#8360000
1"
0,
#8360840
15
#8366032
1;
#8400000
0"
1,
#8400840
05
#8406032
0;
#8440000
1"
0,
#8440840
15
#8446032
1;
#8480000
0"
1,
#8480840
05
#8486032
0;
#8520000
1"
0,
#8520840
15
#8526032
1;
#8560000
0"
1,
#8560840
05
#8566032
0;
#8600000
1"
0,
#8600840
15
#8606032
1;
#8640000
0"
1,
#8640840
05
#8646032
0;
#8680000
1"
0,
#8680840
15
#8686032
1;
#8720000
0"
1,
#8720840
05
#8726032
0;
#8760000
1"
0,
#8760840
15
#8766032
1;
#8800000
0"
1,
#8800840
05
#8806032
0;
#8840000
1"
0,
#8840840
15
#8846032
1;
#8880000
0"
1,
#8880840
05
#8886032
0;
#8920000
1"
0,
#8920840
15
#8926032
1;
#8960000
0"
1,
#8960840
05
#8966032
0;
#9000000
1"
0,
#9000840
15
#9006032
1;
#9040000
0"
1,
#9040840
05
#9046032
0;
#9080000
1"
0,
#9080840
15
#9086032
1;
#9120000
0"
1,
#9120840
05
#9126032
0;
#9160000
1"
0,
#9160840
15
#9166032
1;
#9200000
0"
1,
#9200840
05
#9206032
0;
#9240000
1"
0,
#9240840
15
#9246032
1;
#9280000
0"
1,
#9280840
05
#9286032
0;
#9320000
1"
0,
#9320840
15
#9326032
1;
#9360000
0"
1,
#9360840
05
#9366032
0;
#9400000
1"
0,
#9400840
15
#9406032
1;
#9440000
0"
1,
#9440840
05
#9446032
0;
#9480000
1"
0,
#9480840
15
#9486032
1;
#9520000
0"
1,
#9520840
05
#9526032
0;
#9560000
1"
0,
#9560840
15
#9566032
1;
#9600000
0"
1,
#9600840
05
#9606032
0;
#9640000
1"
0,
#9640840
15
#9646032
1;
#9680000
0"
1,
#9680840
05
#9686032
0;
#9720000
1"
0,
#9720840
15
#9726032
1;
#9760000
0"
1,
#9760840
05
#9766032
0;
#9800000
1"
0,
#9800840
15
#9806032
1;
#9840000
0"
1,
#9840840
05
#9846032
0;
#9880000
1"
0,
#9880840
15
#9886032
1;
#9920000
0"
1,
#9920840
05
#9926032
0;
#9960000
1"
0,
#9960840
15
#9966032
1;
