lab03/licznik74193/simulation/qsim/licznik74193.msim.vcd
$comment
	File created using the following command:
		vcd file licznik74193.msim.vcd -direction
$end
$date
	Thu Dec 15 22:55:28 2016
$end
$version
	ModelSim Version 10.1d
$end
$timescale
	1ps
$end
$scope module licznik74193_vlg_vec_tst $end
$var reg 1 ! pin_name1 $end
$var reg 1 " pin_name2 $end
$var wire 1 # pin_name3 $end
$var wire 1 $ pin_name4 $end
$var wire 1 % pin_name5 $end
$var wire 1 & pin_name6 $end
$var wire 1 ' pin_name7 $end
$var wire 1 ( pin_name8 $end
$var wire 1 ) pin_name9 $end
$var wire 1 * sampler $end
$scope module i1 $end
$var wire 1 + gnd $end
$var wire 1 , vcc $end
$var wire 1 - unknown $end
$var tri1 1 . devclrn $end
$var tri1 1 / devpor $end
$var tri1 1 0 devoe $end
$var wire 1 1 inst|92~combout $end
$var wire 1 2 inst|28~combout $end
$var wire 1 3 inst|27~combout $end
$var wire 1 4 inst|91~combout $end
$var wire 1 5 inst1|93~combout $end
$var wire 1 6 inst1|92~combout $end
$var wire 1 7 inst1|51~0_combout $end
$var wire 1 8 inst1|91~combout $end
$var wire 1 9 inst1|94~combout $end
$var wire 1 : inst|94~combout $end
$var wire 1 ; pin_name1~combout $end
$var wire 1 < inst|26~1_combout $end
$var wire 1 = inst|23~1_combout $end
$var wire 1 > inst|26~0_combout $end
$var wire 1 ? inst|23~_emulated_regout $end
$var wire 1 @ inst|23~0_combout $end
$var wire 1 A inst1|26~0_combout $end
$var wire 1 B inst|86~combout $end
$var wire 1 C inst1|26~regout $end
$var wire 1 D inst|24~0_combout $end
$var wire 1 E inst|24~regout $end
$var wire 1 F inst1|22~0_combout $end
$var wire 1 G pin_name2~combout $end
$var wire 1 H inst2|3~0_combout $end
$var wire 1 I inst2|3~regout $end
$var wire 1 J inst|50~0_combout $end
$var wire 1 K inst1|22~1_combout $end
$var wire 1 L inst1|23~0_combout $end
$var wire 1 M inst1|23~regout $end
$var wire 1 N inst1|28~combout $end
$var wire 1 O inst1|25~1_combout $end
$var wire 1 P inst1|25~_emulated_regout $end
$var wire 1 Q inst1|25~0_combout $end
$var wire 1 R inst10~0_combout $end
$var wire 1 S inst1|24~1_combout $end
$var wire 1 T inst1|24~_emulated_regout $end
$var wire 1 U inst1|24~0_combout $end
$var wire 1 V inst10~combout $end
$var wire 1 W inst|26~3_combout $end
$var wire 1 X inst|26~_emulated_regout $end
$var wire 1 Y inst|26~2_combout $end
$var wire 1 Z inst3~combout $end
$var wire 1 [ inst4~combout $end
$var wire 1 \ inst|93~combout $end
$var wire 1 ] inst|25~0_combout $end
$var wire 1 ^ inst|25~regout $end
$upscope $end
$upscope $end
$enddefinitions $end
#0
$dumpvars
0!
0"
x#
0$
0%
x&
0'
x(
x)
x*
0+
1,
x-
1.
1/
10
11
02
03
14
05
16
07
18
19
1:
0;
x<
x=
0>
0?
x@
1A
0B
0C
1D
0E
xF
0G
1H
0I
0J
0K
1L
0M
0N
xO
0P
xQ
0R
xS
0T
xU
0V
xW
0X
xY
0Z
0[
0\
1]
0^
$end
#10000
1"
1G
0*
1[
xR
0:
x\
xV
xB
x>
#20000
0"
0G
1*
0[
0R
1:
0\
0V
0B
0>
xX
#30000
1"
1G
0*
1[
xR
0:
x\
xV
xB
x>
#40000
0"
0G
1*
0[
0R
1:
0\
0V
0B
0>
#50000
1"
1G
0*
1[
xR
0:
x\
xV
xB
x>
#60000
0"
0G
1*
0[
0R
1:
0\
0V
0B
0>
#70000
1"
1G
0*
1[
xR
0:
x\
xV
xB
x>
#80000
0"
0G
1*
0[
0R
1:
0\
0V
0B
0>
#90000
1"
1G
0*
1[
xR
0:
x\
xV
xB
x>
#100000
0"
0G
1*
0[
0R
1:
0\
0V
0B
0>
#110000
1"
1G
0*
1[
xR
0:
x\
xV
xB
x>
#120000
0"
0G
1*
0[
0R
1:
0\
0V
0B
0>
#130000
1"
1G
0*
1[
xR
0:
x\
xV
xB
x>
#140000
0"
0G
1*
0[
0R
1:
0\
0V
0B
0>
#150000
1"
1G
0*
1[
xR
0:
x\
xV
xB
x>
#160000
0"
0G
1*
0[
0R
1:
0\
0V
0B
0>
#170000
1"
1G
0*
1[
xR
0:
x\
xV
xB
x>
#180000
0"
0G
1*
0[
0R
1:
0\
0V
0B
0>
#190000
1"
1G
0*
1[
xR
0:
x\
xV
xB
x>
#200000
0"
0G
1*
0[
0R
1:
0\
0V
0B
0>
#210000
1"
1G
0*
1[
xR
0:
x\
xV
xB
x>
#220000
0"
0G
1*
0[
0R
1:
0\
0V
0B
0>
#230000
1"
1G
0*
1[
xR
0:
x\
xV
xB
x>
#240000
0"
0G
1*
0[
0R
1:
0\
0V
0B
0>
#250000
1"
1G
0*
1[
xR
0:
x\
xV
xB
x>
#260000
0"
0G
1*
0[
0R
1:
0\
0V
0B
0>
#270000
1"
1G
0*
1[
xR
0:
x\
xV
xB
x>
#280000
0"
0G
1*
0[
0R
1:
0\
0V
0B
0>
#290000
1"
1G
0*
1[
xR
0:
x\
xV
xB
x>
#300000
0"
0G
1*
0[
0R
1:
0\
0V
0B
0>
#310000
1"
1G
0*
1[
xR
0:
x\
xV
xB
x>
#320000
0"
0G
1*
0[
0R
1:
0\
0V
0B
0>
#330000
1"
1G
0*
1[
xR
0:
x\
xV
xB
x>
#340000
0"
0G
1*
0[
0R
1:
0\
0V
0B
0>
#350000
1"
1G
0*
1[
xR
0:
x\
xV
xB
x>
#360000
0"
0G
1*
0[
0R
1:
0\
0V
0B
0>
#370000
1"
1G
0*
1[
xR
0:
x\
xV
xB
x>
#380000
0"
0G
1*
0[
0R
1:
0\
0V
0B
0>
#390000
1"
1G
0*
1[
xR
0:
x\
xV
xB
x>
#400000
0"
0G
1*
0[
0R
1:
0\
0V
0B
0>
#410000
1"
1G
0*
1[
xR
0:
x\
xV
xB
x>
#420000
0"
0G
1*
0[
0R
1:
0\
0V
0B
0>
#430000
1"
1G
0*
1[
xR
0:
x\
xV
xB
x>
#440000
0"
0G
1*
0[
0R
1:
0\
0V
0B
0>
#450000
1"
1G
0*
1[
xR
0:
x\
xV
xB
x>
#460000
0"
0G
1*
0[
0R
1:
0\
0V
0B
0>
#470000
1"
1G
0*
1[
xR
0:
x\
xV
xB
x>
#480000
0"
0G
1*
0[
0R
1:
0\
0V
0B
0>
#490000
1"
1G
0*
1[
xR
0:
x\
xV
xB
x>
#500000
0"
0G
1*
0[
0R
1:
0\
0V
0B
0>
#510000
1"
1G
0*
1[
xR
0:
x\
xV
xB
x>
#520000
0"
0G
1*
0[
0R
1:
0\
0V
0B
0>
#530000
1"
1G
0*
1[
xR
0:
x\
xV
xB
x>
#540000
0"
0G
1*
0[
0R
1:
0\
0V
0B
0>
#550000
1"
1G
0*
1[
xR
0:
x\
xV
xB
x>
#560000
0"
0G
1*
0[
0R
1:
0\
0V
0B
0>
#570000
1"
1G
0*
1[
xR
0:
x\
xV
xB
x>
#580000
0"
0G
1*
0[
0R
1:
0\
0V
0B
0>
#590000
1"
1G
0*
1[
xR
0:
x\
xV
xB
x>
#600000
0"
0G
1*
0[
0R
1:
0\
0V
0B
0>
#610000
1"
1G
0*
1[
xR
0:
x\
xV
xB
x>
#620000
0"
0G
1*
0[
0R
1:
0\
0V
0B
0>
#630000
1"
1G
0*
1[
xR
0:
x\
xV
xB
x>
#640000
0"
0G
1*
0[
0R
1:
0\
0V
0B
0>
#650000
1"
1G
0*
1[
xR
0:
x\
xV
xB
x>
#660000
0"
0G
1*
0[
0R
1:
0\
0V
0B
0>
#670000
1"
1G
0*
1[
xR
0:
x\
xV
xB
x>
#680000
0"
0G
1*
0[
0R
1:
0\
0V
0B
0>
#690000
1"
1G
0*
1[
xR
0:
x\
xV
xB
x>
#700000
0"
0G
1*
0[
0R
1:
0\
0V
0B
0>
#710000
1"
1G
0*
1[
xR
0:
x\
xV
xB
x>
#720000
0"
0G
1*
0[
0R
1:
0\
0V
0B
0>
#730000
1"
1G
0*
1[
xR
0:
x\
xV
xB
x>
#740000
0"
0G
1*
0[
0R
1:
0\
0V
0B
0>
#750000
1"
1G
0*
1[
xR
0:
x\
xV
xB
x>
#760000
0"
0G
1*
0[
0R
1:
0\
0V
0B
0>
#770000
1"
1G
0*
1[
xR
0:
x\
xV
xB
x>
#780000
0"
0G
1*
0[
0R
1:
0\
0V
0B
0>
#790000
1"
1G
0*
1[
xR
0:
x\
xV
xB
x>
#800000
0"
0G
1*
0[
0R
1:
0\
0V
0B
0>
#810000
1"
1G
0*
1[
xR
0:
x\
xV
xB
x>
#820000
0"
0G
1*
0[
0R
1:
0\
0V
0B
0>
#830000
1"
1G
0*
1[
xR
0:
x\
xV
xB
x>
#840000
0"
0G
1*
0[
0R
1:
0\
0V
0B
0>
#850000
1"
1G
0*
1[
xR
0:
x\
xV
xB
x>
#860000
0"
0G
1*
0[
0R
1:
0\
0V
0B
0>
#870000
1"
1G
0*
1[
xR
0:
x\
xV
xB
x>
#880000
0"
0G
1*
0[
0R
1:
0\
0V
0B
0>
#890000
1"
1G
0*
1[
xR
0:
x\
xV
xB
x>
#900000
0"
0G
1*
0[
0R
1:
0\
0V
0B
0>
#910000
1"
1G
0*
1[
xR
0:
x\
xV
xB
x>
#920000
0"
0G
1*
0[
0R
1:
0\
0V
0B
0>
#930000
1"
1G
0*
1[
xR
0:
x\
xV
xB
x>
#940000
0"
0G
1*
0[
0R
1:
0\
0V
0B
0>
#950000
1"
1G
0*
1[
xR
0:
x\
xV
xB
x>
#960000
0"
0G
1*
0[
0R
1:
0\
0V
0B
0>
#970000
1"
1G
0*
1[
xR
0:
x\
xV
xB
x>
#980000
0"
0G
1*
0[
0R
1:
0\
0V
0B
0>
#990000
1"
1G
0*
1[
xR
0:
x\
xV
xB
x>
#1000000
0"
0G
1*
0[
0R
1:
0\
0V
0B
0>
#1010000
1"
1G
0*
1[
xR
0:
x\
xV
xB
x>
#1020000
0"
0G
1*
0[
0R
1:
0\
0V
0B
0>
#1030000
1"
1G
0*
1[
xR
0:
x\
xV
xB
x>
#1040000
0"
0G
1*
0[
0R
1:
0\
0V
0B
0>
#1050000
1"
1G
0*
1[
xR
0:
x\
xV
xB
x>
#1060000
0"
0G
1*
0[
0R
1:
0\
0V
0B
0>
#1070000
1"
1G
0*
1[
xR
0:
x\
xV
xB
x>
#1080000
0"
0G
1*
0[
0R
1:
0\
0V
0B
0>
#1090000
1"
1G
0*
1[
xR
0:
x\
xV
xB
x>
#1100000
0"
0G
1*
0[
0R
1:
0\
0V
0B
0>
#1110000
1"
1G
0*
1[
xR
0:
x\
xV
xB
x>
#1120000
0"
0G
1*
0[
0R
1:
0\
0V
0B
0>
#1130000
1"
1G
0*
1[
xR
0:
x\
xV
xB
x>
#1140000
0"
0G
1*
0[
0R
1:
0\
0V
0B
0>
#1150000
1"
1G
0*
1[
xR
0:
x\
xV
xB
x>
#1160000
0"
0G
1*
0[
0R
1:
0\
0V
0B
0>
#1170000
1"
1G
0*
1[
xR
0:
x\
xV
xB
x>
#1180000
0"
0G
1*
0[
0R
1:
0\
0V
0B
0>
#1190000
1"
1G
0*
1[
xR
0:
x\
xV
xB
x>
#1200000
0"
0G
1*
0[
0R
1:
0\
0V
0B
0>
#1210000
1"
1G
0*
1[
xR
0:
x\
xV
xB
x>
#1220000
0"
0G
1*
0[
0R
1:
0\
0V
0B
0>
#1230000
1"
1G
0*
1[
xR
0:
x\
xV
xB
x>
#1240000
0"
0G
1*
0[
0R
1:
0\
0V
0B
0>
#1250000
1"
1G
0*
1[
xR
0:
x\
xV
xB
x>
#1260000
0"
0G
1*
0[
0R
1:
0\
0V
0B
0>
#1270000
1"
1G
0*
1[
xR
0:
x\
xV
xB
x>
#1280000
0"
0G
1*
0[
0R
1:
0\
0V
0B
0>
#1290000
1"
1G
0*
1[
xR
0:
x\
xV
xB
x>
#1300000
0"
0G
1*
0[
0R
1:
0\
0V
0B
0>
#1310000
1"
1G
0*
1[
xR
0:
x\
xV
xB
x>
#1320000
0"
0G
1*
0[
0R
1:
0\
0V
0B
0>
#1330000
1"
1G
0*
1[
xR
0:
x\
xV
xB
x>
#1340000
0"
0G
1*
0[
0R
1:
0\
0V
0B
0>
#1350000
1"
1G
0*
1[
xR
0:
x\
xV
xB
x>
#1360000
0"
0G
1*
0[
0R
1:
0\
0V
0B
0>
#1370000
1"
1G
0*
1[
xR
0:
x\
xV
xB
x>
#1380000
0"
0G
1*
0[
0R
1:
0\
0V
0B
0>
#1390000
1"
1G
0*
1[
xR
0:
x\
xV
xB
x>
#1400000
0"
0G
1*
0[
0R
1:
0\
0V
0B
0>
#1410000
1"
1G
0*
1[
xR
0:
x\
xV
xB
x>
#1420000
0"
0G
1*
0[
0R
1:
0\
0V
0B
0>
#1430000
1"
1G
0*
1[
xR
0:
x\
xV
xB
x>
#1440000
0"
0G
1*
0[
0R
1:
0\
0V
0B
0>
#1450000
1"
1G
0*
1[
xR
0:
x\
xV
xB
x>
#1460000
0"
0G
1*
0[
0R
1:
0\
0V
0B
0>
#1470000
1"
1G
0*
1[
xR
0:
x\
xV
xB
x>
#1480000
0"
0G
1*
0[
0R
1:
0\
0V
0B
0>
#1490000
1"
1G
0*
1[
xR
0:
x\
xV
xB
x>
#1500000
0"
0G
1*
0[
0R
1:
0\
0V
0B
0>
#1510000
1"
1G
0*
1[
xR
0:
x\
xV
xB
x>
#1520000
0"
0G
1*
0[
0R
1:
0\
0V
0B
0>
#1530000
1"
1G
0*
1[
xR
0:
x\
xV
xB
x>
#1540000
0"
0G
1*
0[
0R
1:
0\
0V
0B
0>
#1550000
1"
1G
0*
1[
xR
0:
x\
xV
xB
x>
#1560000
0"
0G
1*
0[
0R
1:
0\
0V
0B
0>
#1570000
1"
1G
0*
1[
xR
0:
x\
xV
xB
x>
#1580000
0"
0G
1*
0[
0R
1:
0\
0V
0B
0>
#1590000
1"
1G
0*
1[
xR
0:
x\
xV
xB
x>
#1600000
0"
0G
1*
0[
0R
1:
0\
0V
0B
0>
#1610000
1"
1G
0*
1[
xR
0:
x\
xV
xB
x>
#1620000
0"
0G
1*
0[
0R
1:
0\
0V
0B
0>
#1630000
1"
1G
0*
1[
xR
0:
x\
xV
xB
x>
#1640000
0"
0G
1*
0[
0R
1:
0\
0V
0B
0>
#1650000
1"
1G
0*
1[
xR
0:
x\
xV
xB
x>
#1660000
0"
0G
1*
0[
0R
1:
0\
0V
0B
0>
#1670000
1"
1G
0*
1[
xR
0:
x\
xV
xB
x>
#1680000
0"
0G
1*
0[
0R
1:
0\
0V
0B
0>
#1690000
1"
1G
0*
1[
xR
0:
x\
xV
xB
x>
#1700000
0"
0G
1*
0[
0R
1:
0\
0V
0B
0>
#1710000
1"
1G
0*
1[
xR
0:
x\
xV
xB
x>
#1720000
0"
0G
1*
0[
0R
1:
0\
0V
0B
0>
#1730000
1"
1G
0*
1[
xR
0:
x\
xV
xB
x>
#1740000
0"
0G
1*
0[
0R
1:
0\
0V
0B
0>
#1750000
1"
1G
0*
1[
xR
0:
x\
xV
xB
x>
#1760000
0"
0G
1*
0[
0R
1:
0\
0V
0B
0>
#1770000
1"
1G
0*
1[
xR
0:
x\
xV
xB
x>
#1780000
0"
0G
1*
0[
0R
1:
0\
0V
0B
0>
#1790000
1"
1G
0*
1[
xR
0:
x\
xV
xB
x>
#1800000
0"
0G
1*
0[
0R
1:
0\
0V
0B
0>
#1810000
1"
1G
0*
1[
xR
0:
x\
xV
xB
x>
#1820000
0"
0G
1*
0[
0R
1:
0\
0V
0B
0>
#1830000
1"
1G
0*
1[
xR
0:
x\
xV
xB
x>
#1840000
0"
0G
1*
0[
0R
1:
0\
0V
0B
0>
#1850000
1"
1G
0*
1[
xR
0:
x\
xV
xB
x>
#1860000
0"
0G
1*
0[
0R
1:
0\
0V
0B
0>
#1870000
1"
1G
0*
1[
xR
0:
x\
xV
xB
x>
#1880000
0"
0G
1*
0[
0R
1:
0\
0V
0B
0>
#1890000
1"
1G
0*
1[
xR
0:
x\
xV
xB
x>
#1900000
0"
0G
1*
0[
0R
1:
0\
0V
0B
0>
#1910000
1"
1G
0*
1[
xR
0:
x\
xV
xB
x>
#1920000
0"
0G
1*
0[
0R
1:
0\
0V
0B
0>
#1930000
1"
1G
0*
1[
xR
0:
x\
xV
xB
x>
#1940000
0"
0G
1*
0[
0R
1:
0\
0V
0B
0>
#1950000
1"
1G
0*
1[
xR
0:
x\
xV
xB
x>
#1960000
0"
0G
1*
0[
0R
1:
0\
0V
0B
0>
#1970000
1"
1G
0*
1[
xR
0:
x\
xV
xB
x>
#1980000
0"
0G
1*
0[
0R
1:
0\
0V
0B
0>
#1990000
1"
1G
0*
1[
xR
0:
x\
xV
xB
x>
#2000000
0"
0G
1*
0[
0R
1:
0\
0V
0B
0>
#2010000
1"
1G
0*
1[
xR
0:
x\
xV
xB
x>
#2020000
0"
0G
1*
0[
0R
1:
0\
0V
0B
0>
#2030000
1"
1G
0*
1[
xR
0:
x\
xV
xB
x>
#2040000
0"
0G
1*
0[
0R
1:
0\
0V
0B
0>
#2050000
1"
1G
0*
1[
xR
0:
x\
xV
xB
x>
#2060000
0"
0G
1*
0[
0R
1:
0\
0V
0B
0>
#2070000
1"
1G
0*
1[
xR
0:
x\
xV
xB
x>
#2080000
0"
0G
1*
0[
0R
1:
0\
0V
0B
0>
#2090000
1"
1G
0*
1[
xR
0:
x\
xV
xB
x>
#2100000
0"
0G
1*
0[
0R
1:
0\
0V
0B
0>
#2110000
1"
1G
0*
1[
xR
0:
x\
xV
xB
x>
#2120000
0"
0G
1*
0[
0R
1:
0\
0V
0B
0>
#2130000
1"
1G
0*
1[
xR
0:
x\
xV
xB
x>
#2140000
0"
0G
1*
0[
0R
1:
0\
0V
0B
0>
#2150000
1"
1G
0*
1[
xR
0:
x\
xV
xB
x>
#2160000
0"
0G
1*
0[
0R
1:
0\
0V
0B
0>
#2170000
1"
1G
0*
1[
xR
0:
x\
xV
xB
x>
#2180000
0"
0G
1*
0[
0R
1:
0\
0V
0B
0>
#2190000
1"
1G
0*
1[
xR
0:
x\
xV
xB
x>
#2200000
0"
0G
1*
0[
0R
1:
0\
0V
0B
0>
#2210000
1"
1G
0*
1[
xR
0:
x\
xV
xB
x>
#2220000
0"
0G
1*
0[
0R
1:
0\
0V
0B
0>
#2230000
1"
1G
0*
1[
xR
0:
x\
xV
xB
x>
#2240000
0"
0G
1*
0[
0R
1:
0\
0V
0B
0>
#2250000
1"
1G
0*
1[
xR
0:
x\
xV
xB
x>
#2260000
0"
0G
1*
0[
0R
1:
0\
0V
0B
0>
#2270000
1"
1G
0*
1[
xR
0:
x\
xV
xB
x>
#2280000
0"
0G
1*
0[
0R
1:
0\
0V
0B
0>
#2290000
1"
1G
0*
1[
xR
0:
x\
xV
xB
x>
#2300000
0"
0G
1*
0[
0R
1:
0\
0V
0B
0>
#2310000
1"
1G
0*
1[
xR
0:
x\
xV
xB
x>
#2320000
0"
0G
1*
0[
0R
1:
0\
0V
0B
0>
#2330000
1"
1G
0*
1[
xR
0:
x\
xV
xB
x>
#2340000
0"
0G
1*
0[
0R
1:
0\
0V
0B
0>
#2350000
1"
1G
0*
1[
xR
0:
x\
xV
xB
x>
#2360000
0"
0G
1*
0[
0R
1:
0\
0V
0B
0>
#2370000
1"
1G
0*
1[
xR
0:
x\
xV
xB
x>
#2380000
0"
0G
1*
0[
0R
1:
0\
0V
0B
0>
#2390000
1"
1G
0*
1[
xR
0:
x\
xV
xB
x>
#2400000
0"
0G
1*
0[
0R
1:
0\
0V
0B
0>
#2410000
1"
1G
0*
1[
xR
0:
x\
xV
xB
x>
#2420000
0"
0G
1*
0[
0R
1:
0\
0V
0B
0>
#2430000
1"
1G
0*
1[
xR
0:
x\
xV
xB
x>
#2440000
0"
0G
1*
0[
0R
1:
0\
0V
0B
0>
#2450000
1"
1G
0*
1[
xR
0:
x\
xV
xB
x>
#2460000
0"
0G
1*
0[
0R
1:
0\
0V
0B
0>
#2470000
1"
1G
0*
1[
xR
0:
x\
xV
xB
x>
#2480000
0"
0G
1*
0[
0R
1:
0\
0V
0B
0>
#2490000
1"
1G
0*
1[
xR
0:
x\
xV
xB
x>
#2500000
0"
0G
1*
0[
0R
1:
0\
0V
0B
0>
#2510000
1"
1G
0*
1[
xR
0:
x\
xV
xB
x>
#2520000
0"
0G
1*
0[
0R
1:
0\
0V
0B
0>
#2530000
1"
1G
0*
1[
xR
0:
x\
xV
xB
x>
#2540000
0"
0G
1*
0[
0R
1:
0\
0V
0B
0>
#2550000
1"
1G
0*
1[
xR
0:
x\
xV
xB
x>
#2560000
0"
0G
1*
0[
0R
1:
0\
0V
0B
0>
#2570000
1"
1G
0*
1[
xR
0:
x\
xV
xB
x>
#2580000
0"
0G
1*
0[
0R
1:
0\
0V
0B
0>
#2590000
1"
1G
0*
1[
xR
0:
x\
xV
xB
x>
#2600000
0"
0G
1*
0[
0R
1:
0\
0V
0B
0>
#2610000
1"
1G
0*
1[
xR
0:
x\
xV
xB
x>
#2620000
0"
0G
1*
0[
0R
1:
0\
0V
0B
0>
#2630000
1"
1G
0*
1[
xR
0:
x\
xV
xB
x>
#2640000
0"
0G
1*
0[
0R
1:
0\
0V
0B
0>
#2650000
1"
1G
0*
1[
xR
0:
x\
xV
xB
x>
#2660000
0"
0G
1*
0[
0R
1:
0\
0V
0B
0>
#2670000
1"
1G
0*
1[
xR
0:
x\
xV
xB
x>
#2680000
0"
0G
1*
0[
0R
1:
0\
0V
0B
0>
#2690000
1"
1G
0*
1[
xR
0:
x\
xV
xB
x>
#2700000
0"
0G
1*
0[
0R
1:
0\
0V
0B
0>
#2710000
1"
1G
0*
1[
xR
0:
x\
xV
xB
x>
#2720000
0"
0G
1*
0[
0R
1:
0\
0V
0B
0>
#2730000
1"
1G
0*
1[
xR
0:
x\
xV
xB
x>
#2740000
0"
0G
1*
0[
0R
1:
0\
0V
0B
0>
#2750000
1"
1G
0*
1[
xR
0:
x\
xV
xB
x>
#2760000
0"
0G
1*
0[
0R
1:
0\
0V
0B
0>
#2770000
1"
1G
0*
1[
xR
0:
x\
xV
xB
x>
#2780000
0"
0G
1*
0[
0R
1:
0\
0V
0B
0>
#2790000
1"
1G
0*
1[
xR
0:
x\
xV
xB
x>
#2800000
0"
0G
1*
0[
0R
1:
0\
0V
0B
0>
#2810000
1"
1G
0*
1[
xR
0:
x\
xV
xB
x>
#2820000
0"
0G
1*
0[
0R
1:
0\
0V
0B
0>
#2830000
1"
1G
0*
1[
xR
0:
x\
xV
xB
x>
#2840000
0"
0G
1*
0[
0R
1:
0\
0V
0B
0>
#2850000
1"
1G
0*
1[
xR
0:
x\
xV
xB
x>
#2860000
0"
0G
1*
0[
0R
1:
0\
0V
0B
0>
#2870000
1"
1G
0*
1[
xR
0:
x\
xV
xB
x>
#2880000
0"
0G
1*
0[
0R
1:
0\
0V
0B
0>
#2890000
1"
1G
0*
1[
xR
0:
x\
xV
xB
x>
#2900000
0"
0G
1*
0[
0R
1:
0\
0V
0B
0>
#2910000
1"
1G
0*
1[
xR
0:
x\
xV
xB
x>
#2920000
0"
0G
1*
0[
0R
1:
0\
0V
0B
0>
#2930000
1"
1G
0*
1[
xR
0:
x\
xV
xB
x>
#2940000
0"
0G
1*
0[
0R
1:
0\
0V
0B
0>
#2950000
1"
1G
0*
1[
xR
0:
x\
xV
xB
x>
#2960000
0"
0G
1*
0[
0R
1:
0\
0V
0B
0>
#2970000
1"
1G
0*
1[
xR
0:
x\
xV
xB
x>
#2980000
0"
0G
1*
0[
0R
1:
0\
0V
0B
0>
#2990000
1"
1G
0*
1[
xR
0:
x\
xV
xB
x>
#3000000
0"
0G
1*
0[
0R
1:
0\
0V
0B
0>
#3010000
1"
1G
0*
1[
xR
0:
x\
xV
xB
x>
#3020000
0"
0G
1*
0[
0R
1:
0\
0V
0B
0>
#3030000
1"
1G
0*
1[
xR
0:
x\
xV
xB
x>
#3040000
0"
0G
1*
0[
0R
1:
0\
0V
0B
0>
#3050000
1"
1G
0*
1[
xR
0:
x\
xV
xB
x>
#3060000
0"
0G
1*
0[
0R
1:
0\
0V
0B
0>
#3070000
1"
1G
0*
1[
xR
0:
x\
xV
xB
x>
#3080000
0"
0G
1*
0[
0R
1:
0\
0V
0B
0>
#3090000
1"
1G
0*
1[
xR
0:
x\
xV
xB
x>
#3100000
0"
0G
1*
0[
0R
1:
0\
0V
0B
0>
#3110000
1"
1G
0*
1[
xR
0:
x\
xV
xB
x>
#3120000
0"
0G
1*
0[
0R
1:
0\
0V
0B
0>
#3130000
1"
1G
0*
1[
xR
0:
x\
xV
xB
x>
#3140000
0"
0G
1*
0[
0R
1:
0\
0V
0B
0>
#3150000
1"
1G
0*
1[
xR
0:
x\
xV
xB
x>
#3160000
0"
0G
1*
0[
0R
1:
0\
0V
0B
0>
#3170000
1"
1G
0*
1[
xR
0:
x\
xV
xB
x>
#3180000
0"
0G
1*
0[
0R
1:
0\
0V
0B
0>
#3190000
1"
1G
0*
1[
xR
0:
x\
xV
xB
x>
#3200000
0"
0G
1*
0[
0R
1:
0\
0V
0B
0>
#3210000
1"
1G
0*
1[
xR
0:
x\
xV
xB
x>
#3220000
0"
0G
1*
0[
0R
1:
0\
0V
0B
0>
#3230000
1"
1G
0*
1[
xR
0:
x\
xV
xB
x>
#3240000
0"
0G
1*
0[
0R
1:
0\
0V
0B
0>
#3250000
1"
1G
0*
1[
xR
0:
x\
xV
xB
x>
#3260000
0"
0G
1*
0[
0R
1:
0\
0V
0B
0>
#3270000
1"
1G
0*
1[
xR
0:
x\
xV
xB
x>
#3280000
0"
0G
1*
0[
0R
1:
0\
0V
0B
0>
#3290000
1"
1G
0*
1[
xR
0:
x\
xV
xB
x>
#3300000
0"
0G
1*
0[
0R
1:
0\
0V
0B
0>
#3310000
1"
1G
0*
1[
xR
0:
x\
xV
xB
x>
#3320000
0"
0G
1*
0[
0R
1:
0\
0V
0B
0>
#3330000
1"
1G
0*
1[
xR
0:
x\
xV
xB
x>
#3340000
0"
0G
1*
0[
0R
1:
0\
0V
0B
0>
#3350000
1"
1G
0*
1[
xR
0:
x\
xV
xB
x>
#3360000
0"
0G
1*
0[
0R
1:
0\
0V
0B
0>
#3370000
1"
1G
0*
1[
xR
0:
x\
xV
xB
x>
#3380000
0"
0G
1*
0[
0R
1:
0\
0V
0B
0>
#3390000
1"
1G
0*
1[
xR
0:
x\
xV
xB
x>
#3400000
0"
0G
1*
0[
0R
1:
0\
0V
0B
0>
#3410000
1"
1G
0*
1[
xR
0:
x\
xV
xB
x>
#3420000
0"
0G
1*
0[
0R
1:
0\
0V
0B
0>
#3430000
1"
1G
0*
1[
xR
0:
x\
xV
xB
x>
#3440000
0"
0G
1*
0[
0R
1:
0\
0V
0B
0>
#3450000
1"
1G
0*
1[
xR
0:
x\
xV
xB
x>
#3460000
0"
0G
1*
0[
0R
1:
0\
0V
0B
0>
#3470000
1"
1G
0*
1[
xR
0:
x\
xV
xB
x>
#3480000
0"
0G
1*
0[
0R
1:
0\
0V
0B
0>
#3490000
1"
1G
0*
1[
xR
0:
x\
xV
xB
x>
#3500000
0"
0G
1*
0[
0R
1:
0\
0V
0B
0>
#3510000
1"
1G
0*
1[
xR
0:
x\
xV
xB
x>
#3520000
1!
0"
1;
0G
1*
0[
0R
1:
0\
0V
0B
0>
1I
0H
#3530000
1"
1G
0*
1Z
xJ
0:
x1
x\
xK
x9
x4
x2
xN
x8
x6
x5
xB
x>
#3540000
0"
0G
1*
0Z
0J
1:
11
0\
0K
19
14
02
0N
18
16
05
0B
0>
#3550000
1"
1G
0*
1Z
xJ
0:
x1
x\
xK
x9
x4
x2
xN
x8
x6
x5
xB
x>
#3560000
0"
0G
1*
0Z
0J
1:
11
0\
0K
19
14
02
0N
18
16
05
0B
0>
#3570000
1"
1G
0*
1Z
xJ
0:
x1
x\
xK
x9
x4
x2
xN
x8
x6
x5
xB
x>
#3580000
0"
0G
1*
0Z
0J
1:
11
0\
0K
19
14
02
0N
18
16
05
0B
0>
#3590000
1"
1G
0*
1Z
xJ
0:
x1
x\
xK
x9
x4
x2
xN
x8
x6
x5
xB
x>
#3600000
0"
0G
1*
0Z
0J
1:
11
0\
0K
19
14
02
0N
18
16
05
0B
0>
#3610000
1"
1G
0*
1Z
xJ
0:
x1
x\
xK
x9
x4
x2
xN
x8
x6
x5
xB
x>
#3620000
0"
0G
1*
0Z
0J
1:
11
0\
0K
19
14
02
0N
18
16
05
0B
0>
#3630000
1"
1G
0*
1Z
xJ
0:
x1
x\
xK
x9
x4
x2
xN
x8
x6
x5
xB
x>
#3640000
0"
0G
1*
0Z
0J
1:
11
0\
0K
19
14
02
0N
18
16
05
0B
0>
#3650000
1"
1G
0*
1Z
xJ
0:
x1
x\
xK
x9
x4
x2
xN
x8
x6
x5
xB
x>
#3660000
0"
0G
1*
0Z
0J
1:
11
0\
0K
19
14
02
0N
18
16
05
0B
0>
#3670000
1"
1G
0*
1Z
xJ
0:
x1
x\
xK
x9
x4
x2
xN
x8
x6
x5
xB
x>
#3680000
0"
0G
1*
0Z
0J
1:
11
0\
0K
19
14
02
0N
18
16
05
0B
0>
#3690000
1"
1G
0*
1Z
xJ
0:
x1
x\
xK
x9
x4
x2
xN
x8
x6
x5
xB
x>
#3700000
0"
0G
1*
0Z
0J
1:
11
0\
0K
19
14
02
0N
18
16
05
0B
0>
#3710000
1"
1G
0*
1Z
xJ
0:
x1
x\
xK
x9
x4
x2
xN
x8
x6
x5
xB
x>
#3720000
0"
0G
1*
0Z
0J
1:
11
0\
0K
19
14
02
0N
18
16
05
0B
0>
#3730000
1"
1G
0*
1Z
xJ
0:
x1
x\
xK
x9
x4
x2
xN
x8
x6
x5
xB
x>
