playground/simulation/qsim/asyncmod12.msim.vcd
$comment
	File created using the following command:
		vcd file asyncmod12.msim.vcd -direction
$end
$date
	Mon Jan 16 22:29:06 2017
$end
$version
	ModelSim Version 10.1d
$end
$timescale
	1ps
$end
$scope module asyncmod12_vlg_vec_tst $end
$var reg 1 ! pin_name1 $end
$var wire 1 " pin_name2 $end
$var wire 1 # pin_name3 $end
$var wire 1 $ pin_name4 $end
$var wire 1 % pin_name5 $end
$var wire 1 & sampler $end
$scope module i1 $end
$var wire 1 ' gnd $end
$var wire 1 ( vcc $end
$var wire 1 ) unknown $end
$var tri1 1 * devclrn $end
$var tri1 1 + devpor $end
$var tri1 1 , devoe $end
$var wire 1 - pin_name1~combout $end
$var wire 1 . pin_name1~clkctrl_outclk $end
$var wire 1 / inst1~0_combout $end
$var wire 1 0 inst1~regout $end
$var wire 1 1 inst3~feeder_combout $end
$var wire 1 2 inst3~regout $end
$var wire 1 3 inst20~0_combout $end
$var wire 1 4 inst2~regout $end
$var wire 1 5 inst18~combout $end
$var wire 1 6 inst~regout $end
$upscope $end
$upscope $end
$enddefinitions $end
#0
$dumpvars
0!
x"
x#
x$
x%
x&
0'
1(
x)
1*
1+
1,
0-
x.
1/
00
x1
02
x3
04
x5
06
$end
#114
0.
#455
01
#730
15
#901
03
#1000
1!
0&
#1989
1-
#2000
0!
1&
#2103
1.
#2989
0-
#3000
1!
0&
#3103
0.
#3423
0"
#3441
0%
#3443
0$
#3446
0#
#3989
1-
#4000
0!
1&
#4103
1.
#4989
0-
#5000
1!
0&
#5103
0.
#5989
1-
#6000
0!
1&
#6103
1.
#6989
0-
#7000
1!
0&
#7103
0.
#7989
1-
#8000
0!
1&
#8103
1.
#8989
0-
#9000
1!
0&
#9103
0.
#9989
1-
#10000
0!
1&
#10103
1.
#10989
0-
#11000
1!
0&
#11103
0.
#11989
1-
#12000
0!
1&
#12103
1.
#12989
0-
#13000
1!
0&
#13103
0.
#13989
1-
#14000
0!
1&
#14103
1.
#14989
0-
#15000
1!
0&
#15103
0.
#15989
1-
#16000
0!
1&
#16103
1.
#16989
0-
#17000
1!
0&
#17103
0.
#17989
1-
#18000
0!
1&
#18103
1.
#18989
0-
#19000
1!
0&
#19103
0.
#19989
1-
#20000
0!
1&
#20103
1.
#20989
0-
#21000
1!
0&
#21103
0.
#21989
1-
#22000
0!
1&
#22103
1.
#22989
0-
#23000
1!
0&
#23103
0.
#23989
1-
#24000
0!
1&
#24103
1.
#24989
0-
#25000
1!
0&
#25103
0.
#25989
1-
#26000
0!
1&
#26103
1.
#26989
0-
#27000
1!
0&
#27103
0.
#27989
1-
#28000
0!
1&
#28103
1.
#28989
0-
#29000
1!
0&
#29103
0.
#29989
1-
#30000
0!
1&
#30103
1.
#30989
0-
#31000
1!
0&
#31103
0.
#31989
1-
#32000
0!
1&
#32103
1.
#32989
0-
#33000
1!
0&
#33103
0.
#33989
1-
#34000
0!
1&
#34103
1.
#34989
0-
#35000
1!
0&
#35103
0.
#35989
1-
#36000
0!
1&
#36103
1.
#36989
0-
#37000
1!
0&
#37103
0.
#37989
1-
#38000
0!
1&
#38103
1.
#38989
0-
#39000
1!
0&
#39103
0.
#39989
1-
#40000
0!
1&
#40103
1.
#40989
0-
#41000
1!
0&
#41103
0.
#41989
1-
#42000
0!
1&
#42103
1.
#42989
0-
#43000
1!
0&
#43103
0.
#43989
1-
#44000
0!
1&
#44103
1.
#44989
0-
#45000
1!
0&
#45103
0.
#45989
1-
#46000
0!
1&
#46103
1.
#46989
0-
#47000
1!
0&
#47103
0.
#47989
1-
#48000
0!
1&
#48103
1.
#48989
0-
#49000
1!
0&
#49103
0.
#49989
1-
#50000
0!
1&
#50103
1.
#50989
0-
#51000
1!
0&
#51103
0.
#51989
1-
#52000
0!
1&
#52103
1.
#52989
0-
#53000
1!
0&
#53103
0.
#53989
1-
#54000
0!
1&
#54103
1.
#54989
0-
#55000
1!
0&
#55103
0.
#55989
1-
#56000
0!
1&
#56103
1.
#56989
0-
#57000
1!
0&
#57103
0.
#57989
1-
#58000
0!
1&
#58103
1.
#58989
0-
#59000
1!
0&
#59103
0.
#59989
1-
#60000
0!
1&
#60103
1.
#60989
0-
#61000
1!
0&
#61103
0.
#61989
1-
#62000
0!
1&
#62103
1.
#62989
0-
#63000
1!
0&
#63103
0.
#63989
1-
#64000
0!
1&
#64103
1.
#64989
0-
#65000
1!
0&
#65103
0.
#65989
1-
#66000
0!
1&
#66103
1.
#66989
0-
#67000
1!
0&
#67103
0.
#67989
1-
#68000
0!
1&
#68103
1.
#68989
0-
#69000
1!
0&
#69103
0.
#69989
1-
#70000
0!
1&
#70103
1.
#70989
0-
#71000
1!
0&
#71103
0.
#71989
1-
#72000
0!
1&
#72103
1.
#72989
0-
#73000
1!
0&
#73103
0.
#73989
1-
#74000
0!
1&
#74103
1.
#74989
0-
#75000
1!
0&
#75103
0.
#75989
1-
#76000
0!
1&
#76103
1.
#76989
0-
#77000
1!
0&
#77103
0.
#77989
1-
#78000
0!
1&
#78103
1.
#78989
0-
#79000
1!
0&
#79103
0.
#79989
1-
#80000
0!
1&
#80103
1.
#80989
0-
#81000
1!
0&
#81103
0.
#81989
1-
#82000
0!
1&
#82103
1.
#82989
0-
#83000
1!
0&
#83103
0.
#83989
1-
#84000
0!
1&
#84103
1.
#84989
0-
#85000
1!
0&
#85103
0.
#85989
1-
#86000
0!
1&
#86103
1.
#86989
0-
#87000
1!
0&
#87103
0.
#87989
1-
#88000
0!
1&
#88103
1.
#88989
0-
#89000
1!
0&
#89103
0.
#89989
1-
#90000
0!
1&
#90103
1.
#90989
0-
#91000
1!
0&
#91103
0.
#91989
1-
#92000
0!
1&
#92103
1.
#92989
0-
#93000
1!
0&
#93103
0.
#93989
1-
#94000
0!
1&
#94103
1.
#94989
0-
#95000
1!
0&
#95103
0.
#95989
1-
#96000
0!
1&
#96103
1.
#96989
0-
#97000
1!
0&
#97103
0.
#97989
1-
#98000
0!
1&
#98103
1.
#98989
0-
#99000
1!
0&
#99103
0.
#99989
1-
#100000
0!
1&
#100103
1.
#100989
0-
#101000
1!
0&
#101103
0.
#101989
1-
#102000
0!
1&
#102103
1.
#102989
0-
#103000
1!
0&
#103103
0.
#103989
1-
#104000
0!
1&
#104103
1.
#104989
0-
#105000
1!
0&
#105103
0.
#105989
1-
#106000
0!
1&
#106103
1.
#106989
0-
#107000
1!
0&
#107103
0.
#107989
1-
#108000
0!
1&
#108103
1.
#108989
0-
#109000
1!
0&
#109103
0.
#109989
1-
#110000
0!
1&
#110103
1.
#110989
0-
#111000
1!
0&
#111103
0.
#111989
1-
#112000
0!
1&
#112103
1.
#112989
0-
#113000
1!
0&
#113103
0.
#113989
1-
#114000
0!
1&
#114103
1.
#114989
0-
#115000
1!
0&
#115103
0.
#115989
1-
#116000
0!
1&
#116103
1.
#116989
0-
#117000
1!
0&
#117103
0.
#117989
1-
#118000
0!
1&
#118103
1.
#118989
0-
#119000
1!
0&
#119103
0.
#119989
1-
#120000
0!
1&
#120103
1.
#120989
0-
#121000
1!
0&
#121103
0.
#121989
1-
#122000
0!
1&
#122103
1.
#122989
0-
#123000
1!
0&
#123103
0.
#123989
1-
#124000
0!
1&
#124103
1.
#124989
0-
#125000
1!
0&
#125103
0.
#125989
1-
#126000
0!
1&
#126103
1.
#126989
0-
#127000
1!
0&
#127103
0.
#127989
1-
#128000
0!
1&
#128103
1.
#128989
0-
#129000
1!
0&
#129103
0.
#129989
1-
#130000
0!
1&
#130103
1.
#130989
0-
#131000
1!
0&
#131103
0.
#131989
1-
#132000
0!
1&
#132103
1.
#132989
0-
#133000
1!
0&
#133103
0.
#133989
1-
#134000
0!
1&
#134103
1.
#134989
0-
#135000
1!
0&
#135103
0.
#135989
1-
#136000
0!
1&
#136103
1.
#136989
0-
#137000
1!
0&
#137103
0.
#137989
1-
#138000
0!
1&
#138103
1.
#138989
0-
#139000
1!
0&
#139103
0.
#139989
1-
#140000
0!
1&
#140103
1.
#140989
0-
#141000
1!
0&
#141103
0.
#141989
1-
#142000
0!
1&
#142103
1.
#142989
0-
#143000
1!
0&
#143103
0.
#143989
1-
#144000
0!
1&
#144103
1.
#144989
0-
#145000
1!
0&
#145103
0.
#145989
1-
#146000
0!
1&
#146103
1.
#146989
0-
#147000
1!
0&
#147103
0.
#147989
1-
#148000
0!
1&
#148103
1.
#148989
0-
#149000
1!
0&
#149103
0.
#149989
1-
#150000
0!
1&
#150103
1.
#150989
0-
#151000
1!
0&
#151103
0.
#151989
1-
#152000
0!
1&
#152103
1.
#152989
0-
#153000
1!
0&
#153103
0.
#153989
1-
#154000
0!
1&
#154103
1.
#154989
0-
#155000
1!
0&
#155103
0.
#155989
1-
#156000
0!
1&
#156103
1.
#156989
0-
#157000
1!
0&
#157103
0.
#157989
1-
#158000
0!
1&
#158103
1.
#158989
0-
#159000
1!
0&
#159103
0.
#159989
1-
#160000
0!
1&
#160103
1.
#160989
0-
#161000
1!
0&
#161103
0.
#161989
1-
#162000
0!
1&
#162103
1.
#162989
0-
#163000
1!
0&
#163103
0.
#163989
1-
#164000
0!
1&
#164103
1.
#164989
0-
#165000
1!
0&
#165103
0.
#165989
1-
#166000
0!
1&
#166103
1.
#166989
0-
#167000
1!
0&
#167103
0.
#167989
1-
#168000
0!
1&
#168103
1.
#168989
0-
#169000
1!
0&
#169103
0.
#169989
1-
#170000
0!
1&
#170103
1.
#170989
0-
#171000
1!
0&
#171103
0.
#171989
1-
#172000
0!
1&
#172103
1.
#172989
0-
#173000
1!
0&
#173103
0.
#173989
1-
#174000
0!
1&
#174103
1.
#174989
0-
#175000
1!
0&
#175103
0.
#175989
1-
#176000
0!
1&
#176103
1.
#176989
0-
#177000
1!
0&
#177103
0.
#177989
1-
#178000
0!
1&
#178103
1.
#178989
0-
#179000
1!
0&
#179103
0.
#179989
1-
#180000
0!
1&
#180103
1.
#180989
0-
#181000
1!
0&
#181103
0.
#181989
1-
#182000
0!
1&
#182103
1.
#182989
0-
#183000
1!
0&
#183103
0.
#183989
1-
#184000
0!
1&
#184103
1.
#184989
0-
#185000
1!
0&
#185103
0.
#185989
1-
#186000
0!
1&
#186103
1.
#186989
0-
#187000
1!
0&
#187103
0.
#187989
1-
#188000
0!
1&
#188103
1.
#188989
0-
#189000
1!
0&
#189103
0.
#189989
1-
#190000
0!
1&
#190103
1.
#190989
0-
#191000
1!
0&
#191103
0.
#191989
1-
#192000
0!
1&
#192103
1.
#192989
0-
#193000
1!
0&
#193103
0.
#193989
1-
#194000
0!
1&
#194103
1.
#194989
0-
#195000
1!
0&
#195103
0.
#195989
1-
#196000
0!
1&
#196103
1.
#196989
0-
#197000
1!
0&
#197103
0.
#197989
1-
#198000
0!
1&
#198103
1.
#198989
0-
#199000
1!
0&
#199103
0.
#199989
1-
#200000
0!
1&
#200103
1.
#200989
0-
#201000
1!
0&
#201103
0.
#201989
1-
#202000
0!
1&
#202103
1.
#202989
0-
#203000
1!
0&
#203103
0.
#203989
1-
#204000
0!
1&
#204103
1.
#204989
0-
#205000
1!
0&
#205103
0.
#205989
1-
#206000
0!
1&
#206103
1.
#206989
0-
#207000
1!
0&
#207103
0.
#207989
1-
#208000
0!
1&
#208103
1.
#208989
0-
#209000
1!
0&
#209103
0.
#209989
1-
#210000
0!
1&
#210103
1.
#210989
0-
#211000
1!
0&
#211103
0.
#211989
1-
#212000
0!
1&
#212103
1.
#212989
0-
#213000
1!
0&
#213103
0.
#213989
1-
#214000
0!
1&
#214103
1.
#214989
0-
#215000
1!
0&
#215103
0.
#215989
1-
#216000
0!
1&
#216103
1.
#216989
0-
#217000
1!
0&
#217103
0.
#217989
1-
#218000
0!
1&
#218103
1.
#218989
0-
#219000
1!
0&
#219103
0.
#219989
1-
#220000
0!
1&
#220103
1.
#220989
0-
#221000
1!
0&
#221103
0.
#221989
1-
#222000
0!
1&
#222103
1.
#222989
0-
#223000
1!
0&
#223103
0.
#223989
1-
#224000
0!
1&
#224103
1.
#224989
0-
#225000
1!
0&
#225103
0.
#225989
1-
#226000
0!
1&
#226103
1.
#226989
0-
#227000
1!
0&
#227103
0.
#227989
1-
#228000
0!
1&
#228103
1.
#228989
0-
#229000
1!
0&
#229103
0.
#229989
1-
#230000
0!
1&
#230103
1.
#230989
0-
#231000
1!
0&
#231103
0.
#231989
1-
#232000
0!
1&
#232103
1.
#232989
0-
#233000
1!
0&
#233103
0.
#233989
1-
#234000
0!
1&
#234103
1.
#234989
0-
#235000
1!
0&
#235103
0.
#235989
1-
#236000
0!
1&
#236103
1.
#236989
0-
#237000
1!
0&
#237103
0.
#237989
1-
#238000
0!
1&
#238103
1.
#238989
0-
#239000
1!
0&
#239103
0.
#239989
1-
#240000
0!
1&
#240103
1.
#240989
0-
#241000
1!
0&
#241103
0.
#241989
1-
#242000
0!
1&
#242103
1.
#242989
0-
#243000
1!
0&
#243103
0.
#243989
1-
#244000
0!
1&
#244103
1.
#244989
0-
#245000
1!
0&
#245103
0.
#245989
1-
#246000
0!
1&
#246103
1.
#246989
0-
#247000
1!
0&
#247103
0.
#247989
1-
#248000
0!
1&
#248103
1.
#248989
0-
#249000
1!
0&
#249103
0.
#249989
1-
#250000
0!
1&
#250103
1.
#250989
0-
#251000
1!
0&
#251103
0.
#251989
1-
#252000
0!
1&
#252103
1.
#252989
0-
#253000
1!
0&
#253103
0.
#253989
1-
#254000
0!
1&
#254103
1.
#254989
0-
#255000
1!
0&
#255103
0.
#255989
1-
#256000
0!
1&
#256103
1.
#256989
0-
#257000
1!
0&
#257103
0.
#257989
1-
#258000
0!
1&
#258103
1.
#258989
0-
#259000
1!
0&
#259103
0.
#259989
1-
#260000
0!
1&
#260103
1.
#260989
0-
#261000
1!
0&
#261103
0.
#261989
1-
#262000
0!
1&
#262103
1.
#262989
0-
#263000
1!
0&
#263103
0.
#263989
1-
#264000
0!
1&
#264103
1.
#264989
0-
#265000
1!
0&
#265103
0.
#265989
1-
#266000
0!
1&
#266103
1.
#266989
0-
#267000
1!
0&
#267103
0.
#267989
1-
#268000
0!
1&
#268103
1.
#268989
0-
#269000
1!
0&
#269103
0.
#269989
1-
#270000
0!
1&
#270103
1.
#270989
0-
#271000
1!
0&
#271103
0.
#271989
1-
#272000
0!
1&
#272103
1.
#272989
0-
#273000
1!
0&
#273103
0.
#273989
1-
#274000
0!
1&
#274103
1.
#274989
0-
#275000
1!
0&
#275103
0.
#275989
1-
#276000
0!
1&
#276103
1.
#276989
0-
#277000
1!
0&
#277103
0.
#277989
1-
#278000
0!
1&
#278103
1.
#278989
0-
#279000
1!
0&
#279103
0.
#279989
1-
#280000
0!
1&
#280103
1.
#280989
0-
#281000
1!
0&
#281103
0.
#281989
1-
#282000
0!
1&
#282103
1.
#282989
0-
#283000
1!
0&
#283103
0.
#283989
1-
#284000
0!
1&
#284103
1.
#284989
0-
#285000
1!
0&
#285103
0.
#285989
1-
#286000
0!
1&
#286103
1.
#286989
0-
#287000
1!
0&
#287103
0.
#287989
1-
#288000
0!
1&
#288103
1.
#288989
0-
#289000
1!
0&
#289103
0.
#289989
1-
#290000
0!
1&
#290103
1.
#290989
0-
#291000
1!
0&
#291103
0.
#291989
1-
#292000
0!
1&
#292103
1.
#292989
0-
#293000
1!
0&
#293103
0.
#293989
1-
#294000
0!
1&
#294103
1.
#294989
0-
#295000
1!
0&
#295103
0.
#295989
1-
#296000
0!
1&
#296103
1.
#296989
0-
#297000
1!
0&
#297103
0.
#297989
1-
#298000
0!
1&
#298103
1.
#298989
0-
#299000
1!
0&
#299103
0.
#299989
1-
#300000
0!
1&
#300103
1.
#300989
0-
#301000
1!
0&
#301103
0.
#301989
1-
#302000
0!
1&
#302103
1.
#302989
0-
#303000
1!
0&
#303103
0.
#303989
1-
#304000
0!
1&
#304103
1.
#304989
0-
#305000
1!
0&
#305103
0.
#305989
1-
#306000
0!
1&
#306103
1.
#306989
0-
#307000
1!
0&
#307103
0.
#307989
1-
#308000
0!
1&
#308103
1.
#308989
0-
#309000
1!
0&
#309103
0.
#309989
1-
#310000
0!
1&
#310103
1.
#310989
0-
#311000
1!
0&
#311103
0.
#311989
1-
#312000
0!
1&
#312103
1.
#312989
0-
#313000
1!
0&
#313103
0.
#313989
1-
#314000
0!
1&
#314103
1.
#314989
0-
#315000
1!
0&
#315103
0.
#315989
1-
#316000
0!
1&
#316103
1.
#316989
0-
#317000
1!
0&
#317103
0.
#317989
1-
#318000
0!
1&
#318103
1.
#318989
0-
#319000
1!
0&
#319103
0.
#319989
1-
#320000
0!
1&
#320103
1.
#320989
0-
#321000
1!
0&
#321103
0.
#321989
1-
#322000
0!
1&
#322103
1.
#322989
0-
#323000
1!
0&
#323103
0.
#323989
1-
#324000
0!
1&
#324103
1.
#324989
0-
#325000
1!
0&
#325103
0.
#325989
1-
#326000
0!
1&
#326103
1.
#326989
0-
#327000
1!
0&
#327103
0.
#327989
1-
#328000
0!
1&
#328103
1.
#328989
0-
#329000
1!
0&
#329103
0.
#329989
1-
#330000
0!
1&
#330103
1.
#330989
0-
#331000
1!
0&
#331103
0.
#331989
1-
#332000
0!
1&
#332103
1.
#332989
0-
#333000
1!
0&
#333103
0.
#333989
1-
#334000
0!
1&
#334103
1.
#334989
0-
#335000
1!
0&
#335103
0.
#335989
1-
#336000
0!
1&
#336103
1.
#336989
0-
#337000
1!
0&
#337103
0.
#337989
1-
#338000
0!
1&
#338103
1.
#338989
0-
#339000
1!
0&
#339103
0.
#339989
1-
#340000
0!
1&
#340103
1.
#340989
0-
#341000
1!
0&
#341103
0.
#341989
1-
#342000
0!
1&
#342103
1.
#342989
0-
#343000
1!
0&
#343103
0.
#343989
1-
#344000
0!
1&
#344103
1.
#344989
0-
#345000
1!
0&
#345103
0.
#345989
1-
#346000
0!
1&
#346103
1.
#346989
0-
#347000
1!
0&
#347103
0.
#347989
1-
#348000
0!
1&
#348103
1.
#348989
0-
#349000
1!
0&
#349103
0.
#349989
1-
#350000
0!
1&
#350103
1.
#350989
0-
#351000
1!
0&
#351103
0.
#351989
1-
#352000
0!
1&
#352103
1.
#352989
0-
#353000
1!
0&
#353103
0.
#353989
1-
#354000
0!
1&
#354103
1.
#354989
0-
#355000
1!
0&
#355103
0.
#355989
1-
#356000
0!
1&
#356103
1.
#356989
0-
#357000
1!
0&
#357103
0.
#357989
1-
#358000
0!
1&
#358103
1.
#358989
0-
#359000
1!
0&
#359103
0.
#359989
1-
#360000
0!
1&
#360103
1.
#360989
0-
#361000
1!
0&
#361103
0.
#361989
1-
#362000
0!
1&
#362103
1.
#362989
0-
#363000
1!
0&
#363103
0.
#363989
1-
#364000
0!
1&
#364103
1.
#364989
0-
#365000
1!
0&
#365103
0.
#365989
1-
#366000
0!
1&
#366103
1.
#366989
0-
#367000
1!
0&
#367103
0.
#367989
1-
#368000
0!
1&
#368103
1.
#368989
0-
#369000
1!
0&
#369103
0.
#369989
1-
#370000
0!
1&
#370103
1.
#370989
0-
#371000
1!
0&
#371103
0.
#371989
1-
#372000
0!
1&
#372103
1.
#372989
0-
#373000
1!
0&
#373103
0.
#373989
1-
#374000
0!
1&
#374103
1.
#374989
0-
#375000
1!
0&
#375103
0.
#375989
1-
#376000
0!
1&
#376103
1.
#376989
0-
#377000
1!
0&
#377103
0.
#377989
1-
#378000
0!
1&
#378103
1.
#378989
0-
#379000
1!
0&
#379103
0.
#379989
1-
#380000
0!
1&
#380103
1.
#380989
0-
#381000
1!
0&
#381103
0.
#381989
1-
#382000
0!
1&
#382103
1.
#382989
0-
#383000
1!
0&
#383103
0.
#383989
1-
#384000
0!
1&
#384103
1.
#384989
0-
#385000
1!
0&
#385103
0.
#385989
1-
#386000
0!
1&
#386103
1.
#386989
0-
#387000
1!
0&
#387103
0.
#387989
1-
#388000
0!
1&
#388103
1.
#388989
0-
#389000
1!
0&
#389103
0.
#389989
1-
#390000
0!
1&
#390103
1.
#390989
0-
#391000
1!
0&
#391103
0.
#391989
1-
#392000
0!
1&
#392103
1.
#392989
0-
#393000
1!
0&
#393103
0.
#393989
1-
#394000
0!
1&
#394103
1.
#394989
0-
#395000
1!
0&
#395103
0.
#395989
1-
#396000
0!
1&
#396103
1.
#396989
0-
#397000
1!
0&
#397103
0.
#397989
1-
#398000
0!
1&
#398103
1.
#398989
0-
#399000
1!
0&
#399103
0.
#399989
1-
#400000
0!
1&
#400103
1.
#400989
0-
#401000
1!
0&
#401103
0.
#401989
1-
#402000
0!
1&
#402103
1.
#402989
0-
#403000
1!
0&
#403103
0.
#403989
1-
#404000
0!
1&
#404103
1.
#404989
0-
#405000
1!
0&
#405103
0.
#405989
1-
#406000
0!
1&
#406103
1.
#406989
0-
#407000
1!
0&
#407103
0.
#407989
1-
#408000
0!
1&
#408103
1.
#408989
0-
#409000
1!
0&
#409103
0.
#409989
1-
#410000
0!
1&
#410103
1.
#410989
0-
#411000
1!
0&
#411103
0.
#411989
1-
#412000
0!
1&
#412103
1.
#412989
0-
#413000
1!
0&
#413103
0.
#413989
1-
#414000
0!
1&
#414103
1.
#414989
0-
#415000
1!
0&
#415103
0.
#415989
1-
#416000
0!
1&
#416103
1.
#416989
0-
#417000
1!
0&
#417103
0.
#417989
1-
#418000
0!
1&
#418103
1.
#418989
0-
#419000
1!
0&
#419103
0.
#419989
1-
#420000
0!
1&
#420103
1.
#420989
0-
#421000
1!
0&
#421103
0.
#421989
1-
#422000
0!
1&
#422103
1.
#422989
0-
#423000
1!
0&
#423103
0.
#423989
1-
#424000
0!
1&
#424103
1.
#424989
0-
#425000
1!
0&
#425103
0.
#425989
1-
#426000
0!
1&
#426103
1.
#426989
0-
#427000
1!
0&
#427103
0.
#427989
1-
#428000
0!
1&
#428103
1.
#428989
0-
#429000
1!
0&
#429103
0.
#429989
1-
#430000
0!
1&
#430103
1.
#430989
0-
#431000
1!
0&
#431103
0.
#431989
1-
#432000
0!
1&
#432103
1.
#432989
0-
#433000
1!
0&
#433103
0.
#433989
1-
#434000
0!
1&
#434103
1.
#434989
0-
#435000
1!
0&
#435103
0.
#435989
1-
#436000
0!
1&
#436103
1.
#436989
0-
#437000
1!
0&
#437103
0.
#437989
1-
#438000
0!
1&
#438103
1.
#438989
0-
#439000
1!
0&
#439103
0.
#439989
1-
#440000
0!
1&
#440103
1.
#440989
0-
#441000
1!
0&
#441103
0.
#441989
1-
#442000
0!
1&
#442103
1.
#442989
0-
#443000
1!
0&
#443103
0.
#443989
1-
#444000
0!
1&
#444103
1.
#444989
0-
#445000
1!
0&
#445103
0.
#445989
1-
#446000
0!
1&
#446103
1.
#446989
0-
#447000
1!
0&
#447103
0.
#447989
1-
#448000
0!
1&
#448103
1.
#448989
0-
#449000
1!
0&
#449103
0.
#449989
1-
#450000
0!
1&
#450103
1.
#450989
0-
#451000
1!
0&
#451103
0.
#451989
1-
#452000
0!
1&
#452103
1.
#452989
0-
#453000
1!
0&
#453103
0.
#453989
1-
#454000
0!
1&
#454103
1.
#454989
0-
#455000
1!
0&
#455103
0.
#455989
1-
#456000
0!
1&
#456103
1.
#456989
0-
#457000
1!
0&
#457103
0.
#457989
1-
#458000
0!
1&
#458103
1.
#458989
0-
#459000
1!
0&
#459103
0.
#459989
1-
#460000
0!
1&
#460103
1.
#460989
0-
#461000
1!
0&
#461103
0.
#461989
1-
#462000
0!
1&
#462103
1.
#462989
0-
#463000
1!
0&
#463103
0.
#463989
1-
#464000
0!
1&
#464103
1.
#464989
0-
#465000
1!
0&
#465103
0.
#465989
1-
#466000
0!
1&
#466103
1.
#466989
0-
#467000
1!
0&
#467103
0.
#467989
1-
#468000
0!
1&
#468103
1.
#468989
0-
#469000
1!
0&
#469103
0.
#469989
1-
#470000
0!
1&
#470103
1.
#470989
0-
#471000
1!
0&
#471103
0.
#471989
1-
#472000
0!
1&
#472103
1.
#472989
0-
#473000
1!
0&
#473103
0.
#473989
1-
#474000
0!
1&
#474103
1.
#474989
0-
#475000
1!
0&
#475103
0.
#475989
1-
#476000
0!
1&
#476103
1.
#476989
0-
#477000
1!
0&
#477103
0.
#477989
1-
#478000
0!
1&
#478103
1.
#478989
0-
#479000
1!
0&
#479103
0.
#479989
1-
#480000
0!
1&
#480103
1.
#480989
0-
#481000
1!
0&
#481103
0.
#481989
1-
#482000
0!
1&
#482103
1.
#482989
0-
#483000
1!
0&
#483103
0.
#483989
1-
#484000
0!
1&
#484103
1.
#484989
0-
#485000
1!
0&
#485103
0.
#485989
1-
#486000
0!
1&
#486103
1.
#486989
0-
#487000
1!
0&
#487103
0.
#487989
1-
#488000
0!
1&
#488103
1.
#488989
0-
#489000
1!
0&
#489103
0.
#489989
1-
#490000
0!
1&
#490103
1.
#490989
0-
#491000
1!
0&
#491103
0.
#491989
1-
#492000
0!
1&
#492103
1.
#492989
0-
#493000
1!
0&
#493103
0.
#493989
1-
#494000
0!
1&
#494103
1.
#494989
0-
#495000
1!
0&
#495103
0.
#495989
1-
#496000
0!
1&
#496103
1.
#496989
0-
#497000
1!
0&
#497103
0.
#497989
1-
#498000
0!
1&
#498103
1.
#498989
0-
#499000
1!
0&
#499103
0.
#499989
1-
#500000
0!
1&
#500103
1.
#500989
0-
#501000
1!
0&
#501103
0.
#501989
1-
#502000
0!
1&
#502103
1.
#502989
0-
#503000
1!
0&
#503103
0.
#503989
1-
#504000
0!
1&
#504103
1.
#504989
0-
#505000
1!
0&
#505103
0.
#505989
1-
#506000
0!
1&
#506103
1.
#506989
0-
#507000
1!
0&
#507103
0.
#507989
1-
#508000
0!
1&
#508103
1.
#508989
0-
#509000
1!
0&
#509103
0.
#509989
1-
#510000
0!
1&
#510103
1.
#510989
0-
#511000
1!
0&
#511103
0.
#511989
1-
#512000
0!
1&
#512103
1.
#512989
0-
#513000
1!
0&
#513103
0.
#513989
1-
#514000
0!
1&
#514103
1.
#514989
0-
#515000
1!
0&
#515103
0.
#515989
1-
#516000
0!
1&
#516103
1.
#516989
0-
#517000
1!
0&
#517103
0.
#517989
1-
#518000
0!
1&
#518103
1.
#518989
0-
#519000
1!
0&
#519103
0.
#519989
1-
#520000
0!
1&
#520103
1.
#520989
0-
#521000
1!
0&
#521103
0.
#521989
1-
#522000
0!
1&
#522103
1.
#522989
0-
#523000
1!
0&
#523103
0.
#523989
1-
#524000
0!
1&
#524103
1.
#524989
0-
#525000
1!
0&
#525103
0.
#525989
1-
#526000
0!
1&
#526103
1.
#526989
0-
#527000
1!
0&
#527103
0.
#527989
1-
#528000
0!
1&
#528103
1.
#528989
0-
#529000
1!
0&
#529103
0.
#529989
1-
#530000
0!
1&
#530103
1.
#530989
0-
#531000
1!
0&
#531103
0.
#531989
1-
#532000
0!
1&
#532103
1.
#532989
0-
#533000
1!
0&
#533103
0.
#533989
1-
#534000
0!
1&
#534103
1.
#534989
0-
#535000
1!
0&
#535103
0.
#535989
1-
#536000
0!
1&
#536103
1.
#536989
0-
#537000
1!
0&
#537103
0.
#537989
1-
#538000
0!
1&
#538103
1.
#538989
0-
#539000
1!
0&
#539103
0.
#539989
1-
#540000
0!
1&
#540103
1.
#540989
0-
#541000
1!
0&
#541103
0.
#541989
1-
#542000
0!
1&
#542103
1.
#542989
0-
#543000
1!
0&
#543103
0.
#543989
1-
#544000
0!
1&
#544103
1.
#544989
0-
#545000
1!
0&
#545103
0.
#545989
1-
#546000
0!
1&
#546103
1.
#546989
0-
#547000
1!
0&
#547103
0.
#547989
1-
#548000
0!
1&
#548103
1.
#548989
0-
#549000
1!
0&
#549103
0.
#549989
1-
#550000
0!
1&
#550103
1.
#550989
0-
#551000
1!
0&
#551103
0.
#551989
1-
#552000
0!
1&
#552103
1.
#552989
0-
#553000
1!
0&
#553103
0.
#553989
1-
#554000
0!
1&
#554103
1.
#554989
0-
#555000
1!
0&
#555103
0.
#555989
1-
#556000
0!
1&
#556103
1.
#556989
0-
#557000
1!
0&
#557103
0.
#557989
1-
#558000
0!
1&
#558103
1.
#558989
0-
#559000
1!
0&
#559103
0.
#559989
1-
#560000
0!
1&
#560103
1.
#560989
0-
#561000
1!
0&
#561103
0.
#561989
1-
#562000
0!
1&
#562103
1.
#562989
0-
#563000
1!
0&
#563103
0.
#563989
1-
#564000
0!
1&
#564103
1.
#564989
0-
#565000
1!
0&
#565103
0.
#565989
1-
#566000
0!
1&
#566103
1.
#566989
0-
#567000
1!
0&
#567103
0.
#567989
1-
#568000
0!
1&
#568103
1.
#568989
0-
#569000
1!
0&
#569103
0.
#569989
1-
#570000
0!
1&
#570103
1.
#570989
0-
#571000
1!
0&
#571103
0.
#571989
1-
#572000
0!
1&
#572103
1.
#572989
0-
#573000
1!
0&
#573103
0.
#573989
1-
#574000
0!
1&
#574103
1.
#574989
0-
#575000
1!
0&
#575103
0.
#575989
1-
#576000
0!
1&
#576103
1.
#576989
0-
#577000
1!
0&
#577103
0.
#577989
1-
#578000
0!
1&
#578103
1.
#578989
0-
#579000
1!
0&
#579103
0.
#579989
1-
#580000
0!
1&
#580103
1.
#580989
0-
#581000
1!
0&
#581103
0.
#581989
1-
#582000
0!
1&
#582103
1.
#582989
0-
#583000
1!
0&
#583103
0.
#583989
1-
#584000
0!
1&
#584103
1.
#584989
0-
#585000
1!
0&
#585103
0.
#585989
1-
#586000
0!
1&
#586103
1.
#586989
0-
#587000
1!
0&
#587103
0.
#587989
1-
#588000
0!
1&
#588103
1.
#588989
0-
#589000
1!
0&
#589103
0.
#589989
1-
#590000
0!
1&
#590103
1.
#590989
0-
#591000
1!
0&
#591103
0.
#591989
1-
#592000
0!
1&
#592103
1.
#592989
0-
#593000
1!
0&
#593103
0.
#593989
1-
#594000
0!
1&
#594103
1.
#594989
0-
#595000
1!
0&
#595103
0.
#595989
1-
#596000
0!
1&
#596103
1.
#596989
0-
#597000
1!
0&
