lab04/simulation/qsim/CW4.msim.vcd
$comment
	File created using the following command:
		vcd file CW4.msim.vcd -direction
$end
$date
	Fri Jan 13 13:08:06 2017
$end
$version
	ModelSim Version 10.1d
$end
$timescale
	1ps
$end
$scope module CW4_vlg_vec_tst $end
$var reg 18 ! SW [17:0] $end
$var wire 1 " HEX0 [0] $end
$var wire 1 # HEX0 [1] $end
$var wire 1 $ HEX0 [2] $end
$var wire 1 % HEX0 [3] $end
$var wire 1 & HEX0 [4] $end
$var wire 1 ' HEX0 [5] $end
$var wire 1 ( HEX0 [6] $end
$var wire 1 ) HEX1 [0] $end
$var wire 1 * HEX1 [1] $end
$var wire 1 + HEX1 [2] $end
$var wire 1 , HEX1 [3] $end
$var wire 1 - HEX1 [4] $end
$var wire 1 . HEX1 [5] $end
$var wire 1 / HEX1 [6] $end
$var wire 1 0 HEX2 [0] $end
$var wire 1 1 HEX2 [1] $end
$var wire 1 2 HEX2 [2] $end
$var wire 1 3 HEX2 [3] $end
$var wire 1 4 HEX2 [4] $end
$var wire 1 5 HEX2 [5] $end
$var wire 1 6 HEX2 [6] $end
$var wire 1 7 HEX3 [0] $end
$var wire 1 8 HEX3 [1] $end
$var wire 1 9 HEX3 [2] $end
$var wire 1 : HEX3 [3] $end
$var wire 1 ; HEX3 [4] $end
$var wire 1 < HEX3 [5] $end
$var wire 1 = HEX3 [6] $end
$var wire 1 > HEX4 [0] $end
$var wire 1 ? HEX4 [1] $end
$var wire 1 @ HEX4 [2] $end
$var wire 1 A HEX4 [3] $end
$var wire 1 B HEX4 [4] $end
$var wire 1 C HEX4 [5] $end
$var wire 1 D HEX4 [6] $end
$var wire 1 E HEX5 [0] $end
$var wire 1 F HEX5 [1] $end
$var wire 1 G HEX5 [2] $end
$var wire 1 H HEX5 [3] $end
$var wire 1 I HEX5 [4] $end
$var wire 1 J HEX5 [5] $end
$var wire 1 K HEX5 [6] $end
$var wire 1 L HEX6 [0] $end
$var wire 1 M HEX6 [1] $end
$var wire 1 N HEX6 [2] $end
$var wire 1 O HEX6 [3] $end
$var wire 1 P HEX6 [4] $end
$var wire 1 Q HEX6 [5] $end
$var wire 1 R HEX6 [6] $end
$var wire 1 S HEX7 [0] $end
$var wire 1 T HEX7 [1] $end
$var wire 1 U HEX7 [2] $end
$var wire 1 V HEX7 [3] $end
$var wire 1 W HEX7 [4] $end
$var wire 1 X HEX7 [5] $end
$var wire 1 Y HEX7 [6] $end
$var wire 1 Z sampler $end
$scope module i1 $end
$var wire 1 [ gnd $end
$var wire 1 \ vcc $end
$var wire 1 ] unknown $end
$var tri1 1 ^ devclrn $end
$var tri1 1 _ devpor $end
$var tri1 1 ` devoe $end
$var wire 1 a MUX7|Mux2~0_combout $end
$var wire 1 b MUX7|Mux0~1_combout $end
$var wire 1 c MUX0|Mux2~1_combout $end
$var wire 1 d MUX0|Mux0~1_combout $end
$var wire 1 e MUX0|Mux1~0_combout $end
$var wire 1 f MUX7|Mux1~5_combout $end
$var wire 1 g MUX4|Mux0~0_combout $end
$var wire 1 h MUX7|Mux2~2_combout $end
$var wire 1 i MUX7|Mux2~1_combout $end
$var wire 1 j MUX7|Mux2~3_combout $end
$var wire 1 k MUX7|Mux0~2_combout $end
$var wire 1 l MUX7|Mux0~0_combout $end
$var wire 1 m MUX7|Mux0~3_combout $end
$var wire 1 n MUX7|Mux1~1_combout $end
$var wire 1 o MUX7|Mux1~0_combout $end
$var wire 1 p MUX7|Mux1~2_combout $end
$var wire 1 q MUX7|Mux1~3_combout $end
$var wire 1 r H0|Mux6~0_combout $end
$var wire 1 s H0|Mux5~0_combout $end
$var wire 1 t H0|Mux4~0_combout $end
$var wire 1 u H0|Mux3~0_combout $end
$var wire 1 v H0|Mux2~0_combout $end
$var wire 1 w H0|Mux0~0_combout $end
$var wire 1 x MUX0|Mux1~1_combout $end
$var wire 1 y MUX0|Mux1~2_combout $end
$var wire 1 z MUX6|Mux1~0_combout $end
$var wire 1 { MUX0|Mux0~2_combout $end
$var wire 1 | MUX0|Mux0~0_combout $end
$var wire 1 } MUX6|Mux0~0_combout $end
$var wire 1 ~ MUX0|Mux2~2_combout $end
$var wire 1 !! MUX0|Mux2~0_combout $end
$var wire 1 "! MUX6|Mux2~0_combout $end
$var wire 1 #! H1|Mux6~0_combout $end
$var wire 1 $! H1|Mux5~0_combout $end
$var wire 1 %! H1|Mux4~0_combout $end
$var wire 1 &! H1|Mux3~0_combout $end
$var wire 1 '! H1|Mux2~0_combout $end
$var wire 1 (! H1|Mux0~0_combout $end
$var wire 1 )! MUX7|Mux0~5_combout $end
$var wire 1 *! MUX7|Mux0~6_combout $end
$var wire 1 +! MUX7|Mux0~4_combout $end
$var wire 1 ,! MUX5|Mux0~0_combout $end
$var wire 1 -! MUX7|Mux1~4_combout $end
$var wire 1 .! MUX7|Mux1~6_combout $end
$var wire 1 /! MUX5|Mux1~0_combout $end
$var wire 1 0! MUX7|Mux2~5_combout $end
$var wire 1 1! MUX7|Mux2~6_combout $end
$var wire 1 2! MUX7|Mux2~4_combout $end
$var wire 1 3! MUX5|Mux2~0_combout $end
$var wire 1 4! H2|Mux6~0_combout $end
$var wire 1 5! H2|Mux5~0_combout $end
$var wire 1 6! H2|Mux4~0_combout $end
$var wire 1 7! H2|Mux3~0_combout $end
$var wire 1 8! H2|Mux2~0_combout $end
$var wire 1 9! H2|Mux0~0_combout $end
$var wire 1 :! MUX0|Mux0~4_combout $end
$var wire 1 ;! MUX0|Mux0~3_combout $end
$var wire 1 <! MUX4|Mux0~1_combout $end
$var wire 1 =! MUX0|Mux2~4_combout $end
$var wire 1 >! MUX4|Mux2~0_combout $end
$var wire 1 ?! MUX4|Mux2~1_combout $end
$var wire 1 @! MUX0|Mux1~3_combout $end
$var wire 1 A! MUX4|Mux1~0_combout $end
$var wire 1 B! MUX4|Mux1~1_combout $end
$var wire 1 C! H3|Mux6~0_combout $end
$var wire 1 D! H3|Mux5~0_combout $end
$var wire 1 E! H3|Mux4~0_combout $end
$var wire 1 F! H3|Mux3~0_combout $end
$var wire 1 G! H3|Mux2~0_combout $end
$var wire 1 H! H3|Mux0~0_combout $end
$var wire 1 I! MUX3|Mux2~0_combout $end
$var wire 1 J! MUX3|Mux2~1_combout $end
$var wire 1 K! MUX3|Mux0~0_combout $end
$var wire 1 L! MUX3|Mux0~1_combout $end
$var wire 1 M! MUX3|Mux1~0_combout $end
$var wire 1 N! MUX3|Mux1~1_combout $end
$var wire 1 O! H4|Mux6~0_combout $end
$var wire 1 P! H4|Mux5~0_combout $end
$var wire 1 Q! H4|Mux4~0_combout $end
$var wire 1 R! H4|Mux3~0_combout $end
$var wire 1 S! H4|Mux2~0_combout $end
$var wire 1 T! H4|Mux0~0_combout $end
$var wire 1 U! MUX2|Mux1~0_combout $end
$var wire 1 V! MUX2|Mux2~0_combout $end
$var wire 1 W! MUX2|Mux0~0_combout $end
$var wire 1 X! H5|Mux6~0_combout $end
$var wire 1 Y! H5|Mux5~0_combout $end
$var wire 1 Z! H5|Mux4~0_combout $end
$var wire 1 [! H5|Mux3~0_combout $end
$var wire 1 \! H5|Mux2~0_combout $end
$var wire 1 ]! H5|Mux0~0_combout $end
$var wire 1 ^! MUX1|Mux2~0_combout $end
$var wire 1 _! MUX1|Mux0~0_combout $end
$var wire 1 `! MUX1|Mux1~0_combout $end
$var wire 1 a! H6|Mux6~0_combout $end
$var wire 1 b! H6|Mux5~0_combout $end
$var wire 1 c! H6|Mux4~0_combout $end
$var wire 1 d! H6|Mux3~0_combout $end
$var wire 1 e! H6|Mux2~0_combout $end
$var wire 1 f! H6|Mux0~0_combout $end
$var wire 1 g! MUX0|Mux1~4_combout $end
$var wire 1 h! MUX0|Mux1~5_combout $end
$var wire 1 i! MUX0|Mux1~6_combout $end
$var wire 1 j! MUX0|Mux0~5_combout $end
$var wire 1 k! MUX0|Mux0~6_combout $end
$var wire 1 l! MUX0|Mux2~3_combout $end
$var wire 1 m! MUX0|Mux2~5_combout $end
$var wire 1 n! MUX0|Mux2~6_combout $end
$var wire 1 o! H7|Mux6~0_combout $end
$var wire 1 p! H7|Mux5~0_combout $end
$var wire 1 q! H7|Mux4~0_combout $end
$var wire 1 r! H7|Mux3~0_combout $end
$var wire 1 s! H7|Mux2~0_combout $end
$var wire 1 t! H7|Mux0~0_combout $end
$var wire 1 u! SW~combout [17] $end
$var wire 1 v! SW~combout [16] $end
$var wire 1 w! SW~combout [15] $end
$var wire 1 x! SW~combout [14] $end
$var wire 1 y! SW~combout [13] $end
$var wire 1 z! SW~combout [12] $end
$var wire 1 {! SW~combout [11] $end
$var wire 1 |! SW~combout [10] $end
$var wire 1 }! SW~combout [9] $end
$var wire 1 ~! SW~combout [8] $end
$var wire 1 !" SW~combout [7] $end
$var wire 1 "" SW~combout [6] $end
$var wire 1 #" SW~combout [5] $end
$var wire 1 $" SW~combout [4] $end
$var wire 1 %" SW~combout [3] $end
$var wire 1 &" SW~combout [2] $end
$var wire 1 '" SW~combout [1] $end
$var wire 1 (" SW~combout [0] $end
$upscope $end
$upscope $end
$enddefinitions $end
#0
$dumpvars
b101100011010001 !
x(
x'
x&
x%
x$
x#
x"
x/
x.
x-
x,
x+
x*
x)
x6
x5
x4
x3
x2
x1
x0
x=
x<
x;
x:
x9
x8
x7
xD
xC
xB
xA
x@
x?
x>
xK
xJ
xI
xH
xG
xF
xE
xR
xQ
xP
xO
xN
xM
xL
xY
xX
xW
xV
xU
xT
xS
xZ
0[
1\
x]
1^
1_
1`
xa
xb
xc
xd
xe
xf
xg
xh
xi
xj
xk
xl
xm
xn
xo
xp
xq
xr
xs
xt
xu
xv
xw
xx
xy
xz
x{
x|
x}
x~
x!!
x"!
x#!
x$!
x%!
x&!
x'!
x(!
x)!
x*!
x+!
x,!
x-!
x.!
x/!
x0!
x1!
x2!
x3!
x4!
x5!
x6!
x7!
x8!
x9!
x:!
x;!
x<!
x=!
x>!
x?!
x@!
xA!
xB!
xC!
xD!
xE!
xF!
xG!
xH!
xI!
xJ!
xK!
xL!
xM!
xN!
xO!
xP!
xQ!
xR!
xS!
xT!
xU!
xV!
xW!
xX!
xY!
xZ!
x[!
x\!
x]!
x^!
x_!
x`!
xa!
xb!
xc!
xd!
xe!
xf!
xg!
xh!
xi!
xj!
xk!
xl!
xm!
xn!
xo!
xp!
xq!
xr!
xs!
xt!
1("
0'"
0&"
0%"
1$"
0#"
1""
1!"
0~!
0}!
0|!
1{!
1z!
0y!
1x!
0w!
0v!
0u!
$end
#4919
0c
#4935
0A!
#4939
0h!
#4981
0a
#5008
00!
#5026
0l!
#5027
0h
#5037
0*!
#5045
0K!
#5048
0;!
#5087
1p
#5089
0n
#5093
1y
0@!
#5133
0j!
#5160
0x
#5162
0f
#5163
0|
#5169
0g!
#5170
0.!
#5175
0:!
#5178
0e
#5179
01!
#5183
1+!
#5186
0-!
1=!
#5190
1~
#5192
02!
#5194
0I!
#5197
0i
#5221
0m!
#5250
0)!
#5271
0M!
#5277
0o
#5283
1g
#5284
0l
0b
#5296
0d
#5315
0{
#5323
0k
#5349
1>!
#5399
0!!
#5444
0L!
#5487
1q
#5580
0J!
#5596
0j
#5794
0B!
#5943
0N!
#5979
1z
#6001
0m
#6039
0W!
#6062
1,!
#6071
0`!
#6117
03!
#6153
0i!
#6175
0^!
#6209
0/!
#6248
0k!
#6263
0_!
#6301
0V!
#6341
1n!
#6344
1?!
#6352
1"!
#6381
0U!
#6480
0}
#6484
1<!
#6485
0]!
#6545
18!
#6554
09!
#6715
04!
#6857
1\!
#6859
1[!
#6864
0X!
#6897
0s!
#6899
0q!
#6904
1p!
1o!
#6908
1e!
#6909
0f!
#6913
0a!
#6944
0t!
#6953
1r!
#6963
1d!
#6966
0T!
#7017
0E!
#7022
0G!
#7047
1Q!
#7051
1D!
#7056
0P!
#7115
1Z!
#7140
0Y!
#7145
0b!
#7146
1c!
#7176
1S!
#7179
0C!
1R!
#7181
0O!
#7197
0F!
#7218
1H!
#7292
15!
#7293
07!
#7294
06!
#9713
0w
#9716
0r
#9988
0(!
#9990
0#!
#10028
0Y
#10064
1V
#10118
09
#10125
0<
#10160
1v
#10170
1C
#10185
1u
#10198
1E
#10231
1J
#10243
1=
#10259
1K
#10260
1H
#10276
1G
#10286
1F
#10291
1D
#10296
0W
#10313
1M
#10317
0T
0U
#10318
1S
#10335
1R
#10375
1>
#10399
1s
#10400
0t
#10406
0;
#10433
1B
#10536
1I
#10562
1A
#10571
1@
#10578
0:
#10591
1?
#10601
0X
#10621
1N
#10645
0$!
#10657
1O
#10679
1L
#10747
08
#10863
1P
#10874
1Q
#10908
07
#11751
10
#12498
03
#13492
11
#13515
1#
#13632
0&!
#13634
0%!
#13636
0'!
#13715
1"
#13746
1%
#13785
1/
#13824
16
#13981
12
#14054
1(
#14149
05
#14217
0&
1$
#14236
0'
#14263
1)
#14427
04
#14701
1.
#16978
0,
#17195
0*
#17212
0-
#17240
0+
#30000
b1101100011010001 !
0Z
#30862
1w!
#35901
0g
#35949
0p
#35951
1n
#35955
0y
1@!
#36041
11!
#36043
0>!
#36048
0=!
#36052
0~
#36054
12!
#36059
1i
#36158
1d
#36458
1j
#36841
0z
#36979
13!
#37015
1i!
#37037
1^!
#37038
0?!
#37102
0<!
#37203
0n!
#37214
0"!
#37355
1}
#37407
08!
#37416
19!
#37711
0o!
#37716
1G!
#37738
0H!
#37759
1s!
#37770
0e!
#37775
0c!
1a!
#37776
1b!
#37812
1E!
#37815
1F!
#37840
0D!
#40812
19
#40835
1Y
#40852
1#!
#40890
1&!
#40891
1$!
#40914
1<
#41022
0v
#41047
0u
#41053
0s
#41175
0M
#41179
1T
1U
#41196
1:
#41197
0R
#41201
1;
#41428
17
#41441
18
#41483
0N
#41492
0P
#41505
0Q
#41507
1%!
0$!
0#!
#41508
1'!
#42613
00
#44236
1,
#44354
01
#44377
0#
#44502
1$!
#44507
0&!
#44509
0%!
#44608
0%
#44843
02
#44890
1'
#45067
1*
#45079
0$
#45085
1-
#45112
1+
#47853
0,
#48087
0-
#48558
0.
#60000
b11101100011010001 !
b10101100011010001 !
1Z
#60862
0w!
#60872
1v!
#65959
1g!
#65961
1f
#66041
01!
#66043
0d
#66046
0@!
#66048
1=!
#66052
0n
1~
#66054
02!
#66055
0+!
#66059
0i
#66187
1{
#66195
1k
#66271
1!!
#66458
0j
#66723
0q
#66873
1m
#66934
0,!
#66979
03!
#67037
0^!
#67153
1`!
#67173
1V!
#67203
1n!
#67214
1"!
#67407
18!
#67411
05!
#67417
16!
#67603
09!
#67635
17!
#67729
0\!
#67731
0Z!
#67736
1Y!
1X!
#67759
0s!
#67761
0r!
#67766
0p!
#67770
1e!
#67775
1c!
0a!
#67776
0b!
#68227
1b!
#68228
0c!
#70827
0J
#70872
0V
#70944
1t
#71022
1v
#71131
0K
#71148
0G
#71152
0I
#71158
0F
#71175
1M
#71179
0T
0U
#71197
1R
#71271
1s
#71272
0t
#71463
1X
#71483
1N
#71508
1(!
0'!
#72800
10
#72840
13
#74268
15
#74354
11
#74377
1#
#74550
14
#74843
12
#75067
0*
#75079
1$
#75108
0'
#75112
0+
#75783
0)
#90000
b11101100011010001 !
0Z
#90862
1w!
#95908
0k
#95910
1;!
#95913
0{
#95914
1b
#95950
1e
#95959
1.!
0g!
#95961
0f
#96041
11!
#96048
0=!
#96052
0~
#96056
1I!
#96059
1i
0!!
#96442
1J!
#96458
1j
#96961
0V!
#97037
1^!
#97078
0}
#97110
1k!
#97113
0i!
#97153
1U!
#97203
0n!
#97214
0"!
#97517
1\!
#97524
0X!
#97759
1s!
#97770
0e!
#97776
0d!
0b!
#97849
1p!
#98038
0S!
#98041
1P!
#98042
0Q!
#98043
1O!
#100919
1K
#100936
1G
#100946
1F
#101022
0v
#101051
1w
#101153
0D
#101155
0C
#101175
0M
#101179
1T
1U
#101428
0B
#101433
0@
#101453
0?
#101470
0O
#101483
0N
#101505
1Q
#101508
0(!
1'!
#101546
0X
#104225
0$!
#104230
1&!
#104232
1%!
#104377
0#
#105053
0"
#105067
1*
#105079
0$
#105112
1+
#105783
1)
#107576
1,
#107810
1-
#108281
1.
#120000
b111101100011010001 !
b101101100011010001 !
b100101100011010001 !
1Z
#120822
1u!
#120862
0w!
#120872
0v!
#125725
0^!
#125750
13!
#125804
0I!
#125822
0k!
#125910
0;!
#125949
1p
#125953
0m
#125954
1L!
#125955
1y
#125986
0U!
#125995
1z
#126041
01!
#126042
0.!
#126048
1=!
#126050
0e
#126052
1~
#126055
1+!
#126059
0i
#126081
0j
#126130
0`!
#126133
1/!
#126145
1j!
#126156
0b
#126178
08!
#126182
15!
#126188
06!
14!
#126223
1m!
#126349
1N!
#126458
1e!
1<!
#126464
1d!
1b!
#126514
0p!
#126527
1r!
1q!
#126720
1Z!
#126731
0J!
#126745
0Y!
#126813
0<!
#126839
1U!
#126861
0L!
#126937
1_!
#126943
0/!
#127040
03!
#127123
1n!
#127204
0b!
#127205
1c!
#127213
1V!
#127216
05!
#127217
07!
04!
#127219
1?!
#127256
0z
#127264
1k!
#127453
0O!
#127455
0R!
#127462
0P!
#127468
18!
#127472
15!
#127478
17!
#127573
0Z!
#127636
1b!
#127637
0d!
0c!
#127679
0s!
#127681
0q!
#127686
1p!
#127769
0\!
#127771
0[!
#127892
0E!
#127897
0G!
#127913
1C!
#127926
1D!
#127960
1t!
#127969
0r!
#128026
05!
#128028
16!
#128327
1S!
#128330
1R!
1P!
#129836
1J
#129863
1M
#130171
1N
#130352
1u
0w
#130563
1D
#130644
1t
#130645
1v
#130676
0s
#130977
0=
#130993
09
#131000
0<
#131099
0T
0U
#131172
0H
#131188
0G
#131198
0F
#131281
0;
#131334
0S
#131365
0Q
#131622
08
#131722
1@
#131742
1?
#133913
1%
#134000
1#
#134354
1"
#134461
1&
#134513
1'
#134702
1$
#150000
b101101100011010001 !
0Z
#150862
1w!
#155912
0j!
#155949
0p
#155951
1n
#155955
0y
1@!
#156041
11!
#156048
0=!
#156052
0~
0m!
#156054
12!
#156059
1i
#156158
1d
#156349
0N!
#156663
1N!
#156731
1J!
#156839
0U!
#156952
0n!
#156975
1^!
#157031
0k!
#157040
13!
#157095
1B!
#157213
0V!
#157219
0?!
#157356
1W!
#157468
08!
#157472
15!
#157478
06!
14!
#157508
1s!
#157514
0t!
#157516
0C!
#157598
1[!
#157708
0e!
#157709
1f!
#157723
0p!
#157736
1r!
1q!
#157769
1\!
#157804
1Y!
#157809
0[!
#157897
1G!
#158327
0S!
#158330
0R!
0P!
#160580
1=
#160847
1V
#160888
1S
#160895
0J
#160928
1T
1U
#160993
19
#161113
0M
#161133
1W
#161188
1G
#161198
1F
#161420
1X
#161421
0N
#161444
1C
#161479
0L
#161622
18
#161713
0A
#161722
0@
#161742
0?
#164329
05
#164415
01
#164587
06
#164611
04
#164904
02
#180000
b111101100011010001 !
b110101100011010001 !
1Z
#180862
0w!
#180872
1v!
#185959
1g!
#185961
1f
#186041
01!
#186043
0d
#186046
0@!
#186048
1=!
#186052
0n
1~
#186054
02!
#186055
0+!
#186059
0i
#186187
1{
#186195
1k
#186271
1!!
#186731
0J!
#186764
0N!
#186872
1L!
#186937
0_!
#186975
0^!
#187040
03!
#187150
1/!
#187172
1"!
#187213
1V!
#187219
1?!
#187468
18!
#187472
05!
#187478
16!
04!
#187637
1d!
#187641
0f!
#187708
1e!
#187713
1c!
#187714
0b!
#187769
0\!
#187775
1]!
#187868
1O!
#187870
1R!
#187877
1P!
#187897
0G!
#187921
0F!
#187926
0D!
#188233
15!
#188235
06!
#188327
1S!
#188332
0O!
#188392
0R!
#190991
0C
#190993
09
#191000
1<
#191113
1M
#191188
0G
#191198
0F
#191302
0:
#191331
1O
#191411
1L
#191421
1N
#191430
1P
#191443
1Q
#191465
0%!
1$!
1#!
#191466
0'!
#191488
0E
#191622
08
#191722
1@
#191742
1?
#194415
11
#194587
16
#194904
12
#195025
0*
#195043
0-
#195070
0+
#195260
0/
#195521
0.
#210000
b111101100011010001 !
0Z
#210862
1w!
#215908
0k
#215910
1;!
#215913
0{
#215914
1b
#215950
1e
#215959
1.!
0g!
#215961
0f
#216041
11!
#216048
0=!
#216052
0~
#216058
1a
#216059
1i
0!!
#216731
1J!
#216765
1j
#216813
1<!
#216960
0"!
#217040
13!
#217080
0W!
#217129
0B!
#217156
1z
#217213
0V!
#217219
0?!
#217468
08!
#217472
05!
#217478
07!
#217526
0]!
#217533
1[!
#217558
1D!
#217769
1\!
#217771
1Z!
#217776
0Y!
#217897
1G!
#218327
0S!
#218330
1T!
#220632
0<
#220867
1J
#220934
1H
#220993
19
#221167
0#!
#221188
1G
#221192
1I
#221198
1F
#221239
1E
#221254
1'!
#221328
0t
#221329
0v
#221360
1s
#221361
1r
#221622
18
#221722
0@
#221739
0>
#221742
0?
#222683
03
#224329
15
#224415
01
#224684
0#
#224813
1*
#224858
1+
#224904
02
#224962
1/
#225145
0&
#225197
0'
#225386
0$
#225699
0(
#240000
b11101100011010001 !
b1101100011010001 !
b101100011010001 !
1Z
#240822
0u!
#240862
0w!
#240872
0v!
#245725
1^!
#245750
03!
#245803
0a
#245822
1k!
#245910
0;!
#245949
1p
#245953
1m
#245954
0L!
#245955
1y
#245986
1U!
#245995
0z
#246041
01!
#246042
0.!
#246047
0J!
#246048
1=!
#246050
0e
#246052
1~
#246055
1+!
#246059
0i
#246130
1`!
#246133
0/!
#246155
1g
#246156
0b
#246178
18!
#246182
15!
#246188
17!
#246221
1>!
#246349
1q
#246458
0e!
0<!
0j
#246463
0c!
1a!
#246464
1b!
#246514
1p!
#246527
0r!
0q!
#246720
0Z!
#246745
1Y!
#246841
1z
#246861
0m
#246934
1,!
#246943
0`!
#247037
0^!
#247110
0k!
#247168
1E!
#247171
1F!
#247196
0D!
#247203
1n!
#247204
0b!
#247205
0d!
0a!
#247214
1"!
#247216
05!
1?!
#247253
0U!
#247356
1<!
#247474
1R!
#247476
0T!
#247635
07!
#247636
15!
#247643
1S!
#247646
0P!
#247647
1Q!
#247759
0s!
#247766
1o!
#247770
1e!
#247776
1d!
#247815
1r!
#247889
0E!
#247894
0G!
#247923
1D!
#247987
1Z!
#248012
0Y!
#248018
1c!
#248069
0F!
#248090
1H!
#249924
0W
#250211
0X
#250571
0u
#250578
0s
0r
#250760
1C
#250857
1A
#250885
1>
#250890
0Y
#250990
09
#251022
1v
#251033
1B
#251038
1@
#251047
1u
#251053
1s
#251058
1?
#251179
0T
0U
#251507
0&!
0$!
#251508
0'!
#251619
08
#251780
07
#253125
11
#253614
12
#254377
1#
#254493
05
#254853
0,
#254916
1(
#255067
0*
#255079
1$
#255112
0+
#255563
1.
