lab04/simulation/qsim/CW4.msim.vcd
$comment
	File created using the following command:
		vcd file CW4.msim.vcd -direction
$end
$date
	Sun Jan 08 13:18:51 2017
$end
$version
	ModelSim Version 10.1d
$end
$timescale
	1ps
$end
$scope module CW4_vlg_vec_tst $end
$var reg 18 ! SW [17:0] $end
$var wire 1 " HEX0 [0] $end
$var wire 1 # HEX0 [1] $end
$var wire 1 $ HEX0 [2] $end
$var wire 1 % HEX0 [3] $end
$var wire 1 & HEX0 [4] $end
$var wire 1 ' HEX0 [5] $end
$var wire 1 ( HEX0 [6] $end
$var wire 1 ) HEX1 [0] $end
$var wire 1 * HEX1 [1] $end
$var wire 1 + HEX1 [2] $end
$var wire 1 , HEX1 [3] $end
$var wire 1 - HEX1 [4] $end
$var wire 1 . HEX1 [5] $end
$var wire 1 / HEX1 [6] $end
$var wire 1 0 HEX2 [0] $end
$var wire 1 1 HEX2 [1] $end
$var wire 1 2 HEX2 [2] $end
$var wire 1 3 HEX2 [3] $end
$var wire 1 4 HEX2 [4] $end
$var wire 1 5 HEX2 [5] $end
$var wire 1 6 HEX2 [6] $end
$var wire 1 7 HEX3 [0] $end
$var wire 1 8 HEX3 [1] $end
$var wire 1 9 HEX3 [2] $end
$var wire 1 : HEX3 [3] $end
$var wire 1 ; HEX3 [4] $end
$var wire 1 < HEX3 [5] $end
$var wire 1 = HEX3 [6] $end
$var wire 1 > HEX4 [0] $end
$var wire 1 ? HEX4 [1] $end
$var wire 1 @ HEX4 [2] $end
$var wire 1 A HEX4 [3] $end
$var wire 1 B HEX4 [4] $end
$var wire 1 C HEX4 [5] $end
$var wire 1 D HEX4 [6] $end
$var wire 1 E HEX5 [0] $end
$var wire 1 F HEX5 [1] $end
$var wire 1 G HEX5 [2] $end
$var wire 1 H HEX5 [3] $end
$var wire 1 I HEX5 [4] $end
$var wire 1 J HEX5 [5] $end
$var wire 1 K HEX5 [6] $end
$var wire 1 L HEX6 [0] $end
$var wire 1 M HEX6 [1] $end
$var wire 1 N HEX6 [2] $end
$var wire 1 O HEX6 [3] $end
$var wire 1 P HEX6 [4] $end
$var wire 1 Q HEX6 [5] $end
$var wire 1 R HEX6 [6] $end
$var wire 1 S HEX7 [0] $end
$var wire 1 T HEX7 [1] $end
$var wire 1 U HEX7 [2] $end
$var wire 1 V HEX7 [3] $end
$var wire 1 W HEX7 [4] $end
$var wire 1 X HEX7 [5] $end
$var wire 1 Y HEX7 [6] $end
$var wire 1 Z sampler $end
$scope module i1 $end
$var wire 1 [ gnd $end
$var wire 1 \ vcc $end
$var wire 1 ] unknown $end
$var tri1 1 ^ devclrn $end
$var tri1 1 _ devpor $end
$var tri1 1 ` devoe $end
$var wire 1 a MUX0|Mux2~2_combout $end
$var wire 1 b MUX0|Mux0~2_combout $end
$var wire 1 c MUX0|Mux1~1_combout $end
$var wire 1 d MUX7|Mux2~4_combout $end
$var wire 1 e MUX7|Mux0~5_combout $end
$var wire 1 f MUX7|Mux1~4_combout $end
$var wire 1 g MUX7|Mux0~1_combout $end
$var wire 1 h MUX7|Mux0~2_combout $end
$var wire 1 i MUX7|Mux0~0_combout $end
$var wire 1 j MUX7|Mux0~3_combout $end
$var wire 1 k MUX7|Mux1~1_combout $end
$var wire 1 l MUX7|Mux1~2_combout $end
$var wire 1 m MUX7|Mux1~0_combout $end
$var wire 1 n MUX7|Mux1~3_combout $end
$var wire 1 o MUX7|Mux2~1_combout $end
$var wire 1 p MUX7|Mux2~2_combout $end
$var wire 1 q MUX7|Mux2~0_combout $end
$var wire 1 r MUX7|Mux2~3_combout $end
$var wire 1 s H0|Mux6~0_combout $end
$var wire 1 t H0|Mux5~0_combout $end
$var wire 1 u H0|Mux4~0_combout $end
$var wire 1 v H0|Mux3~0_combout $end
$var wire 1 w H0|Mux2~0_combout $end
$var wire 1 x H0|Mux0~0_combout $end
$var wire 1 y MUX0|Mux0~1_combout $end
$var wire 1 z MUX0|Mux0~0_combout $end
$var wire 1 { MUX6|Mux0~0_combout $end
$var wire 1 | MUX0|Mux1~2_combout $end
$var wire 1 } MUX0|Mux1~0_combout $end
$var wire 1 ~ MUX6|Mux1~0_combout $end
$var wire 1 !! MUX0|Mux2~1_combout $end
$var wire 1 "! MUX0|Mux2~0_combout $end
$var wire 1 #! MUX6|Mux2~0_combout $end
$var wire 1 $! H1|Mux6~0_combout $end
$var wire 1 %! H1|Mux5~0_combout $end
$var wire 1 &! H1|Mux4~0_combout $end
$var wire 1 '! H1|Mux3~0_combout $end
$var wire 1 (! H1|Mux2~0_combout $end
$var wire 1 )! H1|Mux0~0_combout $end
$var wire 1 *! MUX7|Mux0~6_combout $end
$var wire 1 +! MUX7|Mux0~4_combout $end
$var wire 1 ,! MUX5|Mux0~0_combout $end
$var wire 1 -! MUX7|Mux2~6_combout $end
$var wire 1 .! MUX7|Mux2~5_combout $end
$var wire 1 /! MUX5|Mux2~0_combout $end
$var wire 1 0! MUX7|Mux1~6_combout $end
$var wire 1 1! MUX7|Mux1~5_combout $end
$var wire 1 2! MUX5|Mux1~0_combout $end
$var wire 1 3! H2|Mux6~0_combout $end
$var wire 1 4! H2|Mux5~0_combout $end
$var wire 1 5! H2|Mux4~0_combout $end
$var wire 1 6! H2|Mux3~0_combout $end
$var wire 1 7! H2|Mux2~0_combout $end
$var wire 1 8! H2|Mux0~0_combout $end
$var wire 1 9! MUX0|Mux0~3_combout $end
$var wire 1 :! MUX4|Mux0~0_combout $end
$var wire 1 ;! MUX0|Mux0~4_combout $end
$var wire 1 <! MUX4|Mux0~1_combout $end
$var wire 1 =! MUX0|Mux2~4_combout $end
$var wire 1 >! MUX0|Mux2~3_combout $end
$var wire 1 ?! MUX4|Mux2~0_combout $end
$var wire 1 @! MUX4|Mux2~1_combout $end
$var wire 1 A! MUX0|Mux1~3_combout $end
$var wire 1 B! MUX0|Mux1~4_combout $end
$var wire 1 C! MUX4|Mux1~0_combout $end
$var wire 1 D! MUX4|Mux1~1_combout $end
$var wire 1 E! H3|Mux6~0_combout $end
$var wire 1 F! H3|Mux5~0_combout $end
$var wire 1 G! H3|Mux4~0_combout $end
$var wire 1 H! H3|Mux3~0_combout $end
$var wire 1 I! H3|Mux2~0_combout $end
$var wire 1 J! H3|Mux0~0_combout $end
$var wire 1 K! MUX3|Mux0~0_combout $end
$var wire 1 L! MUX3|Mux0~1_combout $end
$var wire 1 M! MUX3|Mux2~0_combout $end
$var wire 1 N! MUX3|Mux2~1_combout $end
$var wire 1 O! MUX3|Mux1~0_combout $end
$var wire 1 P! MUX3|Mux1~1_combout $end
$var wire 1 Q! H4|Mux6~0_combout $end
$var wire 1 R! H4|Mux5~0_combout $end
$var wire 1 S! H4|Mux4~0_combout $end
$var wire 1 T! H4|Mux3~0_combout $end
$var wire 1 U! H4|Mux2~0_combout $end
$var wire 1 V! H4|Mux0~0_combout $end
$var wire 1 W! MUX2|Mux0~0_combout $end
$var wire 1 X! MUX2|Mux1~0_combout $end
$var wire 1 Y! MUX2|Mux2~0_combout $end
$var wire 1 Z! H5|Mux6~0_combout $end
$var wire 1 [! H5|Mux5~0_combout $end
$var wire 1 \! H5|Mux4~0_combout $end
$var wire 1 ]! H5|Mux3~0_combout $end
$var wire 1 ^! H5|Mux2~0_combout $end
$var wire 1 _! H5|Mux0~0_combout $end
$var wire 1 `! MUX1|Mux0~0_combout $end
$var wire 1 a! MUX1|Mux2~0_combout $end
$var wire 1 b! MUX1|Mux1~0_combout $end
$var wire 1 c! H6|Mux6~0_combout $end
$var wire 1 d! H6|Mux5~0_combout $end
$var wire 1 e! H6|Mux4~0_combout $end
$var wire 1 f! H6|Mux3~0_combout $end
$var wire 1 g! H6|Mux2~0_combout $end
$var wire 1 h! H6|Mux0~0_combout $end
$var wire 1 i! MUX0|Mux1~5_combout $end
$var wire 1 j! MUX0|Mux1~6_combout $end
$var wire 1 k! MUX0|Mux2~5_combout $end
$var wire 1 l! MUX0|Mux2~6_combout $end
$var wire 1 m! MUX0|Mux0~5_combout $end
$var wire 1 n! MUX0|Mux0~6_combout $end
$var wire 1 o! H7|Mux6~0_combout $end
$var wire 1 p! H7|Mux5~0_combout $end
$var wire 1 q! H7|Mux4~0_combout $end
$var wire 1 r! H7|Mux3~0_combout $end
$var wire 1 s! H7|Mux2~0_combout $end
$var wire 1 t! H7|Mux0~0_combout $end
$var wire 1 u! SW~combout [17] $end
$var wire 1 v! SW~combout [16] $end
$var wire 1 w! SW~combout [15] $end
$var wire 1 x! SW~combout [14] $end
$var wire 1 y! SW~combout [13] $end
$var wire 1 z! SW~combout [12] $end
$var wire 1 {! SW~combout [11] $end
$var wire 1 |! SW~combout [10] $end
$var wire 1 }! SW~combout [9] $end
$var wire 1 ~! SW~combout [8] $end
$var wire 1 !" SW~combout [7] $end
$var wire 1 "" SW~combout [6] $end
$var wire 1 #" SW~combout [5] $end
$var wire 1 $" SW~combout [4] $end
$var wire 1 %" SW~combout [3] $end
$var wire 1 &" SW~combout [2] $end
$var wire 1 '" SW~combout [1] $end
$var wire 1 (" SW~combout [0] $end
$upscope $end
$upscope $end
$enddefinitions $end
#0
$dumpvars
b101100011010001 !
1(
0'
0&
1%
1$
1#
1"
1/
1.
0-
0,
0+
0*
1)
16
05
04
03
12
11
10
1=
0<
0;
0:
09
08
07
1D
1C
1B
1A
1@
1?
1>
1K
1J
1I
1H
1G
1F
1E
1R
1Q
1P
1O
1N
1M
1L
0Y
0X
0W
1V
0U
0T
1S
xZ
0[
1\
x]
1^
1_
1`
1a
0b
0c
0d
0e
0f
0g
0h
0i
0j
0k
1l
0m
1n
0o
0p
0q
0r
0s
1t
0u
1v
1w
0x
0y
0z
0{
1|
0}
1~
0!!
0"!
1#!
0$!
0%!
0&!
0'!
0(!
0)!
0*!
1+!
1,!
0-!
0.!
0/!
00!
01!
02!
03!
14!
05!
06!
17!
08!
09!
1:!
0;!
1<!
1=!
0>!
1?!
1@!
0A!
0B!
0C!
0D!
0E!
1F!
0G!
0H!
0I!
1J!
0K!
0L!
0M!
0N!
0O!
0P!
0Q!
0R!
1S!
1T!
1U!
0V!
0W!
0X!
0Y!
0Z!
0[!
1\!
1]!
1^!
0_!
0`!
0a!
0b!
0c!
0d!
1e!
1f!
1g!
0h!
0i!
0j!
0k!
1l!
0m!
0n!
1o!
1p!
0q!
1r!
0s!
0t!
1("
0'"
0&"
0%"
1$"
0#"
1""
1!"
0~!
0}!
0|!
1{!
1z!
0y!
1x!
0w!
0v!
0u!
$end
#30000
b1101100011010001 !
1w!
0Z
1A!
0?!
0=!
0:!
1-!
0|
1y
1o
0l
1k
1d
0a
1j!
0@!
0l!
0<!
1a!
1/!
0~
1{
1r
0#!
1s!
0o!
0J!
1I!
1H!
1G!
0F!
0g!
0e!
1d!
1c!
18!
07!
1(!
1%!
0w
0v
0t
1T
1U
18
19
1:
1;
0M
0N
0P
01
02
1*
1+
0#
0$
0%
1Y
17
1<
0Q
0R
00
0.
1'
#60000
b11101100011010001 !
b10101100011010001 !
0w!
1v!
1Z
1B!
0A!
1=!
11!
0-!
0+!
1"!
0y
0o
0k
1h
0d
1b
1a
1l!
1b!
0a!
0/!
0,!
1Y!
1#!
0r
0n
1j
0s!
0r!
0p!
1g!
0c!
08!
17!
16!
15!
04!
0^!
0\!
1[!
1Z!
1)!
0(!
1w
1t
0T
0U
0V
1M
1N
11
12
13
14
0F
0G
0I
0*
0+
1#
1$
1X
1R
10
15
0J
0K
0)
0'
#90000
b11101100011010001 !
1w!
0Z
1M!
0B!
0=!
19!
01!
10!
1-!
0"!
1}
1o
0h
1g
0b
0a
1N!
0j!
0l!
1n!
1a!
0Y!
0#!
1X!
1r
0{
0U!
0S!
1R!
1Q!
1s!
1p!
0g!
0f!
0d!
1^!
0Z!
0)!
1(!
1'!
1&!
0%!
1x
0w
0?
0@
0B
1T
1U
0M
0N
0O
1F
1G
1*
1+
1,
1-
0#
0$
0C
0D
0X
1Q
1K
1)
1.
0"
#120000
b111101100011010001 !
b101101100011010001 !
b100101100011010001 !
0w!
0v!
1u!
1Z
1m!
1k!
0M!
1=!
09!
00!
0-!
1+!
0}
1|
0o
1l
0g
1a
0n!
0b!
0a!
0X!
1L!
1<!
12!
1/!
1~
0r
0j
1n!
1l!
0N!
1@!
0<!
02!
0/!
1`!
1X!
0~
1P!
0L!
1Y!
1r!
1q!
0p!
1g!
1f!
1e!
1\!
0[!
1V!
0T!
0Q!
0H!
0G!
1F!
07!
06!
05!
0&!
1%!
0x
1w
1v
1u
0t
1t!
0s!
0r!
0q!
1p!
0V!
1U!
1T!
0I!
1H!
1E!
17!
16!
15!
0f!
0e!
1d!
0^!
0]!
0\!
1&!
0%!
1V
1W
1M
1N
1O
1P
1I
0A
0:
0;
01
02
03
04
0-
1#
1$
1%
1&
1X
1J
0>
1D
0<
0.
1"
1'
0T
0U
0V
0W
1?
1@
1A
08
09
1:
11
12
13
14
0O
0P
0F
0G
0H
0I
1-
0S
0X
1>
0=
0Q
1.
#150000
b101101100011010001 !
1w!
0Z
0m!
0k!
1A!
0=!
1-!
0|
1y
1o
0l
1k
1d
0a
0n!
0l!
1D!
0@!
1a!
1/!
0X!
1W!
1N!
0Y!
0t!
1s!
1r!
1q!
0p!
1I!
0E!
1h!
0g!
07!
05!
14!
13!
1^!
1[!
0U!
0T!
0R!
1T
1U
1V
1W
18
19
0M
0N
01
02
04
1F
1G
0?
0@
0A
1S
1X
1=
0L
05
06
0J
1C
#180000
b111101100011010001 !
b110101100011010001 !
0w!
1v!
1Z
1B!
0A!
1=!
11!
0-!
0+!
1"!
0y
0o
0k
1h
0d
1b
1a
1@!
12!
0a!
0/!
0`!
1Y!
1#!
0N!
0P!
1L!
0I!
0H!
0F!
17!
03!
0h!
1g!
1f!
1e!
0d!
1_!
0^!
0(!
0&!
1%!
1$!
1U!
1R!
08
09
0:
11
12
1M
1N
1O
1P
0F
0G
0*
0+
0-
1?
1@
1<
16
1L
1Q
0E
0.
0/
0C
#210000
b111101100011010001 !
1w!
0Z
0B!
0=!
19!
01!
10!
1-!
0"!
1}
1q
1o
0h
1g
0b
0a
0D!
0@!
1<!
1/!
0Y!
0#!
1~
1r
1N!
0W!
1I!
1F!
07!
06!
04!
0_!
1^!
1]!
1\!
0[!
1(!
0$!
0w
0u
1t
1s
1V!
0U!
18
19
01
02
03
1F
1G
1H
1I
1*
1+
0#
0$
0&
0?
0@
0<
15
1E
1J
1/
0'
0(
0>
#240000
b11101100011010001 !
b1101100011010001 !
b101100011010001 !
0w!
0v!
0u!
1Z
1?!
1=!
1:!
09!
00!
0-!
1+!
0}
1|
0q
0o
1l
0g
1a
1n!
1b!
1a!
1X!
0N!
0L!
0<!
02!
0/!
0~
1j
1@!
1l!
1<!
0n!
0b!
0a!
1,!
0X!
1~
0r
1n
0j
1#!
0r!
0q!
1p!
0g!
0f!
0e!
0\!
1[!
0V!
1U!
1T!
1S!
0R!
1H!
1G!
0F!
17!
16!
15!
1&!
0%!
1x
0v
0s
1J!
0I!
0H!
0G!
1F!
0s!
1r!
1o!
1g!
1f!
1e!
06!
05!
14!
1\!
0[!
0(!
0'!
0&!
0x
1w
1v
0V
0W
0M
0N
0O
0P
0I
1?
1@
1A
1B
1:
1;
11
12
13
14
1-
0%
0X
0J
1>
1C
1<
1.
0"
1(
08
09
0:
0;
0T
0U
1V
1M
1N
1O
1P
03
04
1I
0*
0+
0,
0-
1#
1$
1%
07
0<
0Y
05
1J
1"
