lab04/simulation/qsim/CW4.msim.vcd
$comment
	File created using the following command:
		vcd file CW4.msim.vcd -direction
$end
$date
	Sun Jan 08 14:52:23 2017
$end
$version
	ModelSim Version 10.1d
$end
$timescale
	1ps
$end
$scope module CW4_vlg_vec_tst $end
$var reg 18 ! SW [17:0] $end
$var wire 1 " HEX0 [0] $end
$var wire 1 # HEX0 [1] $end
$var wire 1 $ HEX0 [2] $end
$var wire 1 % HEX0 [3] $end
$var wire 1 & HEX0 [4] $end
$var wire 1 ' HEX0 [5] $end
$var wire 1 ( HEX0 [6] $end
$var wire 1 ) HEX1 [0] $end
$var wire 1 * HEX1 [1] $end
$var wire 1 + HEX1 [2] $end
$var wire 1 , HEX1 [3] $end
$var wire 1 - HEX1 [4] $end
$var wire 1 . HEX1 [5] $end
$var wire 1 / HEX1 [6] $end
$var wire 1 0 HEX2 [0] $end
$var wire 1 1 HEX2 [1] $end
$var wire 1 2 HEX2 [2] $end
$var wire 1 3 HEX2 [3] $end
$var wire 1 4 HEX2 [4] $end
$var wire 1 5 HEX2 [5] $end
$var wire 1 6 HEX2 [6] $end
$var wire 1 7 HEX3 [0] $end
$var wire 1 8 HEX3 [1] $end
$var wire 1 9 HEX3 [2] $end
$var wire 1 : HEX3 [3] $end
$var wire 1 ; HEX3 [4] $end
$var wire 1 < HEX3 [5] $end
$var wire 1 = HEX3 [6] $end
$var wire 1 > HEX4 [0] $end
$var wire 1 ? HEX4 [1] $end
$var wire 1 @ HEX4 [2] $end
$var wire 1 A HEX4 [3] $end
$var wire 1 B HEX4 [4] $end
$var wire 1 C HEX4 [5] $end
$var wire 1 D HEX4 [6] $end
$var wire 1 E HEX5 [0] $end
$var wire 1 F HEX5 [1] $end
$var wire 1 G HEX5 [2] $end
$var wire 1 H HEX5 [3] $end
$var wire 1 I HEX5 [4] $end
$var wire 1 J HEX5 [5] $end
$var wire 1 K HEX5 [6] $end
$var wire 1 L HEX6 [0] $end
$var wire 1 M HEX6 [1] $end
$var wire 1 N HEX6 [2] $end
$var wire 1 O HEX6 [3] $end
$var wire 1 P HEX6 [4] $end
$var wire 1 Q HEX6 [5] $end
$var wire 1 R HEX6 [6] $end
$var wire 1 S HEX7 [0] $end
$var wire 1 T HEX7 [1] $end
$var wire 1 U HEX7 [2] $end
$var wire 1 V HEX7 [3] $end
$var wire 1 W HEX7 [4] $end
$var wire 1 X HEX7 [5] $end
$var wire 1 Y HEX7 [6] $end
$var wire 1 Z sampler $end
$scope module i1 $end
$var wire 1 [ gnd $end
$var wire 1 \ vcc $end
$var wire 1 ] unknown $end
$var tri1 1 ^ devclrn $end
$var tri1 1 _ devpor $end
$var tri1 1 ` devoe $end
$var wire 1 a MUX7|Mux2~0_combout $end
$var wire 1 b MUX7|Mux0~1_combout $end
$var wire 1 c MUX0|Mux2~1_combout $end
$var wire 1 d MUX0|Mux0~1_combout $end
$var wire 1 e MUX0|Mux1~0_combout $end
$var wire 1 f MUX7|Mux1~5_combout $end
$var wire 1 g MUX4|Mux0~0_combout $end
$var wire 1 h MUX7|Mux2~2_combout $end
$var wire 1 i MUX7|Mux2~1_combout $end
$var wire 1 j MUX7|Mux2~3_combout $end
$var wire 1 k MUX7|Mux0~2_combout $end
$var wire 1 l MUX7|Mux0~0_combout $end
$var wire 1 m MUX7|Mux0~3_combout $end
$var wire 1 n MUX7|Mux1~1_combout $end
$var wire 1 o MUX7|Mux1~0_combout $end
$var wire 1 p MUX7|Mux1~2_combout $end
$var wire 1 q MUX7|Mux1~3_combout $end
$var wire 1 r H0|Mux6~0_combout $end
$var wire 1 s H0|Mux5~0_combout $end
$var wire 1 t H0|Mux4~0_combout $end
$var wire 1 u H0|Mux3~0_combout $end
$var wire 1 v H0|Mux2~0_combout $end
$var wire 1 w H0|Mux0~0_combout $end
$var wire 1 x MUX0|Mux1~1_combout $end
$var wire 1 y MUX0|Mux1~2_combout $end
$var wire 1 z MUX6|Mux1~0_combout $end
$var wire 1 { MUX0|Mux0~2_combout $end
$var wire 1 | MUX0|Mux0~0_combout $end
$var wire 1 } MUX6|Mux0~0_combout $end
$var wire 1 ~ MUX0|Mux2~2_combout $end
$var wire 1 !! MUX0|Mux2~0_combout $end
$var wire 1 "! MUX6|Mux2~0_combout $end
$var wire 1 #! H1|Mux6~0_combout $end
$var wire 1 $! H1|Mux5~0_combout $end
$var wire 1 %! H1|Mux4~0_combout $end
$var wire 1 &! H1|Mux3~0_combout $end
$var wire 1 '! H1|Mux2~0_combout $end
$var wire 1 (! H1|Mux0~0_combout $end
$var wire 1 )! MUX7|Mux0~5_combout $end
$var wire 1 *! MUX7|Mux0~6_combout $end
$var wire 1 +! MUX7|Mux0~4_combout $end
$var wire 1 ,! MUX5|Mux0~0_combout $end
$var wire 1 -! MUX7|Mux1~4_combout $end
$var wire 1 .! MUX7|Mux1~6_combout $end
$var wire 1 /! MUX5|Mux1~0_combout $end
$var wire 1 0! MUX7|Mux2~5_combout $end
$var wire 1 1! MUX7|Mux2~6_combout $end
$var wire 1 2! MUX7|Mux2~4_combout $end
$var wire 1 3! MUX5|Mux2~0_combout $end
$var wire 1 4! H2|Mux6~0_combout $end
$var wire 1 5! H2|Mux5~0_combout $end
$var wire 1 6! H2|Mux4~0_combout $end
$var wire 1 7! H2|Mux3~0_combout $end
$var wire 1 8! H2|Mux2~0_combout $end
$var wire 1 9! H2|Mux0~0_combout $end
$var wire 1 :! MUX0|Mux0~4_combout $end
$var wire 1 ;! MUX0|Mux0~3_combout $end
$var wire 1 <! MUX4|Mux0~1_combout $end
$var wire 1 =! MUX0|Mux2~4_combout $end
$var wire 1 >! MUX4|Mux2~0_combout $end
$var wire 1 ?! MUX4|Mux2~1_combout $end
$var wire 1 @! MUX0|Mux1~3_combout $end
$var wire 1 A! MUX4|Mux1~0_combout $end
$var wire 1 B! MUX4|Mux1~1_combout $end
$var wire 1 C! H3|Mux6~0_combout $end
$var wire 1 D! H3|Mux5~0_combout $end
$var wire 1 E! H3|Mux4~0_combout $end
$var wire 1 F! H3|Mux3~0_combout $end
$var wire 1 G! H3|Mux2~0_combout $end
$var wire 1 H! H3|Mux0~0_combout $end
$var wire 1 I! MUX3|Mux2~0_combout $end
$var wire 1 J! MUX3|Mux2~1_combout $end
$var wire 1 K! MUX3|Mux0~0_combout $end
$var wire 1 L! MUX3|Mux0~1_combout $end
$var wire 1 M! MUX3|Mux1~0_combout $end
$var wire 1 N! MUX3|Mux1~1_combout $end
$var wire 1 O! H4|Mux6~0_combout $end
$var wire 1 P! H4|Mux5~0_combout $end
$var wire 1 Q! H4|Mux4~0_combout $end
$var wire 1 R! H4|Mux3~0_combout $end
$var wire 1 S! H4|Mux2~0_combout $end
$var wire 1 T! H4|Mux0~0_combout $end
$var wire 1 U! MUX2|Mux1~0_combout $end
$var wire 1 V! MUX2|Mux2~0_combout $end
$var wire 1 W! MUX2|Mux0~0_combout $end
$var wire 1 X! H5|Mux6~0_combout $end
$var wire 1 Y! H5|Mux5~0_combout $end
$var wire 1 Z! H5|Mux4~0_combout $end
$var wire 1 [! H5|Mux3~0_combout $end
$var wire 1 \! H5|Mux2~0_combout $end
$var wire 1 ]! H5|Mux0~0_combout $end
$var wire 1 ^! MUX1|Mux2~0_combout $end
$var wire 1 _! MUX1|Mux0~0_combout $end
$var wire 1 `! MUX1|Mux1~0_combout $end
$var wire 1 a! H6|Mux6~0_combout $end
$var wire 1 b! H6|Mux5~0_combout $end
$var wire 1 c! H6|Mux4~0_combout $end
$var wire 1 d! H6|Mux3~0_combout $end
$var wire 1 e! H6|Mux2~0_combout $end
$var wire 1 f! H6|Mux0~0_combout $end
$var wire 1 g! MUX0|Mux1~4_combout $end
$var wire 1 h! MUX0|Mux1~5_combout $end
$var wire 1 i! MUX0|Mux1~6_combout $end
$var wire 1 j! MUX0|Mux0~5_combout $end
$var wire 1 k! MUX0|Mux0~6_combout $end
$var wire 1 l! MUX0|Mux2~3_combout $end
$var wire 1 m! MUX0|Mux2~5_combout $end
$var wire 1 n! MUX0|Mux2~6_combout $end
$var wire 1 o! H7|Mux6~0_combout $end
$var wire 1 p! H7|Mux5~0_combout $end
$var wire 1 q! H7|Mux4~0_combout $end
$var wire 1 r! H7|Mux3~0_combout $end
$var wire 1 s! H7|Mux2~0_combout $end
$var wire 1 t! H7|Mux0~0_combout $end
$var wire 1 u! SW~combout [17] $end
$var wire 1 v! SW~combout [16] $end
$var wire 1 w! SW~combout [15] $end
$var wire 1 x! SW~combout [14] $end
$var wire 1 y! SW~combout [13] $end
$var wire 1 z! SW~combout [12] $end
$var wire 1 {! SW~combout [11] $end
$var wire 1 |! SW~combout [10] $end
$var wire 1 }! SW~combout [9] $end
$var wire 1 ~! SW~combout [8] $end
$var wire 1 !" SW~combout [7] $end
$var wire 1 "" SW~combout [6] $end
$var wire 1 #" SW~combout [5] $end
$var wire 1 $" SW~combout [4] $end
$var wire 1 %" SW~combout [3] $end
$var wire 1 &" SW~combout [2] $end
$var wire 1 '" SW~combout [1] $end
$var wire 1 (" SW~combout [0] $end
$upscope $end
$upscope $end
$enddefinitions $end
#0
$dumpvars
b101100011010001 !
1(
0'
0&
1%
1$
1#
1"
1/
1.
0-
0,
0+
0*
1)
16
05
04
03
12
11
10
1=
0<
0;
0:
09
08
07
1D
1C
1B
1A
1@
1?
1>
1K
1J
1I
1H
1G
1F
1E
1R
1Q
1P
1O
1N
1M
1L
0Y
0X
0W
1V
0U
0T
1S
xZ
0[
1\
x]
1^
1_
1`
0a
0b
0c
0d
0e
0f
1g
0h
0i
0j
0k
0l
0m
0n
0o
1p
1q
0r
1s
0t
1u
1v
0w
0x
1y
1z
0{
0|
0}
1~
0!!
1"!
0#!
0$!
0%!
0&!
0'!
0(!
0)!
0*!
1+!
1,!
0-!
0.!
0/!
00!
01!
02!
03!
04!
15!
06!
07!
18!
09!
0:!
0;!
1<!
1=!
1>!
1?!
0@!
0A!
0B!
0C!
1D!
0E!
0F!
0G!
1H!
0I!
0J!
0K!
0L!
0M!
0N!
0O!
0P!
1Q!
1R!
1S!
0T!
0U!
0V!
0W!
0X!
0Y!
1Z!
1[!
1\!
0]!
0^!
0_!
0`!
0a!
0b!
1c!
1d!
1e!
0f!
0g!
0h!
0i!
0j!
0k!
0l!
0m!
1n!
1o!
1p!
0q!
1r!
0s!
0t!
1("
0'"
0&"
0%"
1$"
0#"
1""
1!"
0~!
0}!
0|!
1{!
1z!
0y!
1x!
0w!
0v!
0u!
$end
#30000
b1101100011010001 !
1w!
0Z
1@!
0>!
0=!
12!
11!
0~
0y
0p
1n
1i
0g
1d
1i!
0?!
0n!
1^!
13!
0"!
0z
1j
0<!
1}
1s!
0o!
0H!
1G!
1F!
1E!
0D!
0e!
0c!
1b!
1a!
19!
08!
1'!
1$!
0v
0u
0s
1T
1U
18
19
1:
1;
0M
0N
0P
01
02
1*
1+
0#
0$
0%
1Y
17
1<
0Q
0R
00
0.
1'
#60000
b11101100011010001 !
b10101100011010001 !
0w!
1v!
1Z
1g!
0@!
1=!
02!
01!
0+!
1!!
1~
1{
0n
1k
0i
1f
0d
1n!
0^!
03!
0,!
1V!
1"!
0q
1m
0j
1`!
0s!
0r!
0p!
1e!
0a!
09!
18!
17!
16!
05!
0\!
0Z!
1Y!
1X!
1(!
0'!
1v
1s
0T
0U
0V
1M
1N
11
12
13
14
0F
0G
0I
0*
0+
1#
1$
1X
1R
10
15
0J
0K
0)
0'
#90000
b11101100011010001 !
1w!
0Z
0g!
1I!
0=!
1;!
11!
1.!
0!!
0~
0{
0k
1i
0f
1e
1b
0i!
1J!
0n!
1k!
1^!
0V!
0"!
0}
1j
1U!
1s!
1p!
0S!
0Q!
1P!
1O!
0e!
0d!
0b!
1\!
0X!
0(!
1'!
1&!
1%!
0$!
1w
0v
1T
1U
0?
0@
0B
0M
0N
0O
1F
1G
1*
1+
1,
1-
0#
0$
0X
0C
0D
1Q
1K
1)
1.
0"
#120000
b111101100011010001 !
b101101100011010001 !
b100101100011010001 !
0w!
0v!
1u!
1Z
1m!
1j!
0I!
1=!
0;!
01!
0.!
1+!
1~
1y
1p
0i
0e
0b
0k!
0`!
0^!
0U!
1L!
1<!
13!
1/!
1z
0m
0j
1n!
1k!
0J!
1?!
0<!
03!
0/!
1_!
1V!
1U!
0z
1N!
0L!
1r!
1q!
0p!
1e!
1d!
1c!
1Z!
0Y!
1T!
0R!
0O!
0F!
0E!
1D!
08!
07!
06!
0%!
1$!
0w
1v
1u
1t
0s
1t!
0s!
0r!
0q!
1p!
0T!
1S!
1R!
0G!
1F!
1C!
18!
17!
16!
0d!
0c!
1b!
0\!
0[!
0Z!
1%!
0$!
1V
1W
1M
1N
1O
1P
1I
0A
0:
0;
01
02
03
04
0-
1#
1$
1%
1&
1X
1J
0>
1D
0<
0.
1"
1'
0T
0U
0V
0W
1?
1@
1A
08
09
1:
11
12
13
14
0O
0P
0F
0G
0H
0I
1-
0S
0X
1>
0=
0Q
1.
#150000
b101101100011010001 !
1w!
0Z
0m!
0j!
1@!
0=!
12!
11!
0~
0y
0p
1n
1i
1d
0n!
0k!
1B!
0?!
1^!
13!
0V!
0U!
1J!
1W!
0t!
1s!
1r!
1q!
0p!
1G!
0C!
1f!
0e!
08!
06!
15!
14!
1\!
1Y!
0S!
0R!
0P!
1T
1U
1V
1W
18
19
0M
0N
01
02
04
1F
1G
0?
0@
0A
1S
1X
1=
0L
05
06
0J
1C
#180000
b111101100011010001 !
b110101100011010001 !
0w!
1v!
1Z
1g!
0@!
1=!
02!
01!
0+!
1!!
1~
1{
0n
1k
0i
1f
0d
1?!
0^!
03!
0_!
1V!
1"!
0N!
1L!
0J!
1/!
0G!
0F!
0D!
0f!
1e!
1d!
1c!
0b!
18!
04!
1]!
0\!
0'!
0%!
1$!
1#!
1S!
1P!
08
09
0:
1M
1N
1O
1P
11
12
0F
0G
0*
0+
0-
1?
1@
1<
1L
1Q
16
0E
0.
0/
0C
#210000
b111101100011010001 !
1w!
0Z
0g!
0=!
1;!
11!
1.!
0!!
0~
0{
0k
1i
0f
1e
1b
1a
0B!
0?!
1<!
13!
0V!
0"!
0W!
1J!
1j
1z
1G!
1D!
08!
07!
05!
0]!
1\!
1[!
1Z!
0Y!
1'!
0#!
1T!
0S!
0v
0t
1s
1r
18
19
01
02
03
1F
1G
1H
1I
1*
1+
0?
0@
0#
0$
0&
0<
15
1E
1J
1/
0>
0'
0(
#240000
b11101100011010001 !
b1101100011010001 !
b101100011010001 !
0w!
0v!
0u!
1Z
1>!
1=!
0;!
01!
0.!
1+!
1~
1y
1p
0i
1g
0e
0b
0a
1k!
1`!
1^!
1U!
0L!
0J!
0<!
03!
0/!
0z
1m
1?!
1n!
0k!
1<!
0^!
0`!
1,!
1"!
0U!
1z
1q
0j
0m
0r!
0q!
1p!
0e!
0d!
0c!
0Z!
1Y!
0T!
1S!
1R!
1Q!
0P!
1F!
1E!
0D!
18!
17!
16!
1%!
0$!
1w
0u
0r
1H!
0G!
0F!
0E!
1D!
0s!
1r!
1o!
1e!
1d!
1c!
07!
06!
15!
0'!
0&!
0%!
1Z!
0Y!
0w
1v
1u
0V
0W
0M
0N
0O
0P
0I
1?
1@
1A
1B
1:
1;
11
12
13
14
1-
0%
0X
0J
1>
1C
1<
1.
0"
1(
08
09
0:
0;
0T
0U
1V
1M
1N
1O
1P
03
04
0*
0+
0,
0-
1I
1#
1$
1%
07
0<
0Y
05
1J
1"
