rewersyjny/simulation/qsim/rewersyjny.msim.vcd
$comment
	File created using the following command:
		vcd file rewersyjny.msim.vcd -direction
$end
$date
	Mon Jan 16 23:56:35 2017
$end
$version
	ModelSim Version 10.1d
$end
$timescale
	1ps
$end
$scope module rewersyjny_vlg_vec_tst $end
$var reg 1 ! pin_name1 $end
$var reg 1 " pin_name2 $end
$var reg 1 # pin_name3 $end
$var wire 1 $ pin_name4 $end
$var wire 1 % pin_name5 $end
$var wire 1 & pin_name6 $end
$var wire 1 ' pin_name7 $end
$var wire 1 ( pin_name8 $end
$var wire 1 ) pin_name9 $end
$var wire 1 * pin_name10 $end
$var wire 1 + sampler $end
$scope module i1 $end
$var wire 1 , gnd $end
$var wire 1 - vcc $end
$var wire 1 . unknown $end
$var tri1 1 / devclrn $end
$var tri1 1 0 devpor $end
$var tri1 1 1 devoe $end
$var wire 1 2 inst|92~combout $end
$var wire 1 3 inst|51~0_combout $end
$var wire 1 4 inst1|94~combout $end
$var wire 1 5 inst|27~combout $end
$var wire 1 6 inst1|51~0_combout $end
$var wire 1 7 inst1|91~combout $end
$var wire 1 8 inst|91~combout $end
$var wire 1 9 inst|28~combout $end
$var wire 1 : inst1|93~combout $end
$var wire 1 ; inst1|92~combout $end
$var wire 1 < pin_name2~combout $end
$var wire 1 = inst|94~combout $end
$var wire 1 > inst|26~0_combout $end
$var wire 1 ? inst1|26~0_combout $end
$var wire 1 @ inst1|26~regout $end
$var wire 1 A inst1|23~0_combout $end
$var wire 1 B inst1|23~regout $end
$var wire 1 C inst|55~0_combout $end
$var wire 1 D inst|23~1_combout $end
$var wire 1 E inst1|24~1_combout $end
$var wire 1 F inst|23~0_combout $end
$var wire 1 G inst1|24~_emulated_regout $end
$var wire 1 H inst1|24~0_combout $end
$var wire 1 I inst8~0_combout $end
$var wire 1 J pin_name3~combout $end
$var wire 1 K inst9~combout $end
$var wire 1 L inst|23~3_combout $end
$var wire 1 M inst|23~_emulated_regout $end
$var wire 1 N inst|23~2_combout $end
$var wire 1 O inst|24~0_combout $end
$var wire 1 P inst|24~regout $end
$var wire 1 Q inst1|22~0_combout $end
$var wire 1 R pin_name1~combout $end
$var wire 1 S inst|50~0_combout $end
$var wire 1 T inst1|22~1_combout $end
$var wire 1 U inst|85~combout $end
$var wire 1 V inst|26~regout $end
$var wire 1 W inst10~combout $end
$var wire 1 X inst3~combout $end
$var wire 1 Y inst|93~combout $end
$var wire 1 Z inst|25~0_combout $end
$var wire 1 [ inst|25~regout $end
$var wire 1 \ inst1|25~1_combout $end
$var wire 1 ] inst1|25~_emulated_regout $end
$var wire 1 ^ inst1|25~0_combout $end
$upscope $end
$upscope $end
$enddefinitions $end
#0
$dumpvars
1!
0"
1#
x$
x%
x&
x'
x(
x)
x*
x+
0,
1-
x.
1/
10
11
x2
x3
x4
x5
x6
x7
x8
x9
x:
x;
0<
x=
x>
x?
x@
xA
xB
xC
xD
xE
xF
xG
xH
xI
1J
xK
xL
xM
xN
xO
xP
xQ
1R
xS
xT
xU
xV
xW
xX
xY
xZ
x[
x\
x]
x^
$end
#218
0@
0B
0G
0M
0P
0V
0[
0]
#541
1Z
1>
1O
1A
1?
#801
1=
0W
0X
#815
05
#907
0I
#924
0S
#1033
03
#1063
12
#1125
06
#1326
0Y
#1344
09
#1345
0T
#1616
14
#1670
18
#1893
17
#2027
0:
#2079
0C
#2261
1;
#3667
0(
#3860
0%
#3871
0$
#3901
0&
#5074
1K
#5490
1F
#5493
1U
#5936
0N
#6069
0D
#6206
0H
#6210
0^
#6750
1L
#7151
1E
#7327
1\
#7356
1Q
#9342
0'
#9815
0*
#9854
0)
#10000
1"
0+
#10959
1<
#11760
0=
1W
#11883
1S
#12022
02
#12285
1Y
#12303
19
#12304
1T
#12575
04
#12629
08
#12852
07
#12986
1:
#13220
0;
#20000
0"
1+
#20959
0<
#21760
1=
0W
#21883
0S
#22022
12
#22285
0Y
#22303
09
#22304
0T
#22575
14
#22629
18
#22852
17
#22986
0:
#23220
1;
#30000
1"
0+
#30959
1<
#31760
0=
1W
#31883
1S
#32022
02
#32285
1Y
#32303
19
#32304
1T
#32575
04
#32629
08
#32852
07
#32986
1:
#33220
0;
#40000
0"
1+
#40959
0<
#41760
1=
0W
#41883
0S
#42022
12
#42285
0Y
#42303
09
#42304
0T
#42575
14
#42629
18
#42852
17
#42986
0:
#43220
1;
#50000
0#
1"
0+
#50810
0J
#50959
1<
#51760
0=
1W
#51883
1S
#52022
02
#52285
1Y
#52303
19
#52304
1T
#52575
04
#52629
08
#52852
07
#52986
1:
#53220
0;
#55884
0K
#56300
0F
#56746
1C
#57459
1D
#57482
1F
#57648
1H
#57649
1^
#57724
1N
#58074
0E
#58342
1;
#58453
09
#58541
1E
#58620
14
#58795
0Q
#59136
0:
#59254
0T
#59796
0U
#59802
17
#59988
0C
#60000
0"
1+
#60724
0F
#60959
0<
#61130
1'
#61257
1*
#61293
1)
#61760
1=
0W
#61883
0S
#62022
12
#62285
0Y
#62629
18
#62775
1V
#63041
1P
#63098
0>
#63364
0O
#63464
1I
#63718
1[
#63846
1M
#64041
0Z
#64166
1K
#64303
0N
#64582
1F
#64585
1U
#64841
0L
#65161
0D
#65298
0H
#65302
0^
#65364
0I
#65724
0E
#65801
0P
0V
#65842
1L
#66024
0M
#66066
0K
#66124
1>
1O
#66243
1E
#66409
1Q
#66428
1$
#66482
0F
#66485
0U
#66569
0[
#66892
1Z
#67360
1%
#67709
0'
#68907
0*
#68946
0)
#69454
0$
#70000
1"
0+
#70211
0%
#70959
1<
#71760
0=
1W
#71883
1S
#72022
02
#72285
1Y
#72303
19
#72304
1T
#72575
04
#72629
08
#72846
1U
#72852
07
#72986
1:
#73038
1C
#73220
0;
#73751
1D
#73774
1F
#73940
1H
#73941
1^
#74016
1N
#74366
0E
#74634
1;
#74745
09
#74833
1E
#74912
14
#75087
0Q
#75428
0:
#75546
0T
#76088
0U
#76094
17
#76280
0C
#77016
0F
#77422
1'
#77549
1*
#77585
1)
#80000
0"
1+
#80959
0<
#81760
1=
0W
#81883
0S
#82022
12
#82285
0Y
#82629
18
#82775
1V
#83041
1P
#83098
0>
#83364
0O
#83464
1I
#83718
1[
#83846
1M
#84041
0Z
#84166
1K
#84303
0N
#84582
1F
#84585
1U
#84841
0L
#85161
0D
#85298
0H
#85302
0^
#85364
0I
#85724
0E
#85801
0P
0V
#85842
1L
#86024
0M
#86066
0K
#86124
1>
1O
#86243
1E
#86409
1Q
#86428
1$
#86482
0F
#86485
0U
#86569
0[
#86892
1Z
#87360
1%
#87709
0'
#88907
0*
#88946
0)
#89454
0$
#90000
1"
0+
#90211
0%
#90959
1<
#91760
0=
1W
#91883
1S
#92022
02
#92285
1Y
#92303
19
#92304
1T
#92575
04
#92629
08
#92846
1U
#92852
07
#92986
1:
#93038
1C
#93220
0;
#93751
1D
#93774
1F
#93940
1H
#93941
1^
#94016
1N
#94366
0E
#94634
1;
#94745
09
#94833
1E
#94912
14
#95087
0Q
#95428
0:
#95546
0T
#96088
0U
#96094
17
#96280
0C
#97016
0F
#97422
1'
#97549
1*
#97585
1)
#100000
0"
1+
#100959
0<
#101760
1=
0W
#101883
0S
#102022
12
#102285
0Y
#102629
18
#102775
1V
#103041
1P
#103098
0>
#103364
0O
#103464
1I
#103718
1[
#103846
1M
#104041
0Z
#104166
1K
#104303
0N
#104582
1F
#104585
1U
#104841
0L
#105161
0D
#105298
0H
#105302
0^
#105364
0I
#105724
0E
#105801
0P
0V
#105842
1L
#106024
0M
#106066
0K
#106124
1>
1O
#106243
1E
#106409
1Q
#106428
1$
#106482
0F
#106485
0U
#106569
0[
#106892
1Z
#107360
1%
#107709
0'
#108907
0*
#108946
0)
#109454
0$
#110000
1"
0+
#110211
0%
#110959
1<
#111760
0=
1W
#111883
1S
#112022
02
#112285
1Y
#112303
19
#112304
1T
#112575
04
#112629
08
#112846
1U
#112852
07
#112986
1:
#113038
1C
#113220
0;
#113751
1D
#113774
1F
#113940
1H
#113941
1^
#114016
1N
#114366
0E
#114634
1;
#114745
09
#114833
1E
#114912
14
#115087
0Q
#115428
0:
#115546
0T
#116088
0U
#116094
17
#116280
0C
#117016
0F
#117422
1'
#117549
1*
#117585
1)
#120000
0"
1+
#120959
0<
#121760
1=
0W
#121883
0S
#122022
12
#122285
0Y
#122629
18
#122775
1V
#123041
1P
#123098
0>
#123364
0O
#123464
1I
#123718
1[
#123846
1M
#124041
0Z
#124166
1K
#124303
0N
#124582
1F
#124585
1U
#124841
0L
#125161
0D
#125298
0H
#125302
0^
#125364
0I
#125724
0E
#125801
0P
0V
#125842
1L
#126024
0M
#126066
0K
#126124
1>
1O
#126243
1E
#126409
1Q
#126428
1$
#126482
0F
#126485
0U
#126569
0[
#126892
1Z
#127360
1%
#127709
0'
#128907
0*
#128946
0)
#129454
0$
#130000
1"
0+
#130211
0%
#130959
1<
#131760
0=
1W
#131883
1S
#132022
02
#132285
1Y
#132303
19
#132304
1T
#132575
04
#132629
08
#132846
1U
#132852
07
#132986
1:
#133038
1C
#133220
0;
#133751
1D
#133774
1F
#133940
1H
#133941
1^
#134016
1N
#134366
0E
#134634
1;
#134745
09
#134833
1E
#134912
14
#135087
0Q
#135428
0:
#135546
0T
#136088
0U
#136094
17
#136280
0C
#137016
0F
#137422
1'
#137549
1*
#137585
1)
#140000
0"
1+
#140959
0<
#141760
1=
0W
#141883
0S
#142022
12
#142285
0Y
#142629
18
#142775
1V
#143041
1P
#143098
0>
#143364
0O
#143464
1I
#143718
1[
#143846
1M
#144041
0Z
#144166
1K
#144303
0N
#144582
1F
#144585
1U
#144841
0L
#145161
0D
#145298
0H
#145302
0^
#145364
0I
#145724
0E
#145801
0P
0V
#145842
1L
#146024
0M
#146066
0K
#146124
1>
1O
#146243
1E
#146409
1Q
#146428
1$
#146482
0F
#146485
0U
#146569
0[
#146892
1Z
#147360
1%
#147709
0'
#148907
0*
#148946
0)
#149454
0$
#150000
1"
0+
#150211
0%
#150959
1<
#151760
0=
1W
#151883
1S
#152022
02
#152285
1Y
#152303
19
#152304
1T
#152575
04
#152629
08
#152846
1U
#152852
07
#152986
1:
#153038
1C
#153220
0;
#153751
1D
#153774
1F
#153940
1H
#153941
1^
#154016
1N
#154366
0E
#154634
1;
#154745
09
#154833
1E
#154912
14
#155087
0Q
#155428
0:
#155546
0T
#156088
0U
#156094
17
#156280
0C
#157016
0F
#157422
1'
#157549
1*
#157585
1)
#160000
0"
1+
#160959
0<
#161760
1=
0W
#161883
0S
#162022
12
#162285
0Y
#162629
18
#162775
1V
#163041
1P
#163098
0>
#163364
0O
#163464
1I
#163718
1[
#163846
1M
#164041
0Z
#164166
1K
#164303
0N
#164582
1F
#164585
1U
#164841
0L
#165161
0D
#165298
0H
#165302
0^
#165364
0I
#165724
0E
#165801
0P
0V
#165842
1L
#166024
0M
#166066
0K
#166124
1>
1O
#166243
1E
#166409
1Q
#166428
1$
#166482
0F
#166485
0U
#166569
0[
#166892
1Z
#167360
1%
#167709
0'
#168907
0*
#168946
0)
#169454
0$
#170000
1"
0+
#170211
0%
#170959
1<
#171760
0=
1W
#171883
1S
#172022
02
#172285
1Y
#172303
19
#172304
1T
#172575
04
#172629
08
#172846
1U
#172852
07
#172986
1:
#173038
1C
#173220
0;
#173751
1D
#173774
1F
#173940
1H
#173941
1^
#174016
1N
#174366
0E
#174634
1;
#174745
09
#174833
1E
#174912
14
#175087
0Q
#175428
0:
#175546
0T
#176088
0U
#176094
17
#176280
0C
#177016
0F
#177422
1'
#177549
1*
#177585
1)
#180000
0"
1+
#180959
0<
#181760
1=
0W
#181883
0S
#182022
12
#182285
0Y
#182629
18
#182775
1V
#183041
1P
#183098
0>
#183364
0O
#183464
1I
#183718
1[
#183846
1M
#184041
0Z
#184166
1K
#184303
0N
#184582
1F
#184585
1U
#184841
0L
#185161
0D
#185298
0H
#185302
0^
#185364
0I
#185724
0E
#185801
0P
0V
#185842
1L
#186024
0M
#186066
0K
#186124
1>
1O
#186243
1E
#186409
1Q
#186428
1$
#186482
0F
#186485
0U
#186569
0[
#186892
1Z
#187360
1%
#187709
0'
#188907
0*
#188946
0)
#189454
0$
#190000
1"
0+
#190211
0%
#190959
1<
#191760
0=
1W
#191883
1S
#192022
02
#192285
1Y
#192303
19
#192304
1T
#192575
04
#192629
08
#192846
1U
#192852
07
#192986
1:
#193038
1C
#193220
0;
#193751
1D
#193774
1F
#193940
1H
#193941
1^
#194016
1N
#194366
0E
#194634
1;
#194745
09
#194833
1E
#194912
14
#195087
0Q
#195428
0:
#195546
0T
#196088
0U
#196094
17
#196280
0C
#197016
0F
#197422
1'
#197549
1*
#197585
1)
#200000
0"
1+
#200959
0<
#201760
1=
0W
#201883
0S
#202022
12
#202285
0Y
#202629
18
#202775
1V
#203041
1P
#203098
0>
#203364
0O
#203464
1I
#203718
1[
#203846
1M
#204041
0Z
#204166
1K
#204303
0N
#204582
1F
#204585
1U
#204841
0L
#205161
0D
#205298
0H
#205302
0^
#205364
0I
#205724
0E
#205801
0P
0V
#205842
1L
#206024
0M
#206066
0K
#206124
1>
1O
#206243
1E
#206409
1Q
#206428
1$
#206482
0F
#206485
0U
#206569
0[
#206892
1Z
#207360
1%
#207709
0'
#208907
0*
#208946
0)
#209454
0$
#210000
1"
0+
#210211
0%
#210959
1<
#211760
0=
1W
#211883
1S
#212022
02
#212285
1Y
#212303
19
#212304
1T
#212575
04
#212629
08
#212846
1U
#212852
07
#212986
1:
#213038
1C
#213220
0;
#213751
1D
#213774
1F
#213940
1H
#213941
1^
#214016
1N
#214366
0E
#214634
1;
#214745
09
#214833
1E
#214912
14
#215087
0Q
#215428
0:
#215546
0T
#216088
0U
#216094
17
#216280
0C
#217016
0F
#217422
1'
#217549
1*
#217585
1)
#220000
0"
1+
#220959
0<
#221760
1=
0W
#221883
0S
#222022
12
#222285
0Y
#222629
18
#222775
1V
#223041
1P
#223098
0>
#223364
0O
#223464
1I
#223718
1[
#223846
1M
#224041
0Z
#224166
1K
#224303
0N
#224582
1F
#224585
1U
#224841
0L
#225161
0D
#225298
0H
#225302
0^
#225364
0I
#225724
0E
#225801
0P
0V
#225842
1L
#226024
0M
#226066
0K
#226124
1>
1O
#226243
1E
#226409
1Q
#226428
1$
#226482
0F
#226485
0U
#226569
0[
#226892
1Z
#227360
1%
#227709
0'
#228907
0*
#228946
0)
#229454
0$
#230000
1"
0+
#230211
0%
#230959
1<
#231760
0=
1W
#231883
1S
#232022
02
#232285
1Y
#232303
19
#232304
1T
#232575
04
#232629
08
#232846
1U
#232852
07
#232986
1:
#233038
1C
#233220
0;
#233751
1D
#233774
1F
#233940
1H
#233941
1^
#234016
1N
#234366
0E
#234634
1;
#234745
09
#234833
1E
#234912
14
#235087
0Q
#235428
0:
#235546
0T
#236088
0U
#236094
17
#236280
0C
#237016
0F
#237422
1'
#237549
1*
#237585
1)
#240000
0"
1+
#240959
0<
#241760
1=
0W
#241883
0S
#242022
12
#242285
0Y
#242629
18
#242775
1V
#243041
1P
#243098
0>
#243364
0O
#243464
1I
#243718
1[
#243846
1M
#244041
0Z
#244166
1K
#244303
0N
#244582
1F
#244585
1U
#244841
0L
#245161
0D
#245298
0H
#245302
0^
#245364
0I
#245724
0E
#245801
0P
0V
#245842
1L
#246024
0M
#246066
0K
#246124
1>
1O
#246243
1E
#246409
1Q
#246428
1$
#246482
0F
#246485
0U
#246569
0[
#246892
1Z
#247360
1%
#247709
0'
#248907
0*
#248946
0)
#249454
0$
#250000
1"
0+
#250211
0%
#250959
1<
#251760
0=
1W
#251883
1S
#252022
02
#252285
1Y
#252303
19
#252304
1T
#252575
04
#252629
08
#252846
1U
#252852
07
#252986
1:
#253038
1C
#253220
0;
#253751
1D
#253774
1F
#253940
1H
#253941
1^
#254016
1N
#254366
0E
#254634
1;
#254745
09
#254833
1E
#254912
14
#255087
0Q
#255428
0:
#255546
0T
#256088
0U
#256094
17
#256280
0C
#257016
0F
#257422
1'
#257549
1*
#257585
1)
#260000
0"
1+
#260959
0<
#261760
1=
0W
#261883
0S
#262022
12
#262285
0Y
#262629
18
#262775
1V
#263041
1P
#263098
0>
#263364
0O
#263464
1I
#263718
1[
#263846
1M
#264041
0Z
#264166
1K
#264303
0N
#264582
1F
#264585
1U
#264841
0L
#265161
0D
#265298
0H
#265302
0^
#265364
0I
#265724
0E
#265801
0P
0V
#265842
1L
#266024
0M
#266066
0K
#266124
1>
1O
#266243
1E
#266409
1Q
#266428
1$
#266482
0F
#266485
0U
#266569
0[
#266892
1Z
#267360
1%
#267709
0'
#268907
0*
#268946
0)
#269454
0$
#270000
1"
0+
#270211
0%
#270959
1<
#271760
0=
1W
#271883
1S
#272022
02
#272285
1Y
#272303
19
#272304
1T
#272575
04
#272629
08
#272846
1U
#272852
07
#272986
1:
#273038
1C
#273220
0;
#273751
1D
#273774
1F
#273940
1H
#273941
1^
#274016
1N
#274366
0E
#274634
1;
#274745
09
#274833
1E
#274912
14
#275087
0Q
#275428
0:
#275546
0T
#276088
0U
#276094
17
#276280
0C
#277016
0F
#277422
1'
#277549
1*
#277585
1)
#280000
0"
1+
#280959
0<
#281760
1=
0W
#281883
0S
#282022
12
#282285
0Y
#282629
18
#282775
1V
#283041
1P
#283098
0>
#283364
0O
#283464
1I
#283718
1[
#283846
1M
#284041
0Z
#284166
1K
#284303
0N
#284582
1F
#284585
1U
#284841
0L
#285161
0D
#285298
0H
#285302
0^
#285364
0I
#285724
0E
#285801
0P
0V
#285842
1L
#286024
0M
#286066
0K
#286124
1>
1O
#286243
1E
#286409
1Q
#286428
1$
#286482
0F
#286485
0U
#286569
0[
#286892
1Z
#287360
1%
#287709
0'
#288907
0*
#288946
0)
#289454
0$
#290000
1"
0+
#290211
0%
#290959
1<
#291760
0=
1W
#291883
1S
#292022
02
#292285
1Y
#292303
19
#292304
1T
#292575
04
#292629
08
#292846
1U
#292852
07
#292986
1:
#293038
1C
#293220
0;
#293751
1D
#293774
1F
#293940
1H
#293941
1^
#294016
1N
#294366
0E
#294634
1;
#294745
09
#294833
1E
#294912
14
#295087
0Q
#295428
0:
#295546
0T
#296088
0U
#296094
17
#296280
0C
#297016
0F
#297422
1'
#297549
1*
#297585
1)
#300000
0"
1+
#300959
0<
#301760
1=
0W
#301883
0S
#302022
12
#302285
0Y
#302629
18
#302775
1V
#303041
1P
#303098
0>
#303364
0O
#303464
1I
#303718
1[
#303846
1M
#304041
0Z
#304166
1K
#304303
0N
#304582
1F
#304585
1U
#304841
0L
#305161
0D
#305298
0H
#305302
0^
#305364
0I
#305724
0E
#305801
0P
0V
#305842
1L
#306024
0M
#306066
0K
#306124
1>
1O
#306243
1E
#306409
1Q
#306428
1$
#306482
0F
#306485
0U
#306569
0[
#306892
1Z
#307360
1%
#307709
0'
#308907
0*
#308946
0)
#309454
0$
#310000
1"
0+
#310211
0%
#310959
1<
#311760
0=
1W
#311883
1S
#312022
02
#312285
1Y
#312303
19
#312304
1T
#312575
04
#312629
08
#312846
1U
#312852
07
#312986
1:
#313038
1C
#313220
0;
#313751
1D
#313774
1F
#313940
1H
#313941
1^
#314016
1N
#314366
0E
#314634
1;
#314745
09
#314833
1E
#314912
14
#315087
0Q
#315428
0:
#315546
0T
#316088
0U
#316094
17
#316280
0C
#317016
0F
#317422
1'
#317549
1*
#317585
1)
#320000
0"
1+
#320959
0<
#321760
1=
0W
#321883
0S
#322022
12
#322285
0Y
#322629
18
#322775
1V
#323041
1P
#323098
0>
#323364
0O
#323464
1I
#323718
1[
#323846
1M
#324041
0Z
#324166
1K
#324303
0N
#324582
1F
#324585
1U
#324841
0L
#325161
0D
#325298
0H
#325302
0^
#325364
0I
#325724
0E
#325801
0P
0V
#325842
1L
#326024
0M
#326066
0K
#326124
1>
1O
#326243
1E
#326409
1Q
#326428
1$
#326482
0F
#326485
0U
#326569
0[
#326892
1Z
#327360
1%
#327709
0'
#328907
0*
#328946
0)
#329454
0$
#330000
1"
0+
#330211
0%
#330959
1<
#331760
0=
1W
#331883
1S
#332022
02
#332285
1Y
#332303
19
#332304
1T
#332575
04
#332629
08
#332846
1U
#332852
07
#332986
1:
#333038
1C
#333220
0;
#333751
1D
#333774
1F
#333940
1H
#333941
1^
#334016
1N
#334366
0E
#334634
1;
#334745
09
#334833
1E
#334912
14
#335087
0Q
#335428
0:
#335546
0T
#336088
0U
#336094
17
#336280
0C
#337016
0F
#337422
1'
#337549
1*
#337585
1)
#340000
0"
1+
#340959
0<
#341760
1=
0W
#341883
0S
#342022
12
#342285
0Y
#342629
18
#342775
1V
#343041
1P
#343098
0>
#343364
0O
#343464
1I
#343718
1[
#343846
1M
#344041
0Z
#344166
1K
#344303
0N
#344582
1F
#344585
1U
#344841
0L
#345161
0D
#345298
0H
#345302
0^
#345364
0I
#345724
0E
#345801
0P
0V
#345842
1L
#346024
0M
#346066
0K
#346124
1>
1O
#346243
1E
#346409
1Q
#346428
1$
#346482
0F
#346485
0U
#346569
0[
#346892
1Z
#347360
1%
#347709
0'
#348907
0*
#348946
0)
#349454
0$
#350000
1"
0+
#350211
0%
#350959
1<
#351760
0=
1W
#351883
1S
#352022
02
#352285
1Y
#352303
19
#352304
1T
#352575
04
#352629
08
#352846
1U
#352852
07
#352986
1:
#353038
1C
#353220
0;
#353751
1D
#353774
1F
#353940
1H
#353941
1^
#354016
1N
#354366
0E
#354634
1;
#354745
09
#354833
1E
#354912
14
#355087
0Q
#355428
0:
#355546
0T
#356088
0U
#356094
17
#356280
0C
#357016
0F
#357422
1'
#357549
1*
#357585
1)
#360000
0"
1+
#360959
0<
#361760
1=
0W
#361883
0S
#362022
12
#362285
0Y
#362629
18
#362775
1V
#363041
1P
#363098
0>
#363364
0O
#363464
1I
#363718
1[
#363846
1M
#364041
0Z
#364166
1K
#364303
0N
#364582
1F
#364585
1U
#364841
0L
#365161
0D
#365298
0H
#365302
0^
#365364
0I
#365724
0E
#365801
0P
0V
#365842
1L
#366024
0M
#366066
0K
#366124
1>
1O
#366243
1E
#366409
1Q
#366428
1$
#366482
0F
#366485
0U
#366569
0[
#366892
1Z
#367360
1%
#367709
0'
#368907
0*
#368946
0)
#369454
0$
#370000
1"
0+
#370211
0%
#370959
1<
#371760
0=
1W
#371883
1S
#372022
02
#372285
1Y
#372303
19
#372304
1T
#372575
04
#372629
08
#372846
1U
#372852
07
#372986
1:
#373038
1C
#373220
0;
#373751
1D
#373774
1F
#373940
1H
#373941
1^
#374016
1N
#374366
0E
#374634
1;
#374745
09
#374833
1E
#374912
14
#375087
0Q
#375428
0:
#375546
0T
#376088
0U
#376094
17
#376280
0C
#377016
0F
#377422
1'
#377549
1*
#377585
1)
#380000
0"
1+
#380959
0<
#381760
1=
0W
#381883
0S
#382022
12
#382285
0Y
#382629
18
#382775
1V
#383041
1P
#383098
0>
#383364
0O
#383464
1I
#383718
1[
#383846
1M
#384041
0Z
#384166
1K
#384303
0N
#384582
1F
#384585
1U
#384841
0L
#385161
0D
#385298
0H
#385302
0^
#385364
0I
#385724
0E
#385801
0P
0V
#385842
1L
#386024
0M
#386066
0K
#386124
1>
1O
#386243
1E
#386409
1Q
#386428
1$
#386482
0F
#386485
0U
#386569
0[
#386892
1Z
#387360
1%
#387709
0'
#388907
0*
#388946
0)
#389454
0$
#390000
1"
0+
#390211
0%
#390959
1<
#391760
0=
1W
#391883
1S
#392022
02
#392285
1Y
#392303
19
#392304
1T
#392575
04
#392629
08
#392846
1U
#392852
07
#392986
1:
#393038
1C
#393220
0;
#393751
1D
#393774
1F
#393940
1H
#393941
1^
#394016
1N
#394366
0E
#394634
1;
#394745
09
#394833
1E
#394912
14
#395087
0Q
#395428
0:
#395546
0T
#396088
0U
#396094
17
#396280
0C
#397016
0F
#397422
1'
#397549
1*
#397585
1)
#400000
0"
1+
#400959
0<
#401760
1=
0W
#401883
0S
#402022
12
#402285
0Y
#402629
18
#402775
1V
#403041
1P
#403098
0>
#403364
0O
#403464
1I
#403718
1[
#403846
1M
#404041
0Z
#404166
1K
#404303
0N
#404582
1F
#404585
1U
#404841
0L
#405161
0D
#405298
0H
#405302
0^
#405364
0I
#405724
0E
#405801
0P
0V
#405842
1L
#406024
0M
#406066
0K
#406124
1>
1O
#406243
1E
#406409
1Q
#406428
1$
#406482
0F
#406485
0U
#406569
0[
#406892
1Z
#407360
1%
#407709
0'
#408907
0*
#408946
0)
#409454
0$
#410000
1"
0+
#410211
0%
#410959
1<
#411760
0=
1W
#411883
1S
#412022
02
#412285
1Y
#412303
19
#412304
1T
#412575
04
#412629
08
#412846
1U
#412852
07
#412986
1:
#413038
1C
#413220
0;
#413751
1D
#413774
1F
#413940
1H
#413941
1^
#414016
1N
#414366
0E
#414634
1;
#414745
09
#414833
1E
#414912
14
#415087
0Q
#415428
0:
#415546
0T
#416088
0U
#416094
17
#416280
0C
#417016
0F
#417422
1'
#417549
1*
#417585
1)
#420000
0"
1+
#420959
0<
#421760
1=
0W
#421883
0S
#422022
12
#422285
0Y
#422629
18
#422775
1V
#423041
1P
#423098
0>
#423364
0O
#423464
1I
#423718
1[
#423846
1M
#424041
0Z
#424166
1K
#424303
0N
#424582
1F
#424585
1U
#424841
0L
#425161
0D
#425298
0H
#425302
0^
#425364
0I
#425724
0E
#425801
0P
0V
#425842
1L
#426024
0M
#426066
0K
#426124
1>
1O
#426243
1E
#426409
1Q
#426428
1$
#426482
0F
#426485
0U
#426569
0[
#426892
1Z
#427360
1%
#427709
0'
#428907
0*
#428946
0)
#429454
0$
#430000
1"
0+
#430211
0%
#430959
1<
#431760
0=
1W
#431883
1S
#432022
02
#432285
1Y
#432303
19
#432304
1T
#432575
04
#432629
08
#432846
1U
#432852
07
#432986
1:
#433038
1C
#433220
0;
#433751
1D
#433774
1F
#433940
1H
#433941
1^
#434016
1N
#434366
0E
#434634
1;
#434745
09
#434833
1E
#434912
14
#435087
0Q
#435428
0:
#435546
0T
#436088
0U
#436094
17
#436280
0C
#437016
0F
#437422
1'
#437549
1*
#437585
1)
#440000
0"
1+
#440959
0<
#441760
1=
0W
#441883
0S
#442022
12
#442285
0Y
#442629
18
#442775
1V
#443041
1P
#443098
0>
#443364
0O
#443464
1I
#443718
1[
#443846
1M
#444041
0Z
#444166
1K
#444303
0N
#444582
1F
#444585
1U
#444841
0L
#445161
0D
#445298
0H
#445302
0^
#445364
0I
#445724
0E
#445801
0P
0V
#445842
1L
#446024
0M
#446066
0K
#446124
1>
1O
#446243
1E
#446409
1Q
#446428
1$
#446482
0F
#446485
0U
#446569
0[
#446892
1Z
#447360
1%
#447709
0'
#448907
0*
#448946
0)
#449454
0$
#450000
1"
0+
#450211
0%
#450959
1<
#451760
0=
1W
#451883
1S
#452022
02
#452285
1Y
#452303
19
#452304
1T
#452575
04
#452629
08
#452846
1U
#452852
07
#452986
1:
#453038
1C
#453220
0;
#453751
1D
#453774
1F
#453940
1H
#453941
1^
#454016
1N
#454366
0E
#454634
1;
#454745
09
#454833
1E
#454912
14
#455087
0Q
#455428
0:
#455546
0T
#456088
0U
#456094
17
#456280
0C
#457016
0F
#457422
1'
#457549
1*
#457585
1)
#460000
0"
1+
#460959
0<
#461760
1=
0W
#461883
0S
#462022
12
#462285
0Y
#462629
18
#462775
1V
#463041
1P
#463098
0>
#463364
0O
#463464
1I
#463718
1[
#463846
1M
#464041
0Z
#464166
1K
#464303
0N
#464582
1F
#464585
1U
#464841
0L
#465161
0D
#465298
0H
#465302
0^
#465364
0I
#465724
0E
#465801
0P
0V
#465842
1L
#466024
0M
#466066
0K
#466124
1>
1O
#466243
1E
#466409
1Q
#466428
1$
#466482
0F
#466485
0U
#466569
0[
#466892
1Z
#467360
1%
#467709
0'
#468907
0*
#468946
0)
#469454
0$
#470000
1"
0+
#470211
0%
#470959
1<
#471760
0=
1W
#471883
1S
#472022
02
#472285
1Y
#472303
19
#472304
1T
#472575
04
#472629
08
#472846
1U
#472852
07
#472986
1:
#473038
1C
#473220
0;
#473751
1D
#473774
1F
#473940
1H
#473941
1^
#474016
1N
#474366
0E
#474634
1;
#474745
09
#474833
1E
#474912
14
#475087
0Q
#475428
0:
#475546
0T
#476088
0U
#476094
17
#476280
0C
#477016
0F
#477422
1'
#477549
1*
#477585
1)
#480000
0"
1+
#480959
0<
#481760
1=
0W
#481883
0S
#482022
12
#482285
0Y
#482629
18
#482775
1V
#483041
1P
#483098
0>
#483364
0O
#483464
1I
#483718
1[
#483846
1M
#484041
0Z
#484166
1K
#484303
0N
#484582
1F
#484585
1U
#484841
0L
#485161
0D
#485298
0H
#485302
0^
#485364
0I
#485724
0E
#485801
0P
0V
#485842
1L
#486024
0M
#486066
0K
#486124
1>
1O
#486243
1E
#486409
1Q
#486428
1$
#486482
0F
#486485
0U
#486569
0[
#486892
1Z
#487360
1%
#487709
0'
#488907
0*
#488946
0)
#489454
0$
#490000
1"
0+
#490211
0%
#490959
1<
#491760
0=
1W
#491883
1S
#492022
02
#492285
1Y
#492303
19
#492304
1T
#492575
04
#492629
08
#492846
1U
#492852
07
#492986
1:
#493038
1C
#493220
0;
#493751
1D
#493774
1F
#493940
1H
#493941
1^
#494016
1N
#494366
0E
#494634
1;
#494745
09
#494833
1E
#494912
14
#495087
0Q
#495428
0:
#495546
0T
#496088
0U
#496094
17
#496280
0C
#497016
0F
#497422
1'
#497549
1*
#497585
1)
#500000
0"
1+
#500959
0<
#501760
1=
0W
#501883
0S
#502022
12
#502285
0Y
#502629
18
#502775
1V
#503041
1P
#503098
0>
#503364
0O
#503464
1I
#503718
1[
#503846
1M
#504041
0Z
#504166
1K
#504303
0N
#504582
1F
#504585
1U
#504841
0L
#505161
0D
#505298
0H
#505302
0^
#505364
0I
#505724
0E
#505801
0P
0V
#505842
1L
#506024
0M
