lab03/licznik74161/simulation/qsim/licznik74161.msim.vcd
$comment
	File created using the following command:
		vcd file licznik74161.msim.vcd -direction
$end
$date
	Wed Dec 14 21:55:10 2016
$end
$version
	ModelSim Version 10.1d
$end
$timescale
	1ps
$end
$scope module licznik74161_vlg_vec_tst $end
$var reg 1 ! pin_name1 $end
$var reg 1 " pin_name2 $end
$var wire 1 # pin_name3 $end
$var wire 1 $ pin_name4 $end
$var wire 1 % pin_name5 $end
$var wire 1 & pin_name6 $end
$var wire 1 ' pin_name7 $end
$var wire 1 ( pin_name8 $end
$var wire 1 ) pin_name9 $end
$var wire 1 * sampler $end
$scope module i1 $end
$var wire 1 + gnd $end
$var wire 1 , vcc $end
$var wire 1 - unknown $end
$var tri1 1 . devclrn $end
$var tri1 1 / devpor $end
$var tri1 1 0 devoe $end
$var wire 1 1 inst|sub|104~combout $end
$var wire 1 2 inst|sub|104~clkctrl_outclk $end
$var wire 1 3 pin_name1~combout $end
$var wire 1 4 inst|sub|9~0_combout $end
$var wire 1 5 pin_name2~combout $end
$var wire 1 6 inst1|sub|9~0_combout $end
$var wire 1 7 inst1|sub|9~regout $end
$var wire 1 8 inst1|sub|99~0_combout $end
$var wire 1 9 inst1|sub|99~feeder_combout $end
$var wire 1 : inst1|sub|99~regout $end
$var wire 1 ; inst1|sub|87~0_combout $end
$var wire 1 < inst1|sub|87~feeder_combout $end
$var wire 1 = inst1|sub|87~regout $end
$var wire 1 > inst|sub|87~0_combout $end
$var wire 1 ? inst|sub|87~feeder_combout $end
$var wire 1 @ inst|sub|87~regout $end
$var wire 1 A inst|sub|99~0_combout $end
$var wire 1 B inst|sub|99~feeder_combout $end
$var wire 1 C inst|sub|99~regout $end
$var wire 1 D inst|sub|104~0_combout $end
$var wire 1 E inst|sub|110~0_combout $end
$var wire 1 F inst|sub|110~regout $end
$var wire 1 G inst5~0_combout $end
$var wire 1 H inst|sub|9~regout $end
$upscope $end
$upscope $end
$enddefinitions $end
#0
$dumpvars
0!
1"
0#
0$
0%
0&
0'
0(
0)
x*
0+
1,
x-
1.
1/
10
11
12
03
14
15
16
07
08
09
0:
0;
0<
0=
0>
0?
0@
0A
0B
0C
0D
0E
0F
0G
0H
$end
#10000
1!
13
0*
1H
1>
04
1#
1?
#20000
0!
03
1*
#30000
1!
13
0*
0H
1@
14
0#
1$
#40000
0!
03
1*
#50000
1!
13
0*
1H
1A
0>
04
1#
1B
0?
#60000
0!
03
1*
#70000
1!
13
0*
0H
1C
0@
14
0#
1%
0$
#80000
0!
03
1*
#90000
1!
13
0*
1H
1>
04
1#
1?
#100000
0!
03
1*
#110000
1!
13
0*
0H
1@
14
0#
1$
#120000
0!
03
1*
#130000
1!
13
0*
1H
1D
0A
0>
04
1#
1E
0B
0?
#140000
0!
03
1*
#150000
1!
13
0*
0H
1F
0C
0@
0D
14
0E
01
02
0#
1&
0%
0$
1E
11
12
17
1;
06
1'
1<
#160000
0!
03
1*
#170000
1!
13
0*
1H
1>
04
1#
1?
#180000
0!
03
1*
#190000
1!
13
0*
0H
1@
14
0#
1$
#200000
0!
03
1*
#210000
1!
13
0*
1H
1A
0>
04
1#
1B
0?
#220000
0!
03
1*
#230000
1!
13
0*
0H
1C
0@
14
0#
1%
0$
#240000
0!
03
1*
#250000
1!
13
0*
1H
1>
04
1#
1?
#260000
0!
03
1*
#270000
1!
13
0*
0H
1@
14
0#
1$
#280000
0!
03
1*
#290000
1!
13
0*
1H
1D
0A
0>
04
1#
0E
01
0B
0?
02
#300000
0!
03
1*
#310000
1!
13
0*
0H
0F
0C
0@
0D
14
1E
11
12
0#
0&
0%
0$
0E
1=
07
16
1(
0'
#320000
0!
03
1*
#330000
1!
13
0*
1H
1>
04
1#
1?
#340000
0!
03
1*
#350000
1!
13
0*
0H
1@
14
0#
1$
#360000
0!
03
1*
#370000
1!
13
0*
1H
1A
0>
04
1#
1B
0?
#380000
0!
03
1*
#390000
1!
13
0*
0H
1C
0@
14
0#
1%
0$
#400000
0!
03
1*
#410000
1!
13
0*
1H
1>
04
1#
1?
#420000
0!
03
1*
#430000
1!
13
0*
0H
1@
14
0#
1$
#440000
0!
03
1*
#450000
1!
13
0*
1H
1D
0A
0>
04
1#
1E
0B
0?
#460000
0!
03
1*
#470000
1!
13
0*
0H
1F
0C
0@
0D
14
0E
01
02
0#
1&
0%
0$
1E
11
12
17
0;
18
06
1'
0<
19
#480000
0!
03
1*
#490000
1!
13
0*
1H
1>
04
1#
1?
#500000
0!
03
1*
#510000
1!
13
0*
0H
1@
14
0#
1$
#520000
0!
03
1*
#530000
1!
13
0*
1H
1A
0>
04
1#
1B
0?
#540000
0!
03
1*
#550000
1!
13
0*
0H
1C
0@
14
0#
1%
0$
#560000
0!
03
1*
#570000
1!
13
0*
1H
1>
04
1#
1?
#580000
0!
03
1*
#590000
1!
13
0*
0H
1@
14
0#
1$
#600000
0!
03
1*
#610000
1!
13
0*
1H
1D
0A
0>
04
1#
0E
01
0B
0?
02
#620000
0!
03
1*
#630000
1!
13
0*
0H
0F
0C
0@
0D
14
1E
11
12
0#
0&
0%
0$
0E
0=
1:
07
16
0(
1)
0'
#640000
0!
03
1*
#650000
1!
13
0*
1H
1>
04
1#
1?
#660000
0!
03
1*
#670000
1!
13
0*
0H
1@
14
0#
1$
#680000
0!
03
1*
#690000
1!
13
0*
1H
1A
0>
04
1#
1B
0?
#700000
0!
03
1*
#710000
1!
13
0*
0H
1C
0@
14
0#
1%
0$
#720000
0!
03
1*
#730000
1!
13
0*
1H
1>
04
1#
1?
#740000
0!
03
1*
#750000
1!
13
0*
0H
1@
14
0#
1$
#760000
0!
03
1*
#770000
1!
13
0*
1H
1D
0A
0>
04
1#
1E
0B
0?
#780000
0!
03
1*
#790000
1!
13
0*
0H
1F
0C
0@
0D
14
0E
01
02
0#
1&
0%
0$
1E
11
12
17
1;
06
1'
1<
#800000
0!
03
1*
#810000
1!
13
0*
1H
1>
04
1#
1?
#820000
0!
03
1*
#830000
1!
13
0*
0H
1@
14
0#
1$
#840000
0!
03
1*
#850000
1!
13
0*
1H
1A
0>
04
1#
1B
0?
#860000
0!
03
1*
#870000
1!
13
0*
0H
1C
0@
14
0#
1%
0$
#880000
0!
03
1*
#890000
1!
13
0*
1H
1>
04
1#
1?
#900000
0!
03
1*
#910000
1!
13
0*
0H
1@
14
0#
1$
#920000
0!
03
1*
#930000
1!
13
0*
1H
1D
0A
0>
04
1#
0E
01
0B
0?
02
#940000
0!
03
1*
#950000
1!
13
0*
0H
0F
0C
0@
0D
14
1E
11
12
0#
0&
0%
0$
0E
1=
07
16
1(
0'
#960000
0!
03
1*
#970000
1!
13
0*
1H
1>
04
1#
1?
#980000
0!
03
1*
#990000
1!
13
0*
0H
1@
14
0#
1$
#1000000
0!
03
1*
#1010000
1!
13
0*
1H
1A
0>
04
1#
1B
0?
#1020000
0!
03
1*
#1030000
1!
13
0*
0H
1C
0@
14
0#
1%
0$
#1040000
0!
03
1*
#1050000
1!
13
0*
1H
1>
04
1#
1?
#1060000
0!
03
1*
#1070000
1!
13
0*
0H
1@
14
0#
1$
#1080000
0!
03
1*
#1090000
1!
13
0*
1H
1D
0A
0>
04
1#
1E
0B
0?
#1100000
0!
03
1*
#1110000
1!
13
0*
0H
1F
0C
0@
0D
14
0E
01
02
0#
1&
0%
0$
1E
11
12
17
0;
08
06
1'
0<
09
#1120000
0!
03
1*
#1130000
1!
13
0*
1H
1G
1>
04
1#
1?
0H
0F
0=
0:
07
0G
0>
14
0E
16
0#
0&
0(
0)
0'
0?
#1140000
0!
03
1*
#1150000
1!
13
0*
1H
1>
04
1#
1?
#1160000
0!
03
1*
#1170000
1!
13
0*
0H
1@
14
0#
1$
#1180000
0!
03
1*
#1190000
1!
13
0*
1H
1A
0>
04
1#
1B
0?
#1200000
0!
03
1*
#1210000
1!
13
0*
0H
1C
0@
14
0#
1%
0$
#1220000
0!
03
1*
#1230000
1!
13
0*
1H
1>
04
1#
1?
#1240000
0!
03
1*
#1250000
1!
13
0*
0H
1@
14
0#
1$
#1260000
0!
03
1*
#1270000
1!
13
0*
1H
1D
0A
0>
04
1#
1E
0B
0?
#1280000
0!
03
1*
#1290000
1!
13
0*
0H
1F
0C
0@
0D
14
0E
01
02
0#
1&
0%
0$
1E
11
12
17
1;
06
1'
1<
#1300000
0!
03
1*
#1310000
1!
13
0*
1H
1>
04
1#
1?
#1320000
0!
03
1*
#1330000
1!
13
0*
0H
1@
14
0#
1$
#1340000
0!
03
1*
#1350000
1!
13
0*
1H
1A
0>
04
1#
1B
0?
#1360000
0!
03
1*
#1370000
1!
13
0*
0H
1C
0@
14
0#
1%
0$
#1380000
0!
03
1*
#1390000
1!
13
0*
1H
1>
04
1#
1?
#1400000
0!
03
1*
#1410000
1!
13
0*
0H
1@
14
0#
1$
#1420000
0!
03
1*
#1430000
1!
13
0*
1H
1D
0A
0>
04
1#
0E
01
0B
0?
02
#1440000
0!
03
1*
#1450000
1!
13
0*
0H
0F
0C
0@
0D
14
1E
11
12
0#
0&
0%
0$
0E
1=
07
16
1(
0'
#1460000
0!
03
1*
#1470000
1!
13
0*
1H
1>
04
1#
1?
#1480000
0!
03
1*
#1490000
1!
13
0*
0H
1@
14
0#
1$
#1500000
0!
03
1*
#1510000
1!
13
0*
1H
1A
0>
04
1#
1B
0?
#1520000
0!
03
1*
#1530000
1!
13
0*
0H
1C
0@
14
0#
1%
0$
#1540000
0!
03
1*
#1550000
1!
13
0*
1H
1>
04
1#
1?
#1560000
0!
03
1*
#1570000
1!
13
0*
0H
1@
14
0#
1$
#1580000
0!
03
1*
#1590000
1!
13
0*
1H
1D
0A
0>
04
1#
1E
0B
0?
#1600000
0!
03
1*
#1610000
1!
13
0*
0H
1F
0C
0@
0D
14
0E
01
02
0#
1&
0%
0$
1E
11
12
17
0;
18
06
1'
0<
19
#1620000
0!
03
1*
#1630000
1!
13
0*
1H
1>
04
1#
1?
#1640000
0!
03
1*
#1650000
1!
13
0*
0H
1@
14
0#
1$
#1660000
0!
03
1*
#1670000
1!
13
0*
1H
1A
0>
04
1#
1B
0?
#1680000
0!
03
1*
#1690000
1!
13
0*
0H
1C
0@
14
0#
1%
0$
#1700000
0!
03
1*
#1710000
1!
13
0*
1H
1>
04
1#
1?
#1720000
0!
03
1*
#1730000
1!
13
0*
0H
1@
14
0#
1$
#1740000
0!
03
1*
#1750000
1!
13
0*
1H
1D
0A
0>
04
1#
0E
01
0B
0?
02
#1760000
0!
03
1*
#1770000
1!
13
0*
0H
0F
0C
0@
0D
14
1E
11
12
0#
0&
0%
0$
0E
0=
1:
07
16
0(
1)
0'
#1780000
0!
03
1*
#1790000
1!
13
0*
1H
1>
04
1#
1?
#1800000
0!
03
1*
#1810000
1!
13
0*
0H
1@
14
0#
1$
#1820000
0!
03
1*
#1830000
1!
13
0*
1H
1A
0>
04
1#
1B
0?
#1840000
0!
03
1*
#1850000
1!
13
0*
0H
1C
0@
14
0#
1%
0$
#1860000
0!
03
1*
#1870000
1!
13
0*
1H
1>
04
1#
1?
#1880000
0!
03
1*
#1890000
1!
13
0*
0H
1@
14
0#
1$
#1900000
0!
03
1*
#1910000
1!
13
0*
1H
1D
0A
0>
04
1#
1E
0B
0?
#1920000
0!
03
1*
#1930000
1!
13
0*
0H
1F
0C
0@
0D
14
0E
01
02
0#
1&
0%
0$
1E
11
12
17
1;
06
1'
1<
#1940000
0!
03
1*
#1950000
1!
13
0*
1H
1>
04
1#
1?
#1960000
0!
03
1*
#1970000
1!
13
0*
0H
1@
14
0#
1$
#1980000
0!
03
1*
#1990000
1!
13
0*
1H
1A
0>
04
1#
1B
0?
#2000000
0!
03
1*
#2010000
1!
13
0*
0H
1C
0@
14
0#
1%
0$
#2020000
0!
03
1*
#2030000
1!
13
0*
1H
1>
04
1#
1?
#2040000
0!
03
1*
#2050000
1!
13
0*
0H
1@
14
0#
1$
#2060000
0!
03
1*
#2070000
1!
13
0*
1H
1D
0A
0>
04
1#
0E
01
0B
0?
02
#2080000
0!
03
1*
#2090000
1!
13
0*
0H
0F
0C
0@
0D
14
1E
11
12
0#
0&
0%
0$
0E
1=
07
16
1(
0'
#2100000
0!
03
1*
#2110000
1!
13
0*
1H
1>
04
1#
1?
#2120000
0!
03
1*
#2130000
1!
13
0*
0H
1@
14
0#
1$
#2140000
0!
03
1*
#2150000
1!
13
0*
1H
1A
0>
04
1#
1B
0?
#2160000
0!
03
1*
#2170000
1!
13
0*
0H
1C
0@
14
0#
1%
0$
#2180000
0!
03
1*
#2190000
1!
13
0*
1H
1>
04
1#
1?
#2200000
0!
03
1*
#2210000
1!
13
0*
0H
1@
14
0#
1$
#2220000
0!
03
1*
#2230000
1!
13
0*
1H
1D
0A
0>
04
1#
1E
0B
0?
#2240000
0!
03
1*
#2250000
1!
13
0*
0H
1F
0C
0@
0D
14
0E
01
02
0#
1&
0%
0$
1E
11
12
17
0;
08
06
1'
0<
09
#2260000
0!
03
1*
#2270000
1!
13
0*
1H
1G
1>
04
1#
1?
0H
0F
0=
0:
07
0G
0>
14
0E
16
0#
0&
0(
0)
0'
0?
#2280000
0!
03
1*
#2290000
1!
13
0*
1H
1>
04
1#
1?
#2300000
0!
03
1*
#2310000
1!
13
0*
0H
1@
14
0#
1$
#2320000
0!
03
1*
#2330000
1!
13
0*
1H
1A
0>
04
1#
1B
0?
#2340000
0!
03
1*
#2350000
1!
13
0*
0H
1C
0@
14
0#
1%
0$
#2360000
0!
03
1*
#2370000
1!
13
0*
1H
1>
04
1#
1?
#2380000
0!
03
1*
#2390000
1!
13
0*
0H
1@
14
0#
1$
#2400000
0!
03
1*
#2410000
1!
13
0*
1H
1D
0A
0>
04
1#
1E
0B
0?
#2420000
0!
03
1*
#2430000
1!
13
0*
0H
1F
0C
0@
0D
14
0E
01
02
0#
1&
0%
0$
1E
11
12
17
1;
06
1'
1<
#2440000
0!
03
1*
#2450000
1!
13
0*
1H
1>
04
1#
1?
#2460000
0!
03
1*
#2470000
1!
13
0*
0H
1@
14
0#
1$
#2480000
0!
03
1*
#2490000
1!
13
0*
1H
1A
0>
04
1#
1B
0?
#2500000
0!
03
1*
#2510000
1!
13
0*
0H
1C
0@
14
0#
1%
0$
#2520000
0!
03
1*
#2530000
1!
13
0*
1H
1>
04
1#
1?
#2540000
0!
03
1*
#2550000
1!
13
0*
0H
1@
14
0#
1$
#2560000
0!
03
1*
#2570000
1!
13
0*
1H
1D
0A
0>
04
1#
0E
01
0B
0?
02
#2580000
0!
03
1*
#2590000
1!
13
0*
0H
0F
0C
0@
0D
14
1E
11
12
0#
0&
0%
0$
0E
1=
07
16
1(
0'
#2600000
0!
03
1*
#2610000
1!
13
0*
1H
1>
04
1#
1?
#2620000
0!
03
1*
#2630000
1!
13
0*
0H
1@
14
0#
1$
#2640000
0!
03
1*
#2650000
1!
13
0*
1H
1A
0>
04
1#
1B
0?
#2660000
0!
03
1*
#2670000
1!
13
0*
0H
1C
0@
14
0#
1%
0$
#2680000
0!
03
1*
#2690000
1!
13
0*
1H
1>
04
1#
1?
#2700000
0!
03
1*
#2710000
1!
13
0*
0H
1@
14
0#
1$
#2720000
0!
03
1*
#2730000
1!
13
0*
1H
1D
0A
0>
04
1#
1E
0B
0?
#2740000
0!
03
1*
#2750000
1!
13
0*
0H
1F
0C
0@
0D
14
0E
01
02
0#
1&
0%
0$
1E
11
12
17
0;
18
06
1'
0<
19
#2760000
0!
03
1*
#2770000
1!
13
0*
1H
1>
04
1#
1?
#2780000
0!
03
1*
#2790000
1!
13
0*
0H
1@
14
0#
1$
#2800000
0!
03
1*
#2810000
1!
13
0*
1H
1A
0>
04
1#
1B
0?
#2820000
0!
03
1*
#2830000
1!
13
0*
0H
1C
0@
14
0#
1%
0$
#2840000
0!
03
1*
#2850000
1!
13
0*
1H
1>
04
1#
1?
#2860000
0!
03
1*
#2870000
1!
13
0*
0H
1@
14
0#
1$
#2880000
0!
03
1*
#2890000
1!
13
0*
1H
1D
0A
0>
04
1#
0E
01
0B
0?
02
#2900000
0!
03
1*
#2910000
1!
13
0*
0H
0F
0C
0@
0D
14
1E
11
12
0#
0&
0%
0$
0E
0=
1:
07
16
0(
1)
0'
#2920000
0!
03
1*
#2930000
1!
13
0*
1H
1>
04
1#
1?
#2940000
0!
03
1*
#2950000
1!
13
0*
0H
1@
14
0#
1$
#2960000
0!
03
1*
#2970000
1!
13
0*
1H
1A
0>
04
1#
1B
0?
#2980000
0!
03
1*
#2990000
1!
13
0*
0H
1C
0@
14
0#
1%
0$
#3000000
0!
03
1*
#3010000
1!
13
0*
1H
1>
04
1#
1?
#3020000
0!
03
1*
#3030000
1!
13
0*
0H
1@
14
0#
1$
#3040000
0!
03
1*
#3050000
1!
13
0*
1H
1D
0A
0>
04
1#
1E
0B
0?
#3060000
0!
03
1*
#3070000
1!
13
0*
0H
1F
0C
0@
0D
14
0E
01
02
0#
1&
0%
0$
1E
11
12
17
1;
06
1'
1<
#3080000
0!
03
1*
#3090000
1!
13
0*
1H
1>
04
1#
1?
#3100000
0!
03
1*
#3110000
1!
13
0*
0H
1@
14
0#
1$
#3120000
0!
03
1*
#3130000
1!
13
0*
1H
1A
0>
04
1#
1B
0?
#3140000
0!
03
1*
#3150000
1!
13
0*
0H
1C
0@
14
0#
1%
0$
#3160000
0!
03
1*
#3170000
1!
13
0*
1H
1>
04
1#
1?
#3180000
0!
03
1*
#3190000
1!
13
0*
0H
1@
14
0#
1$
#3200000
0!
03
1*
#3210000
1!
13
0*
1H
1D
0A
0>
04
1#
0E
01
0B
0?
02
#3220000
0!
03
1*
#3230000
1!
13
0*
0H
0F
0C
0@
0D
14
1E
11
12
0#
0&
0%
0$
0E
1=
07
16
1(
0'
#3240000
0!
03
1*
#3250000
1!
13
0*
1H
1>
04
1#
1?
#3260000
0!
03
1*
#3270000
1!
13
0*
0H
1@
14
0#
1$
#3280000
0!
03
1*
#3290000
1!
13
0*
1H
1A
0>
04
1#
1B
0?
#3300000
0!
03
1*
#3310000
1!
13
0*
0H
1C
0@
14
0#
1%
0$
#3320000
0!
03
1*
#3330000
1!
13
0*
1H
1>
04
1#
1?
#3340000
0!
03
1*
#3350000
1!
13
0*
0H
1@
14
0#
1$
#3360000
0!
03
1*
#3370000
1!
13
0*
1H
1D
0A
0>
04
1#
1E
0B
0?
#3380000
0!
03
1*
#3390000
1!
13
0*
0H
1F
0C
0@
0D
14
0E
01
02
0#
1&
0%
0$
1E
11
12
17
0;
08
06
1'
0<
09
#3400000
0!
03
1*
#3410000
1!
13
0*
1H
1G
1>
04
1#
1?
0H
0F
0=
0:
07
0G
0>
14
0E
16
0#
0&
0(
0)
0'
0?
#3420000
0!
03
1*
#3430000
1!
13
0*
1H
1>
04
1#
1?
#3440000
0!
03
1*
#3450000
1!
13
0*
0H
1@
14
0#
1$
#3460000
0!
03
1*
#3470000
1!
13
0*
1H
1A
0>
04
1#
1B
0?
#3480000
0!
03
1*
#3490000
1!
13
0*
0H
1C
0@
14
0#
1%
0$
#3500000
0!
03
1*
#3510000
1!
13
0*
1H
1>
04
1#
1?
#3520000
0!
03
1*
#3530000
1!
13
0*
0H
1@
14
0#
1$
#3540000
0!
03
1*
#3550000
1!
13
0*
1H
1D
0A
0>
04
1#
1E
0B
0?
#3560000
0!
03
1*
#3570000
1!
13
0*
0H
1F
0C
0@
0D
14
0E
01
02
0#
1&
0%
0$
1E
11
12
17
1;
06
1'
1<
#3580000
0!
03
1*
#3590000
1!
13
0*
1H
1>
04
1#
1?
#3600000
0!
03
1*
#3610000
1!
13
0*
0H
1@
14
0#
1$
#3620000
0!
03
1*
#3630000
1!
13
0*
1H
1A
0>
04
1#
1B
0?
#3640000
0!
03
1*
#3650000
1!
13
0*
0H
1C
0@
14
0#
1%
0$
#3660000
0!
03
1*
#3670000
1!
13
0*
1H
1>
04
1#
1?
#3680000
0!
03
1*
#3690000
1!
13
0*
0H
1@
14
0#
1$
#3700000
0!
03
1*
#3710000
1!
13
0*
1H
1D
0A
0>
04
1#
0E
01
0B
0?
02
#3720000
0!
03
1*
#3730000
1!
13
0*
0H
0F
0C
0@
0D
14
1E
11
12
0#
0&
0%
0$
0E
1=
07
16
1(
0'
#3740000
0!
03
1*
#3750000
1!
13
0*
1H
1>
04
1#
1?
#3760000
0!
03
1*
#3770000
1!
13
0*
0H
1@
14
0#
1$
#3780000
0!
03
1*
#3790000
1!
13
0*
1H
1A
0>
04
1#
1B
0?
#3800000
0!
03
1*
#3810000
1!
13
0*
0H
1C
0@
14
0#
1%
0$
#3820000
0!
03
1*
#3830000
1!
13
0*
1H
1>
04
1#
1?
#3840000
0!
03
1*
#3850000
1!
13
0*
0H
1@
14
0#
1$
#3860000
0!
03
1*
#3870000
1!
13
0*
1H
1D
0A
0>
04
1#
1E
0B
0?
#3880000
0!
03
1*
#3890000
1!
13
0*
0H
1F
0C
0@
0D
14
0E
01
02
0#
1&
0%
0$
1E
11
12
17
0;
18
06
1'
0<
19
#3900000
0!
03
1*
#3910000
1!
13
0*
1H
1>
04
1#
1?
#3920000
0!
03
1*
#3930000
1!
13
0*
0H
1@
14
0#
1$
#3940000
0!
03
1*
#3950000
1!
13
0*
1H
1A
0>
04
1#
1B
0?
#3960000
0!
03
1*
#3970000
1!
13
0*
0H
1C
0@
14
0#
1%
0$
#3980000
0!
03
1*
#3990000
1!
13
0*
1H
1>
04
1#
1?
#4000000
0!
03
1*
#4010000
1!
13
0*
0H
1@
14
0#
1$
#4020000
0!
03
1*
#4030000
1!
13
0*
1H
1D
0A
0>
04
1#
0E
01
0B
0?
02
#4040000
0!
03
1*
#4050000
1!
13
0*
0H
0F
0C
0@
0D
14
1E
11
12
0#
0&
0%
0$
0E
0=
1:
07
16
0(
1)
0'
#4060000
0!
03
1*
#4070000
1!
13
0*
1H
1>
04
1#
1?
#4080000
0!
03
1*
#4090000
1!
13
0*
0H
1@
14
0#
1$
#4100000
0!
03
1*
#4110000
1!
13
0*
1H
1A
0>
04
1#
1B
0?
#4120000
0!
03
1*
#4130000
1!
13
0*
0H
1C
0@
14
0#
1%
0$
#4140000
0!
03
1*
#4150000
1!
13
0*
1H
1>
04
1#
1?
#4160000
0!
03
1*
#4170000
1!
13
0*
0H
1@
14
0#
1$
#4180000
0!
03
1*
#4190000
1!
13
0*
1H
1D
0A
0>
04
1#
1E
0B
0?
#4200000
0!
03
1*
#4210000
1!
13
0*
0H
1F
0C
0@
0D
14
0E
01
02
0#
1&
0%
0$
1E
11
12
17
1;
06
1'
1<
#4220000
0!
03
1*
#4230000
1!
13
0*
1H
1>
04
1#
1?
#4240000
0!
03
1*
#4250000
1!
13
0*
0H
1@
14
0#
1$
#4260000
0!
03
1*
#4270000
1!
13
0*
1H
1A
0>
04
1#
1B
0?
#4280000
0!
03
1*
#4290000
1!
13
0*
0H
1C
0@
14
0#
1%
0$
#4300000
0!
03
1*
#4310000
1!
13
0*
1H
1>
04
1#
1?
#4320000
0!
03
1*
#4330000
1!
13
0*
0H
1@
14
0#
1$
#4340000
0!
03
1*
#4350000
1!
13
0*
1H
1D
0A
0>
04
1#
0E
01
0B
0?
02
#4360000
0!
03
1*
#4370000
1!
13
0*
0H
0F
0C
0@
0D
14
1E
11
12
0#
0&
0%
0$
0E
1=
07
16
1(
0'
#4380000
0!
03
1*
#4390000
1!
13
0*
1H
1>
04
1#
1?
#4400000
0!
03
1*
#4410000
1!
13
0*
0H
1@
14
0#
1$
#4420000
0!
03
1*
#4430000
1!
13
0*
1H
1A
0>
04
1#
1B
0?
#4440000
0!
03
1*
#4450000
1!
13
0*
0H
1C
0@
14
0#
1%
0$
#4460000
0!
03
1*
#4470000
1!
13
0*
1H
1>
04
1#
1?
#4480000
0!
03
1*
#4490000
1!
13
0*
0H
1@
14
0#
1$
#4500000
0!
03
1*
#4510000
1!
13
0*
1H
1D
0A
0>
04
1#
1E
0B
0?
#4520000
0!
03
1*
#4530000
1!
13
0*
0H
1F
0C
0@
0D
14
0E
01
02
0#
1&
0%
0$
1E
11
12
17
0;
08
06
1'
0<
09
#4540000
0!
03
1*
#4550000
1!
13
0*
1H
1G
1>
04
1#
1?
0H
0F
0=
0:
07
0G
0>
14
0E
16
0#
0&
0(
0)
0'
0?
#4560000
0!
03
1*
#4570000
1!
13
0*
1H
1>
04
1#
1?
#4580000
0!
03
1*
#4590000
1!
13
0*
0H
1@
14
0#
1$
#4600000
0!
03
1*
#4610000
1!
13
0*
1H
1A
0>
04
1#
1B
0?
#4620000
0!
03
1*
#4630000
1!
13
0*
0H
1C
0@
14
0#
1%
0$
#4640000
0!
03
1*
#4650000
1!
13
0*
1H
1>
04
1#
1?
#4660000
0!
03
1*
#4670000
1!
13
0*
0H
1@
14
0#
1$
#4680000
0!
03
1*
#4690000
1!
13
0*
1H
1D
0A
0>
04
1#
1E
0B
0?
#4700000
0!
03
1*
#4710000
1!
13
0*
0H
1F
0C
0@
0D
14
0E
01
02
0#
1&
0%
0$
1E
11
12
17
1;
06
1'
1<
#4720000
0!
03
1*
#4730000
1!
13
0*
1H
1>
04
1#
1?
#4740000
0!
03
1*
#4750000
1!
13
0*
0H
1@
14
0#
1$
#4760000
0!
03
1*
#4770000
1!
13
0*
1H
1A
0>
04
1#
1B
0?
#4780000
0!
03
1*
#4790000
1!
13
0*
0H
1C
0@
14
0#
1%
0$
#4800000
0!
03
1*
#4810000
1!
13
0*
1H
1>
04
1#
1?
#4820000
0!
03
1*
#4830000
1!
13
0*
0H
1@
14
0#
1$
#4840000
0!
03
1*
#4850000
1!
13
0*
1H
1D
0A
0>
04
1#
0E
01
0B
0?
02
#4860000
0!
03
1*
#4870000
1!
13
0*
0H
0F
0C
0@
0D
14
1E
11
12
0#
0&
0%
0$
0E
1=
07
16
1(
0'
#4880000
0!
03
1*
#4890000
1!
13
0*
1H
1>
04
1#
1?
#4900000
0!
03
1*
#4910000
1!
13
0*
0H
1@
14
0#
1$
#4920000
0!
03
1*
#4930000
1!
13
0*
1H
1A
0>
04
1#
1B
0?
#4940000
0!
03
1*
#4950000
1!
13
0*
0H
1C
0@
14
0#
1%
0$
#4960000
0!
03
1*
#4970000
1!
13
0*
1H
1>
04
1#
1?
#4980000
0!
03
1*
#4990000
1!
13
0*
0H
1@
14
0#
1$
#5000000
0!
03
1*
#5010000
1!
13
0*
1H
1D
0A
0>
04
1#
1E
0B
0?
#5020000
0!
03
1*
#5030000
1!
13
0*
0H
1F
0C
0@
0D
14
0E
01
02
0#
1&
0%
0$
1E
11
12
17
0;
18
06
1'
0<
19
#5040000
0!
03
1*
#5050000
1!
13
0*
1H
1>
04
1#
1?
#5060000
0!
03
1*
#5070000
1!
13
0*
0H
1@
14
0#
1$
#5080000
0!
03
1*
#5090000
1!
13
0*
1H
1A
0>
04
1#
1B
0?
#5100000
0!
03
1*
#5110000
1!
13
0*
0H
1C
0@
14
0#
1%
0$
#5120000
0!
03
1*
#5130000
1!
13
0*
1H
1>
04
1#
1?
#5140000
0!
03
1*
#5150000
1!
13
0*
0H
1@
14
0#
1$
#5160000
0!
03
1*
#5170000
1!
13
0*
1H
1D
0A
0>
04
1#
0E
01
0B
0?
02
#5180000
0!
03
1*
#5190000
1!
13
0*
0H
0F
0C
0@
0D
14
1E
11
12
0#
0&
0%
0$
0E
0=
1:
07
16
0(
1)
0'
#5200000
0!
03
1*
#5210000
1!
13
0*
1H
1>
04
1#
1?
#5220000
0!
03
1*
#5230000
1!
13
0*
0H
1@
14
0#
1$
#5240000
0!
03
1*
#5250000
1!
13
0*
1H
1A
0>
04
1#
1B
0?
#5260000
0!
03
1*
#5270000
1!
13
0*
0H
1C
0@
14
0#
1%
0$
#5280000
0!
03
1*
#5290000
1!
13
0*
1H
1>
04
1#
1?
#5300000
0!
03
1*
#5310000
1!
13
0*
0H
1@
14
0#
1$
#5320000
0!
03
1*
#5330000
1!
13
0*
1H
1D
0A
0>
04
1#
1E
0B
0?
#5340000
0!
03
1*
#5350000
1!
13
0*
0H
1F
0C
0@
0D
14
0E
01
02
0#
1&
0%
0$
1E
11
12
17
1;
06
1'
1<
#5360000
0!
03
1*
#5370000
1!
13
0*
1H
1>
04
1#
1?
#5380000
0!
03
1*
#5390000
1!
13
0*
0H
1@
14
0#
1$
#5400000
0!
03
1*
#5410000
1!
13
0*
1H
1A
0>
04
1#
1B
0?
#5420000
0!
03
1*
#5430000
1!
13
0*
0H
1C
0@
14
0#
1%
0$
#5440000
0!
03
1*
#5450000
1!
13
0*
1H
1>
04
1#
1?
#5460000
0!
03
1*
#5470000
1!
13
0*
0H
1@
14
0#
1$
#5480000
0!
03
1*
#5490000
1!
13
0*
1H
1D
0A
0>
04
1#
0E
01
0B
0?
02
#5500000
0!
03
1*
#5510000
1!
13
0*
0H
0F
0C
0@
0D
14
1E
11
12
0#
0&
0%
0$
0E
1=
07
16
1(
0'
#5520000
0!
03
1*
#5530000
1!
13
0*
1H
1>
04
1#
1?
#5540000
0!
03
1*
#5550000
1!
13
0*
0H
1@
14
0#
1$
#5560000
0!
03
1*
#5570000
1!
13
0*
1H
1A
0>
04
1#
1B
0?
#5580000
0!
03
1*
#5590000
1!
13
0*
0H
1C
0@
14
0#
1%
0$
#5600000
0!
03
1*
#5610000
1!
13
0*
1H
1>
04
1#
1?
#5620000
0!
03
1*
#5630000
1!
13
0*
0H
1@
14
0#
1$
#5640000
0!
03
1*
#5650000
1!
13
0*
1H
1D
0A
0>
04
1#
1E
0B
0?
#5660000
0!
03
1*
#5670000
1!
13
0*
0H
1F
0C
0@
0D
14
0E
01
02
0#
1&
0%
0$
1E
11
12
17
0;
08
06
1'
0<
09
#5680000
0!
03
1*
