lab03/licznik7943/simulation/qsim/licznik7943.msim.vcd
$comment
	File created using the following command:
		vcd file licznik7943.msim.vcd -direction
$end
$date
	Wed Dec 14 19:39:24 2016
$end
$version
	ModelSim Version 10.1d
$end
$timescale
	1ps
$end
$scope module licznik7943_vlg_vec_tst $end
$var reg 1 ! pin_name1 $end
$var wire 1 " pin_name2 $end
$var wire 1 # pin_name3 $end
$var wire 1 $ pin_name4 $end
$var wire 1 % pin_name5 $end
$var wire 1 & pin_name6 $end
$var wire 1 ' pin_name7 $end
$var wire 1 ( pin_name8 $end
$var wire 1 ) pin_name9 $end
$var wire 1 * sampler $end
$scope module i1 $end
$var wire 1 + gnd $end
$var wire 1 , vcc $end
$var wire 1 - unknown $end
$var tri1 1 . devclrn $end
$var tri1 1 / devpor $end
$var tri1 1 0 devoe $end
$var wire 1 1 pin_name1~combout $end
$var wire 1 2 inst|16~0_combout $end
$var wire 1 3 inst|16~regout $end
$var wire 1 4 inst|15~0_combout $end
$var wire 1 5 inst|15~regout $end
$var wire 1 6 inst|14~0_combout $end
$var wire 1 7 inst|14~regout $end
$var wire 1 8 inst|13~0_combout $end
$var wire 1 9 inst|13~regout $end
$var wire 1 : inst2~combout $end
$var wire 1 ; inst1|16~0_combout $end
$var wire 1 < inst1|16~regout $end
$var wire 1 = inst1|16~clkctrl_outclk $end
$var wire 1 > inst1|15~0_combout $end
$var wire 1 ? inst1|15~regout $end
$var wire 1 @ inst1|14~0_combout $end
$var wire 1 A inst1|14~regout $end
$var wire 1 B inst1|13~0_combout $end
$var wire 1 C inst1|13~regout $end
$upscope $end
$upscope $end
$enddefinitions $end
#0
$dumpvars
0!
0"
x#
x$
x%
0&
x'
x(
x)
x*
0+
1,
x-
1.
1/
10
01
12
03
x4
x5
x6
x7
x8
x9
1:
1;
0<
0=
x>
x?
x@
xA
xB
xC
$end
#10000
1!
11
0*
#20000
0!
01
1*
13
x:
02
1"
#30000
1!
11
0*
#40000
0!
01
1*
03
1:
12
0"
#50000
1!
11
0*
#60000
0!
01
1*
13
x:
02
1"
#70000
1!
11
0*
#80000
0!
01
1*
03
1:
12
0"
#90000
1!
11
0*
#100000
0!
01
1*
13
x:
02
1"
#110000
1!
11
0*
#120000
0!
01
1*
03
1:
12
0"
#130000
1!
11
0*
#140000
0!
01
1*
13
x:
02
1"
#150000
1!
11
0*
#160000
0!
01
1*
03
1:
12
0"
#170000
1!
11
0*
#180000
0!
01
1*
13
x:
02
1"
#190000
1!
11
0*
#200000
0!
01
1*
03
1:
12
0"
#210000
1!
11
0*
#220000
0!
01
1*
13
x:
02
1"
#230000
1!
11
0*
#240000
0!
01
1*
03
1:
12
0"
#250000
1!
11
0*
#260000
0!
01
1*
13
x:
02
1"
#270000
1!
11
0*
#280000
0!
01
1*
03
1:
12
0"
#290000
1!
11
0*
#300000
0!
01
1*
13
x:
02
1"
#310000
1!
11
0*
#320000
0!
01
1*
03
1:
12
0"
#330000
1!
11
0*
#340000
0!
01
1*
13
x:
02
1"
#350000
1!
11
0*
#360000
0!
01
1*
03
1:
12
0"
#370000
1!
11
0*
#380000
0!
01
1*
13
x:
02
1"
#390000
1!
11
0*
#400000
0!
01
1*
03
1:
12
0"
#410000
1!
11
0*
#420000
0!
01
1*
13
x:
02
1"
#430000
1!
11
0*
#440000
0!
01
1*
03
1:
12
0"
#450000
1!
11
0*
#460000
0!
01
1*
13
x:
02
1"
#470000
1!
11
0*
#480000
0!
01
1*
03
1:
12
0"
#490000
1!
11
0*
#500000
0!
01
1*
13
x:
02
1"
#510000
1!
11
0*
#520000
0!
01
1*
03
1:
12
0"
#530000
1!
11
0*
#540000
0!
01
1*
13
x:
02
1"
#550000
1!
11
0*
#560000
0!
01
1*
03
1:
12
0"
#570000
1!
11
0*
#580000
0!
01
1*
13
x:
02
1"
#590000
1!
11
0*
#600000
0!
01
1*
03
1:
12
0"
#610000
1!
11
0*
#620000
0!
01
1*
13
x:
02
1"
#630000
1!
11
0*
#640000
0!
01
1*
03
1:
12
0"
#650000
1!
11
0*
#660000
0!
01
1*
13
x:
02
1"
#670000
1!
11
0*
#680000
0!
01
1*
03
1:
12
0"
#690000
1!
11
0*
#700000
0!
01
1*
13
x:
02
1"
#710000
1!
11
0*
#720000
0!
01
1*
03
1:
12
0"
#730000
1!
11
0*
#740000
0!
01
1*
13
x:
02
1"
#750000
1!
11
0*
#760000
0!
01
1*
03
1:
12
0"
#770000
1!
11
0*
#780000
0!
01
1*
13
x:
02
1"
#790000
1!
11
0*
#800000
0!
01
1*
03
1:
12
0"
#810000
1!
11
0*
#820000
0!
01
1*
13
x:
02
1"
#830000
1!
11
0*
#840000
0!
01
1*
03
1:
12
0"
#850000
1!
11
0*
#860000
0!
01
1*
13
x:
02
1"
#870000
1!
11
0*
#880000
0!
01
1*
03
1:
12
0"
#890000
1!
11
0*
#900000
0!
01
1*
13
x:
02
1"
#910000
1!
11
0*
#920000
0!
01
1*
03
1:
12
0"
#930000
1!
11
0*
#940000
0!
01
1*
13
x:
02
1"
#950000
1!
11
0*
#960000
0!
01
1*
03
1:
12
0"
#970000
1!
11
0*
#980000
0!
01
1*
13
x:
02
1"
#990000
1!
11
0*
#1000000
0!
01
1*
03
1:
12
0"
#1010000
1!
11
0*
#1020000
0!
01
1*
13
x:
02
1"
#1030000
1!
11
0*
#1040000
0!
01
1*
03
1:
12
0"
#1050000
1!
11
0*
#1060000
0!
01
1*
13
x:
02
1"
#1070000
1!
11
0*
#1080000
0!
01
1*
03
1:
12
0"
#1090000
1!
11
0*
#1100000
0!
01
1*
13
x:
02
1"
#1110000
1!
11
0*
#1120000
0!
01
1*
03
1:
12
0"
#1130000
1!
11
0*
#1140000
0!
01
1*
13
x:
02
1"
#1150000
1!
11
0*
#1160000
0!
01
1*
03
1:
12
0"
#1170000
1!
11
0*
#1180000
0!
01
1*
13
x:
02
1"
#1190000
1!
11
0*
#1200000
0!
01
1*
03
1:
12
0"
#1210000
1!
11
0*
#1220000
0!
01
1*
13
x:
02
1"
#1230000
1!
11
0*
#1240000
0!
01
1*
03
1:
12
0"
#1250000
1!
11
0*
#1260000
0!
01
1*
13
x:
02
1"
#1270000
1!
11
0*
#1280000
0!
01
1*
03
1:
12
0"
#1290000
1!
11
0*
#1300000
0!
01
1*
13
x:
02
1"
#1310000
1!
11
0*
#1320000
0!
01
1*
03
1:
12
0"
#1330000
1!
11
0*
#1340000
0!
01
1*
13
x:
02
1"
#1350000
1!
11
0*
#1360000
0!
01
1*
03
1:
12
0"
#1370000
1!
11
0*
#1380000
0!
01
1*
13
x:
02
1"
#1390000
1!
11
0*
#1400000
0!
01
1*
03
1:
12
0"
#1410000
1!
11
0*
#1420000
0!
01
1*
13
x:
02
1"
#1430000
1!
11
0*
#1440000
0!
01
1*
03
1:
12
0"
#1450000
1!
11
0*
#1460000
0!
01
1*
13
x:
02
1"
#1470000
1!
11
0*
#1480000
0!
01
1*
03
1:
12
0"
#1490000
1!
11
0*
#1500000
0!
01
1*
13
x:
02
1"
#1510000
1!
11
0*
#1520000
0!
01
1*
03
1:
12
0"
#1530000
1!
11
0*
#1540000
0!
01
1*
13
x:
02
1"
#1550000
1!
11
0*
#1560000
0!
01
1*
03
1:
12
0"
#1570000
1!
11
0*
#1580000
0!
01
1*
13
x:
02
1"
#1590000
1!
11
0*
#1600000
0!
01
1*
03
1:
12
0"
#1610000
1!
11
0*
#1620000
0!
01
1*
13
x:
02
1"
#1630000
1!
11
0*
#1640000
0!
01
1*
03
1:
12
0"
#1650000
1!
11
0*
#1660000
0!
01
1*
13
x:
02
1"
#1670000
1!
11
0*
#1680000
0!
01
1*
03
1:
12
0"
#1690000
1!
11
0*
#1700000
0!
01
1*
13
x:
02
1"
#1710000
1!
11
0*
#1720000
0!
01
1*
03
1:
12
0"
#1730000
1!
11
0*
#1740000
0!
01
1*
13
x:
02
1"
#1750000
1!
11
0*
#1760000
0!
01
1*
03
1:
12
0"
#1770000
1!
11
0*
#1780000
0!
01
1*
13
x:
02
1"
#1790000
1!
11
0*
#1800000
0!
01
1*
03
1:
12
0"
#1810000
1!
11
0*
#1820000
0!
01
1*
13
x:
02
1"
#1830000
1!
11
0*
#1840000
0!
01
1*
03
1:
12
0"
#1850000
1!
11
0*
#1860000
0!
01
1*
13
x:
02
1"
#1870000
1!
11
0*
#1880000
0!
01
1*
03
1:
12
0"
#1890000
1!
11
0*
#1900000
0!
01
1*
13
x:
02
1"
#1910000
1!
11
0*
#1920000
0!
01
1*
03
1:
12
0"
#1930000
1!
11
0*
#1940000
0!
01
1*
13
x:
02
1"
#1950000
1!
11
0*
#1960000
0!
01
1*
03
1:
12
0"
#1970000
1!
11
0*
#1980000
0!
01
1*
13
x:
02
1"
#1990000
1!
11
0*
#2000000
0!
01
1*
03
1:
12
0"
#2010000
1!
11
0*
#2020000
0!
01
1*
13
x:
02
1"
#2030000
1!
11
0*
#2040000
0!
01
1*
03
1:
12
0"
#2050000
1!
11
0*
#2060000
0!
01
1*
13
x:
02
1"
#2070000
1!
11
0*
#2080000
0!
01
1*
03
1:
12
0"
#2090000
1!
11
0*
#2100000
0!
01
1*
13
x:
02
1"
#2110000
1!
11
0*
#2120000
0!
01
1*
03
1:
12
0"
#2130000
1!
11
0*
#2140000
0!
01
1*
13
x:
02
1"
#2150000
1!
11
0*
#2160000
0!
01
1*
03
1:
12
0"
#2170000
1!
11
0*
#2180000
0!
01
1*
13
x:
02
1"
#2190000
1!
11
0*
#2200000
0!
01
1*
03
1:
12
0"
#2210000
1!
11
0*
#2220000
0!
01
1*
13
x:
02
1"
#2230000
1!
11
0*
#2240000
0!
01
1*
03
1:
12
0"
#2250000
1!
11
0*
#2260000
0!
01
1*
13
x:
02
1"
#2270000
1!
11
0*
#2280000
0!
01
1*
03
1:
12
0"
#2290000
1!
11
0*
#2300000
0!
01
1*
13
x:
02
1"
#2310000
1!
11
0*
#2320000
0!
01
1*
03
1:
12
0"
#2330000
1!
11
0*
#2340000
0!
01
1*
13
x:
02
1"
#2350000
1!
11
0*
#2360000
0!
01
1*
03
1:
12
0"
#2370000
1!
11
0*
#2380000
0!
01
1*
13
x:
02
1"
#2390000
1!
11
0*
#2400000
0!
01
1*
03
1:
12
0"
#2410000
1!
11
0*
#2420000
0!
01
1*
13
x:
02
1"
#2430000
1!
11
0*
#2440000
0!
01
1*
03
1:
12
0"
#2450000
1!
11
0*
#2460000
0!
01
1*
13
x:
02
1"
#2470000
1!
11
0*
#2480000
0!
01
1*
03
1:
12
0"
#2490000
1!
11
0*
#2500000
0!
01
1*
13
x:
02
1"
#2510000
1!
11
0*
#2520000
0!
01
1*
03
1:
12
0"
#2530000
1!
11
0*
#2540000
0!
01
1*
13
x:
02
1"
#2550000
1!
11
0*
#2560000
0!
01
1*
03
1:
12
0"
#2570000
1!
11
0*
#2580000
0!
01
1*
13
x:
02
1"
#2590000
1!
11
0*
#2600000
0!
01
1*
03
1:
12
0"
#2610000
1!
11
0*
#2620000
0!
01
1*
13
x:
02
1"
#2630000
1!
11
0*
#2640000
0!
01
1*
03
1:
12
0"
#2650000
1!
11
0*
#2660000
0!
01
1*
13
x:
02
1"
#2670000
1!
11
0*
#2680000
0!
01
1*
03
1:
12
0"
#2690000
1!
11
0*
#2700000
0!
01
1*
13
x:
02
1"
#2710000
1!
11
0*
#2720000
0!
01
1*
03
1:
12
0"
#2730000
1!
11
0*
#2740000
0!
01
1*
13
x:
02
1"
#2750000
1!
11
0*
#2760000
0!
01
1*
03
1:
12
0"
#2770000
1!
11
0*
#2780000
0!
01
1*
13
x:
02
1"
#2790000
1!
11
0*
#2800000
0!
01
1*
03
1:
12
0"
#2810000
1!
11
0*
#2820000
0!
01
1*
13
x:
02
1"
#2830000
1!
11
0*
#2840000
0!
01
1*
03
1:
12
0"
#2850000
1!
11
0*
#2860000
0!
01
1*
13
x:
02
1"
#2870000
1!
11
0*
#2880000
0!
01
1*
03
1:
12
0"
#2890000
1!
11
0*
#2900000
0!
01
1*
13
x:
02
1"
#2910000
1!
11
0*
#2920000
0!
01
1*
03
1:
12
0"
#2930000
1!
11
0*
#2940000
0!
01
1*
13
x:
02
1"
#2950000
1!
11
0*
#2960000
0!
01
1*
03
1:
12
0"
#2970000
1!
11
0*
#2980000
0!
01
1*
13
x:
02
1"
#2990000
1!
11
0*
#3000000
0!
01
1*
03
1:
12
0"
#3010000
1!
11
0*
#3020000
0!
01
1*
13
x:
02
1"
#3030000
1!
11
0*
#3040000
0!
01
1*
03
1:
12
0"
#3050000
1!
11
0*
#3060000
0!
01
1*
13
x:
02
1"
#3070000
1!
11
0*
#3080000
0!
01
1*
03
1:
12
0"
#3090000
1!
11
0*
#3100000
0!
01
1*
13
x:
02
1"
#3110000
1!
11
0*
#3120000
0!
01
1*
03
1:
12
0"
#3130000
1!
11
0*
#3140000
0!
01
1*
13
x:
02
1"
#3150000
1!
11
0*
#3160000
0!
01
1*
03
1:
12
0"
#3170000
1!
11
0*
#3180000
0!
01
1*
13
x:
02
1"
#3190000
1!
11
0*
#3200000
0!
01
1*
03
1:
12
0"
#3210000
1!
11
0*
#3220000
0!
01
1*
13
x:
02
1"
#3230000
1!
11
0*
#3240000
0!
01
1*
03
1:
12
0"
#3250000
1!
11
0*
#3260000
0!
01
1*
13
x:
02
1"
#3270000
1!
11
0*
#3280000
0!
01
1*
03
1:
12
0"
#3290000
1!
11
0*
#3300000
0!
01
1*
13
x:
02
1"
#3310000
1!
11
0*
#3320000
0!
01
1*
03
1:
12
0"
#3330000
1!
11
0*
#3340000
0!
01
1*
13
x:
02
1"
#3350000
1!
11
0*
#3360000
0!
01
1*
03
1:
12
0"
#3370000
1!
11
0*
#3380000
0!
01
1*
13
x:
02
1"
#3390000
1!
11
0*
#3400000
0!
01
1*
03
1:
12
0"
#3410000
1!
11
0*
#3420000
0!
01
1*
13
x:
02
1"
#3430000
1!
11
0*
#3440000
0!
01
1*
03
1:
12
0"
#3450000
1!
11
0*
#3460000
0!
01
1*
13
x:
02
1"
#3470000
1!
11
0*
#3480000
0!
01
1*
03
1:
12
0"
#3490000
1!
11
0*
#3500000
0!
01
1*
13
x:
02
1"
#3510000
1!
11
0*
#3520000
0!
01
1*
03
1:
12
0"
#3530000
1!
11
0*
#3540000
0!
01
1*
13
x:
02
1"
#3550000
1!
11
0*
#3560000
0!
01
1*
03
1:
12
0"
#3570000
1!
11
0*
#3580000
0!
01
1*
13
x:
02
1"
#3590000
1!
11
0*
#3600000
0!
01
1*
03
1:
12
0"
#3610000
1!
11
0*
#3620000
0!
01
1*
13
x:
02
1"
#3630000
1!
11
0*
#3640000
0!
01
1*
03
1:
12
0"
#3650000
1!
11
0*
#3660000
0!
01
1*
13
x:
02
1"
#3670000
1!
11
0*
#3680000
0!
01
1*
03
1:
12
0"
#3690000
1!
11
0*
#3700000
0!
01
1*
13
x:
02
1"
#3710000
1!
11
0*
#3720000
0!
01
1*
03
1:
12
0"
#3730000
1!
11
0*
#3740000
0!
01
1*
13
x:
02
1"
#3750000
1!
11
0*
#3760000
0!
01
1*
03
1:
12
0"
#3770000
1!
11
0*
#3780000
0!
01
1*
13
x:
02
1"
#3790000
1!
11
0*
#3800000
0!
01
1*
03
1:
12
0"
#3810000
1!
11
0*
#3820000
0!
01
1*
13
x:
02
1"
#3830000
1!
11
0*
#3840000
0!
01
1*
03
1:
12
0"
#3850000
1!
11
0*
#3860000
0!
01
1*
13
x:
02
1"
#3870000
1!
11
0*
#3880000
0!
01
1*
03
1:
12
0"
#3890000
1!
11
0*
#3900000
0!
01
1*
13
x:
02
1"
#3910000
1!
11
0*
#3920000
0!
01
1*
03
1:
12
0"
#3930000
1!
11
0*
#3940000
0!
01
1*
13
x:
02
1"
#3950000
1!
11
0*
#3960000
0!
01
1*
03
1:
12
0"
#3970000
1!
11
0*
#3980000
0!
01
1*
13
x:
02
1"
#3990000
1!
11
0*
#4000000
0!
01
1*
03
1:
12
0"
#4010000
1!
11
0*
#4020000
0!
01
1*
13
x:
02
1"
#4030000
1!
11
0*
#4040000
0!
01
1*
03
1:
12
0"
#4050000
1!
11
0*
#4060000
0!
01
1*
13
x:
02
1"
#4070000
1!
11
0*
#4080000
0!
01
1*
03
1:
12
0"
#4090000
1!
11
0*
#4100000
0!
01
1*
13
x:
02
1"
#4110000
1!
11
0*
#4120000
0!
01
1*
03
1:
12
0"
#4130000
1!
11
0*
#4140000
0!
01
1*
13
x:
02
1"
#4150000
1!
11
0*
#4160000
0!
01
1*
03
1:
12
0"
#4170000
1!
11
0*
#4180000
0!
01
1*
13
x:
02
1"
#4190000
1!
11
0*
#4200000
0!
01
1*
03
1:
12
0"
#4210000
1!
11
0*
#4220000
0!
01
1*
13
x:
02
1"
#4230000
1!
11
0*
#4240000
0!
01
1*
03
1:
12
0"
#4250000
1!
11
0*
#4260000
0!
01
1*
13
x:
02
1"
#4270000
1!
11
0*
#4280000
0!
01
1*
03
1:
12
0"
#4290000
1!
11
0*
#4300000
0!
01
1*
13
x:
02
1"
#4310000
1!
11
0*
#4320000
0!
01
1*
03
1:
12
0"
#4330000
1!
11
0*
#4340000
0!
01
1*
13
x:
02
1"
#4350000
1!
11
0*
#4360000
0!
01
1*
03
1:
12
0"
#4370000
1!
11
0*
#4380000
0!
01
1*
13
x:
02
1"
#4390000
1!
11
0*
#4400000
0!
01
1*
03
1:
12
0"
#4410000
1!
11
0*
#4420000
0!
01
1*
13
x:
02
1"
#4430000
1!
11
0*
#4440000
0!
01
1*
03
1:
12
0"
#4450000
1!
11
0*
#4460000
0!
01
1*
13
x:
02
1"
#4470000
1!
11
0*
#4480000
0!
01
1*
03
1:
12
0"
#4490000
1!
11
0*
#4500000
0!
01
1*
13
x:
02
1"
#4510000
1!
11
0*
#4520000
0!
01
1*
03
1:
12
0"
#4530000
1!
11
0*
#4540000
0!
01
1*
13
x:
02
1"
#4550000
1!
11
0*
#4560000
0!
01
1*
03
1:
12
0"
#4570000
1!
11
0*
#4580000
0!
01
1*
13
x:
02
1"
#4590000
1!
11
0*
#4600000
0!
01
1*
03
1:
12
0"
#4610000
1!
11
0*
#4620000
0!
01
1*
13
x:
02
1"
#4630000
1!
11
0*
#4640000
0!
01
1*
03
1:
12
0"
#4650000
1!
11
0*
#4660000
0!
01
1*
13
x:
02
1"
#4670000
1!
11
0*
#4680000
0!
01
1*
03
1:
12
0"
#4690000
1!
11
0*
#4700000
0!
01
1*
13
x:
02
1"
#4710000
1!
11
0*
#4720000
0!
01
1*
03
1:
12
0"
#4730000
1!
11
0*
#4740000
0!
01
1*
13
x:
02
1"
#4750000
1!
11
0*
#4760000
0!
01
1*
03
1:
12
0"
#4770000
1!
11
0*
#4780000
0!
01
1*
13
x:
02
1"
#4790000
1!
11
0*
#4800000
0!
01
1*
03
1:
12
0"
#4810000
1!
11
0*
#4820000
0!
01
1*
13
x:
02
1"
#4830000
1!
11
0*
#4840000
0!
01
1*
03
1:
12
0"
#4850000
1!
11
0*
#4860000
0!
01
1*
13
x:
02
1"
#4870000
1!
11
0*
#4880000
0!
01
1*
03
1:
12
0"
#4890000
1!
11
0*
#4900000
0!
01
1*
13
x:
02
1"
#4910000
1!
11
0*
#4920000
0!
01
1*
03
1:
12
0"
#4930000
1!
11
0*
#4940000
0!
01
1*
13
x:
02
1"
#4950000
1!
11
0*
#4960000
0!
01
1*
03
1:
12
0"
#4970000
1!
11
0*
#4980000
0!
01
1*
13
x:
02
1"
#4990000
1!
11
0*
#5000000
0!
01
1*
03
1:
12
0"
#5010000
1!
11
0*
#5020000
0!
01
1*
13
x:
02
1"
#5030000
1!
11
0*
#5040000
0!
01
1*
03
1:
12
0"
#5050000
1!
11
0*
#5060000
0!
01
1*
13
x:
02
1"
#5070000
1!
11
0*
#5080000
0!
01
1*
03
1:
12
0"
#5090000
1!
11
0*
#5100000
0!
01
1*
13
x:
02
1"
#5110000
1!
11
0*
#5120000
0!
01
1*
03
1:
12
0"
#5130000
1!
11
0*
#5140000
0!
01
1*
13
x:
02
1"
#5150000
1!
11
0*
#5160000
0!
01
1*
03
1:
12
0"
#5170000
1!
11
0*
#5180000
0!
01
1*
13
x:
02
1"
#5190000
1!
11
0*
#5200000
0!
01
1*
03
1:
12
0"
#5210000
1!
11
0*
#5220000
0!
01
1*
13
x:
02
1"
#5230000
1!
11
0*
#5240000
0!
01
1*
03
1:
12
0"
#5250000
1!
11
0*
#5260000
0!
01
1*
13
x:
02
1"
#5270000
1!
11
0*
#5280000
0!
01
1*
03
1:
12
0"
#5290000
1!
11
0*
#5300000
0!
01
1*
13
x:
02
1"
#5310000
1!
11
0*
#5320000
0!
01
1*
03
1:
12
0"
#5330000
1!
11
0*
#5340000
0!
01
1*
13
x:
02
1"
#5350000
1!
11
0*
#5360000
0!
01
1*
03
1:
12
0"
#5370000
1!
11
0*
#5380000
0!
01
1*
13
x:
02
1"
#5390000
1!
11
0*
#5400000
0!
01
1*
03
1:
12
0"
#5410000
1!
11
0*
#5420000
0!
01
1*
13
x:
02
1"
#5430000
1!
11
0*
#5440000
0!
01
1*
03
1:
12
0"
#5450000
1!
11
0*
#5460000
0!
01
1*
13
x:
02
1"
#5470000
1!
11
0*
#5480000
0!
01
1*
03
1:
12
0"
#5490000
1!
11
0*
#5500000
0!
01
1*
13
x:
02
1"
#5510000
1!
11
0*
#5520000
0!
01
1*
03
1:
12
0"
#5530000
1!
11
0*
#5540000
0!
01
1*
13
x:
02
1"
#5550000
1!
11
0*
#5560000
0!
01
1*
03
1:
12
0"
#5570000
1!
11
0*
#5580000
0!
01
1*
13
x:
02
1"
#5590000
1!
11
0*
#5600000
0!
01
1*
03
1:
12
0"
#5610000
1!
11
0*
#5620000
0!
01
1*
13
x:
02
1"
#5630000
1!
11
0*
#5640000
0!
01
1*
03
1:
12
0"
#5650000
1!
11
0*
#5660000
0!
01
1*
13
x:
02
1"
#5670000
1!
11
0*
#5680000
0!
01
1*
03
1:
12
0"
#5690000
1!
11
0*
#5700000
0!
01
1*
13
x:
02
1"
#5710000
1!
11
0*
#5720000
0!
01
1*
03
1:
12
0"
#5730000
1!
11
0*
#5740000
0!
01
1*
13
x:
02
1"
#5750000
1!
11
0*
#5760000
0!
01
1*
03
1:
12
0"
#5770000
1!
11
0*
#5780000
0!
01
1*
13
x:
02
1"
#5790000
1!
11
0*
#5800000
0!
01
1*
03
1:
12
0"
#5810000
1!
11
0*
#5820000
0!
01
1*
13
x:
02
1"
#5830000
1!
11
0*
#5840000
0!
01
1*
03
1:
12
0"
#5850000
1!
11
0*
#5860000
0!
01
1*
13
x:
02
1"
#5870000
1!
11
0*
#5880000
0!
01
1*
03
1:
12
0"
#5890000
1!
11
0*
#5900000
0!
01
1*
13
x:
02
1"
#5910000
1!
11
0*
#5920000
0!
01
1*
03
1:
12
0"
#5930000
1!
11
0*
#5940000
0!
01
1*
13
x:
02
1"
#5950000
1!
11
0*
#5960000
0!
01
1*
03
1:
12
0"
#5970000
1!
11
0*
#5980000
0!
01
1*
13
x:
02
1"
#5990000
1!
11
0*
#6000000
0!
01
1*
03
1:
12
0"
#6010000
1!
11
0*
#6020000
0!
01
1*
13
x:
02
1"
#6030000
1!
11
0*
#6040000
0!
01
1*
03
1:
12
0"
#6050000
1!
11
0*
#6060000
0!
01
1*
13
x:
02
1"
#6070000
1!
11
0*
#6080000
0!
01
1*
03
1:
12
0"
#6090000
1!
11
0*
#6100000
0!
01
1*
13
x:
02
1"
#6110000
1!
11
0*
#6120000
0!
01
1*
03
1:
12
0"
#6130000
1!
11
0*
#6140000
0!
01
1*
13
x:
02
1"
#6150000
1!
11
0*
#6160000
0!
01
1*
03
1:
12
0"
#6170000
1!
11
0*
#6180000
0!
01
1*
13
x:
02
1"
#6190000
1!
11
0*
#6200000
0!
01
1*
03
1:
12
0"
#6210000
1!
11
0*
#6220000
0!
01
1*
13
x:
02
1"
#6230000
1!
11
0*
#6240000
0!
01
1*
03
1:
12
0"
#6250000
1!
11
0*
#6260000
0!
01
1*
13
x:
02
1"
#6270000
1!
11
0*
#6280000
0!
01
1*
03
1:
12
0"
#6290000
1!
11
0*
#6300000
0!
01
1*
13
x:
02
1"
#6310000
1!
11
0*
#6320000
0!
01
1*
03
1:
12
0"
#6330000
1!
11
0*
#6340000
0!
01
1*
13
x:
02
1"
#6350000
1!
11
0*
#6360000
0!
01
1*
03
1:
12
0"
#6370000
1!
11
0*
#6380000
0!
01
1*
13
x:
02
1"
#6390000
1!
11
0*
#6400000
0!
01
1*
03
1:
12
0"
#6410000
1!
11
0*
#6420000
0!
01
1*
13
x:
02
1"
#6430000
1!
11
0*
#6440000
0!
01
1*
03
1:
12
0"
#6450000
1!
11
0*
#6460000
0!
01
1*
13
x:
02
1"
#6470000
1!
11
0*
#6480000
0!
01
1*
03
1:
12
0"
#6490000
1!
11
0*
#6500000
0!
01
1*
13
x:
02
1"
#6510000
1!
11
0*
#6520000
0!
01
1*
03
1:
12
0"
#6530000
1!
11
0*
#6540000
0!
01
1*
13
x:
02
1"
#6550000
1!
11
0*
#6560000
0!
01
1*
03
1:
12
0"
#6570000
1!
11
0*
#6580000
0!
01
1*
13
x:
02
1"
#6590000
1!
11
0*
#6600000
0!
01
1*
03
1:
12
0"
#6610000
1!
11
0*
#6620000
0!
01
1*
13
x:
02
1"
#6630000
1!
11
0*
#6640000
0!
01
1*
03
1:
12
0"
#6650000
1!
11
0*
#6660000
0!
01
1*
13
x:
02
1"
#6670000
1!
11
0*
#6680000
0!
01
1*
03
1:
12
0"
#6690000
1!
11
0*
#6700000
0!
01
1*
13
x:
02
1"
#6710000
1!
11
0*
#6720000
0!
01
1*
03
1:
12
0"
#6730000
1!
11
0*
#6740000
0!
01
1*
13
x:
02
1"
#6750000
1!
11
0*
#6760000
0!
01
1*
03
1:
12
0"
#6770000
1!
11
0*
#6780000
0!
01
1*
13
x:
02
1"
#6790000
1!
11
0*
#6800000
0!
01
1*
03
1:
12
0"
#6810000
1!
11
0*
#6820000
0!
01
1*
13
x:
02
1"
#6830000
1!
11
0*
#6840000
0!
01
1*
03
1:
12
0"
#6850000
1!
11
0*
#6860000
0!
01
1*
13
x:
02
1"
#6870000
1!
11
0*
#6880000
0!
01
1*
03
1:
12
0"
#6890000
1!
11
0*
#6900000
0!
01
1*
13
x:
02
1"
#6910000
1!
11
0*
#6920000
0!
01
1*
03
1:
12
0"
#6930000
1!
11
0*
#6940000
0!
01
1*
13
x:
02
1"
#6950000
1!
11
0*
#6960000
0!
01
1*
03
1:
12
0"
#6970000
1!
11
0*
#6980000
0!
01
1*
13
x:
02
1"
#6990000
1!
11
0*
#7000000
0!
01
1*
03
1:
12
0"
#7010000
1!
11
0*
#7020000
0!
01
1*
13
x:
02
1"
#7030000
1!
11
0*
#7040000
0!
01
1*
03
1:
12
0"
#7050000
1!
11
0*
#7060000
0!
01
1*
13
x:
02
1"
#7070000
1!
11
0*
#7080000
0!
01
1*
03
1:
12
0"
#7090000
1!
11
0*
#7100000
0!
01
1*
13
x:
02
1"
#7110000
1!
11
0*
#7120000
0!
01
1*
03
1:
12
0"
#7130000
1!
11
0*
#7140000
0!
01
1*
13
x:
02
1"
#7150000
1!
11
0*
#7160000
0!
01
1*
03
1:
12
0"
#7170000
1!
11
0*
#7180000
0!
01
1*
13
x:
02
1"
#7190000
1!
11
0*
#7200000
0!
01
1*
03
1:
12
0"
#7210000
1!
11
0*
#7220000
0!
01
1*
13
x:
02
1"
#7230000
1!
11
0*
#7240000
0!
01
1*
03
1:
12
0"
#7250000
1!
11
0*
#7260000
0!
01
1*
13
x:
02
1"
#7270000
1!
11
0*
#7280000
0!
01
1*
03
1:
12
0"
#7290000
1!
11
0*
#7300000
0!
01
1*
13
x:
02
1"
#7310000
1!
11
0*
#7320000
0!
01
1*
03
1:
12
0"
#7330000
1!
11
0*
#7340000
0!
01
1*
13
x:
02
1"
#7350000
1!
11
0*
#7360000
0!
01
1*
03
1:
12
0"
#7370000
1!
11
0*
#7380000
0!
01
1*
13
x:
02
1"
#7390000
1!
11
0*
#7400000
0!
01
1*
03
1:
12
0"
#7410000
1!
11
0*
#7420000
0!
01
1*
13
x:
02
1"
#7430000
1!
11
0*
#7440000
0!
01
1*
03
1:
12
0"
#7450000
1!
11
0*
#7460000
0!
01
1*
13
x:
02
1"
#7470000
1!
11
0*
#7480000
0!
01
1*
03
1:
12
0"
#7490000
1!
11
0*
#7500000
0!
01
1*
13
x:
02
1"
#7510000
1!
11
0*
#7520000
0!
01
1*
03
1:
12
0"
#7530000
1!
11
0*
#7540000
0!
01
1*
13
x:
02
1"
#7550000
1!
11
0*
#7560000
0!
01
1*
03
1:
12
0"
#7570000
1!
11
0*
#7580000
0!
01
1*
13
x:
02
1"
#7590000
1!
11
0*
#7600000
0!
01
1*
03
1:
12
0"
#7610000
1!
11
0*
#7620000
0!
01
1*
13
x:
02
1"
#7630000
1!
11
0*
#7640000
0!
01
1*
03
1:
12
0"
#7650000
1!
11
0*
#7660000
0!
01
1*
13
x:
02
1"
#7670000
1!
11
0*
#7680000
0!
01
1*
03
1:
12
0"
#7690000
1!
11
0*
#7700000
0!
01
1*
13
x:
02
1"
#7710000
1!
11
0*
#7720000
0!
01
1*
03
1:
12
0"
#7730000
1!
11
0*
#7740000
0!
01
1*
13
x:
02
1"
#7750000
1!
11
0*
#7760000
0!
01
1*
03
1:
12
0"
#7770000
1!
11
0*
#7780000
0!
01
1*
13
x:
02
1"
#7790000
1!
11
0*
#7800000
0!
01
1*
03
1:
12
0"
#7810000
1!
11
0*
#7820000
0!
01
1*
13
x:
02
1"
#7830000
1!
11
0*
#7840000
0!
01
1*
03
1:
12
0"
#7850000
1!
11
0*
#7860000
0!
01
1*
13
x:
02
1"
